508
22068
79,1040,1041,1042,1043,1044,1050,1056,1057,1058,1061,1062,1063,1064,1065,1068,1070,1073,1074,1075,1078,1079,1080,1082,1083,1084,1085,1091,1092,1104,1106,1107,1109,1110,1117,1118,1123,1125,1126,1131,1135,1136,1137,1138,1139,1140,1142,1143,1144,1147,1154,1155,1156,1160,1162,1163,1164,1175,1176,1177,1180,1181,1182,1183,1184,1185,1191,1192,1195,1197,1201,1202,1204,1205,1209,1211,1212,1217,1218,1219*
30,1246,1249,1250,1251,1252,1256,1258,1262,1263,1265,1266,1267,1268,1272,1274,1276,1277,1278,1280,1284,1288,1289,1290,1291,1293,1295,1296,1300,1303,1304*
28,528,529,530,532,537,538,539,544,548,549,552,553,557,558,559,562,564,565,567,568,571,586,591,592,593,597,604,609*
26,981,984,985,986,987,992,994,995,996,1000,1001,1002,1003,1004,1005,1006,1007,1008,1013,1015,1016,1017,1018,1019,1020,1026*
25,615,619,621,623,626,628,629,632,638,641,644,646,651,658,659,660,663,666,675,680,687,688,690,691,693*
22,782,783,785,788,790,791,800,804,805,806,807,808,809,810,816,817,818,820,821,823,825,826*
20,911,912,914,915,920,921,922,924,926,927,935,938,941,942,943,945,946,953,954,957*
18,830,834,839,840,841,842,843,844,845,847,848,850,851,852,854,855,856,866*
16,1388,1389,1390,1392,1393,1394,1396,1400,1403,1405,1413,1415,1416,1418,1420,1421*
15,379,391,396,397,398,399,401,404,411,420,424,427,428,434,441*
3,429,452,454*
11,482,489,493,494,496,498,501,504,507,511,512*
11,961,964,966,967,968,969,970,972,973,974,975*
8,870,871,872,875,878,879,880,881*
7,362,368,370,372,374,376,377*
7,734,735,738,741,746,748,752*
7,1220,1221,1222,1223,1235,1237,1241*
7,1359,1361,1362,1363,1368,1371,1375*
6,885,887,888,889,891,892*
6,1600,1612,1617,1620,1621,1624*
5,462,463,467,469,471*
5,1968,1969,1970,1972,1973*
4,1316,1318,1322,1323*
4,1319,1320,1321,1324*
4,1327,1329,1330,1334*
4,1593,1599,1619,1622*
4,1626,1631,1637,1644*
4,1718,1720,1722,1723*
4,2006,2009,2015,2016*
3,32,34,37*
3,241,244,258*
3,405,423,435*
3,523,525,536*
3,561,569,583*
3,633,639,654*
3,736,739,743*
3,865,869,873*
3,896,899,904*
3,1207,1208,1210*
3,1294,1301,1305*
3,1414,1417,1422*
3,1597,1601,1614*
3,1611,1613,1618*
3,1630,1635,1643*
3,1655,1658,1662*
3,1690,1695,1692*
3,1829,1831,1835*
3,1925,1928,1929*
3,1953,1958,1960*
3,2112,2113,2116*
29,2564,2565,2566,2567,2568,2569,2574,2575,2576,2577,2578,2579,2581,2584,2585,2586,2587,2588,2589,2590,2591,2594,2595,2596,2597,2598,2599,2600,2601*
23,2273,2275,2277,2278,2281,2289,2296,2297,2300,2301,2303,2304,2305,2306,2307,2308,2313,2314,2315,2317,2318,2320,2326*
19,2329,2331,2333,2334,2338,2339,2340,2341,2342,2345,2346,2348,2349,2352,2355,2356,2357,2359,2360*
15,2927,2928,2934,2935,2936,2937,2942,2945,2946,2947,2949,2953,2955,2957,2959*
13,2999,3002,3008,3011,3012,3015,3016,3018,3019,3022,3024,3034,3037*
12,2362,2363,2365,2366,2371,2372,2373,2375,2376,2377,2383,2385*
11,2236,2237,2238,2239,2240,2241,2245,2246,2247,2251,2253*
10,2260,2261,2262,2263,2264,2265,2267,2268,2269,2271*
9,2391,2392,2393,2395,2398,2402,2403,2412,2413*
9,2553,2555,2556,2557,2558,2559,2560,2561,2562*
8,3263,3272,3284,3302,3309,3314,3315,3319*
8,3274,3288,3305,3303,3311,3312,3317,3333*
7,2143,2145,2151,2156,2157,2161,2162*
7,2969,2976,2978,2979,2980,2982,2988*
7,3163,3179,3180,3186,3191,3196,3208*
6,2163,2169,2172,2174,2179,2180*
5,2252,2254,2257,2258,2259*
5,3071,3078,3079,3081,3083*
5,3156,3167,3174,3183,3190*
5,3861,3862,3864,3868,3869*
4,2416,2420,2421,2422*
4,2835,2846,2847,2848*
4,2886,2887,2888,2893*
4,2997,3004,3010,3013*
4,3228,3233,3247,3250*
4,3245,3258,3260,3266*
4,3358,3361,3366,3376*
3,2424,2427,2433*
3,2668,2672,2675*
3,3091,3096,3101*
3,3092,3097,3102*
3,3095,3100,3105*
3,3155,3169,3173*
3,3207,3223,3226*
3,3231,3236,3239*
3,3232,3242,3249*
3,3257,3262,3268*
3,3275,3281,3307*
3,3324,3320,3323*
3,3326,3322,3334*
3,3321,3331,3336*
3,3362,3369,3372*
3,3385,3388,3389*
3,3382,3396,3401*
3,3383,3398,3403*
3,3390,3400,3405*
3,3551,3561,3562*
3,3760,3761,3764*
3,3895,3896,3897*
3,3929,3930,3931*
3,4033,4037,4042*
3,4067,4069,4076*
44,5334,5340,5344,5348,5349,5350,5352,5353,5357,5365,5369,5370,5372,5373,5374,5376,5378,5379,5380,5381,5382,5383,5384,5385,5386,5389,5390,5392,5393,5394,5396,5397,5398,5399,5400,5403,5404,5405,5406,5408,5409,5410,5413,5416*
31,5512,5513,5515,5516,5517,5518,5520,5522,5524,5526,5527,5528,5529,5532,5534,5536,5537,5538,5544,5551,5552,5553,5554,5555,5556,5558,5559,5560,5561,5563,5565*
26,5449,5450,5457,5458,5459,5460,5461,5463,5464,5469,5471,5474,5475,5476,5477,5481,5482,5483,5484,5486,5491,5492,5494,5495,5507,5510*
23,5270,5281,5282,5289,5290,5294,5295,5296,5299,5301,5302,5303,5304,5306,5307,5308,5309,5310,5311,5312,5314,5319,5322*
19,5600,5602,5603,5604,5609,5610,5611,5612,5613,5614,5618,5623,5624,5625,5626,5627,5629,5630,5632*
14,5417,5418,5420,5426,5429,5431,5433,5437,5438,5439,5440,5441,5446,5451*
13,4569,4571,4572,4573,4574,4575,4578,4582,4584,4585,4586,4590,4591*
8,5980,5983,5985,5987,5989,5990,5995,5996*
7,4593,4595,4599,4600,4601,4602,4603*
7,5638,5639,5640,5641,5643,5649,5652*
5,4207,4209,4211,4216,4225*
5,4922,4924,4925,4927,4930*
4,4344,4347,4348,4350*
4,4354,4357,4360,4372*
4,5111,5116,5122,5124*
4,5155,5161,5167,5175*
4,5163,5171,5179,5180*
4,5198,5202,5204,5210*
4,5243,5246,5254,5256*
4,5584,5585,5588,5593*
4,6205,6207,6220,6223*
3,4171,4173,4185*
3,4190,4191,4192*
3,4243,4244,4245*
3,4259,4261,4262*
3,4429,4441,4444*
3,4618,4619,4622*
3,4675,4676,4680*
3,4878,4880,4882*
3,5057,5064,5067*
3,5121,5126,5125*
3,5143,5154,5156*
3,5165,5181,5187*
3,5201,5208,5215*
3,5217,5213,5219*
3,5242,5245,5247*
3,5326,5327,5332*
3,5701,5706,5707*
3,5862,5864,5867*
3,5872,5884,5886*
3,5934,5940,5942*
3,6061,6065,6068*
3,6082,6083,6087*
19,6311,6312,6313,6314,6319,6321,6323,6325,6327,6328,6330,6331,6332,6334,6335,6340,6341,6342,6343*
9,6256,6258,6259,6260,6261,6262,6267,6268,6271*
9,6931,6932,6935,6938,6943,6945,6947,6952,6953*
8,6960,6964,6965,6968,6969,6970,6971,6973*
7,6301,6302,6303,6304,6305,6306,6307*
6,6273,6277,6278,6280,6283,6289*
6,7062,7065,7074,7078,7088,7093*
6,7441,7442,7444,7446,7452,7455*
5,7076,7073,7081,7082,7094*
5,7369,7372,7380,7384,7391*
4,6344,6348,6350,6351*
4,6355,6356,6362,6365*
4,6874,6876,6881,6883*
4,6891,6893,6897,6898*
4,6911,6913,6920,6921*
4,6993,7000,7005,7006*
4,7103,7108,7111,7112*
4,7379,7383,7386,7389*
4,7462,7464,7469,7471*
3,6264,6272,6274*
3,6519,6523,6526*
3,6522,6524,6530*
3,6744,6745,6749*
3,6858,6862,6863*
3,7044,7046,7057*
3,7075,7079,7089*
3,7134,7136,7138*
3,7215,7216,7219*
3,7359,7366,7368*
3,7408,7417,7425*
3,7447,7453,7454*
3,7459,7461,7463*
3,7624,7626,7627*
3,7707,7715,7717*
26,7853,7855,7856,7859,7862,7863,7864,7865,7868,7871,7872,7873,7874,7877,7882,7885,7887,7888,7889,7890,7892,7893,7895,7896,7898,7903*
11,9360,9365,9366,9374,9375,9377,9378,9379,9381,9389,9391*
9,9218,9222,9224,9227,9231,9233,9234,9239,9240*
7,9243,9253,9256,9261,9262,9265,9269*
5,8805,8807,8814,8815,8817*
5,9456,9458,9459,9462,9464*
5,9671,9675,9681,9682,9684*
5,9691,9693,9699,9701,9703*
4,7911,7914,7916,7918*
4,8461,8465,8469,8472*
4,8595,8597,8600,8601*
4,9275,9283,9287,9288*
4,9692,9700,9702,9705*
3,7973,7977,7980*
3,7990,7992,7996*
3,8008,8009,8011*
3,8062,8063,8065*
3,8419,8422,8424*
3,8746,8754,8757*
3,9023,9030,9033*
3,9271,9272,9282*
3,9322,9324,9328*
3,9349,9350,9353*
3,9442,9446,9447*
3,9567,9580,9581*
5,9907,9930,9942,9948,9957*
4,9880,9883,9891,9894*
4,9913,9914,9918,9928*
4,9911,9915,9920,9934*
4,9974,9976,9981,9988*
4,9977,9995,9990,9994*
4,10004,10016,10013,10022*
4,10061,10055,10065,10070*
4,10071,10076,10081,10083*
4,10109,10115,10116,10119*
4,10492,10493,10494,10495*
3,9796,9799,9803*
3,9798,9802,9806*
3,9851,9852,9853*
3,9878,9881,9884*
3,9909,9922,9931*
3,9912,9916,9939*
3,9919,9929,9943*
3,9971,9980,9993*
3,10007,10009,10011*
3,10025,10030,10033*
3,10031,10035,10038*
3,10048,10058,10059*
3,10054,10057,10069*
3,10174,10176,10177*
3,10220,10226,10234*
3,10429,10430,10431*
40,11582,11584,11587,11588,11590,11595,11597,11599,11600,11601,11602,11605,11609,11610,11611,11613,11614,11617,11622,11623,11625,11633,11634,11635,11638,11639,11640,11641,11648,11650,11652,11653,11654,11656,11658,11661,11663,11664,11665,11667*
24,11814,11819,11822,11824,11825,11828,11829,11830,11831,11833,11834,11835,11836,11837,11838,11842,11843,11845,11850,11852,11855,11856,11863,11864*
23,11509,11512,11513,11514,11517,11518,11519,11522,11525,11526,11529,11532,11533,11534,11538,11543,11549,11552,11553,11555,11557,11558,11559*
22,11689,11690,11695,11706,11707,11708,11709,11711,11712,11714,11715,11720,11726,11729,11730,11731,11732,11735,11738,11740,11741,11742*
16,11877,11878,11879,11881,11882,11883,11884,11887,11888,11889,11892,11895,11897,11898,11899,11900*
15,11462,11465,11467,11470,11471,11474,11475,11477,11479,11482,11487,11491,11492,11493,11495*
14,11905,11907,11908,11915,11917,11922,11924,11928,11929,11930,11933,11937,11940,11945*
10,11766,11767,11770,11774,11775,11776,11777,11778,11779,11780*
8,11959,11961,11962,11965,11966,11967,11968,11974*
7,10717,10732,10741,10745,10757,10755,10766*
7,11679,11680,11681,11683,11684,11686,11688*
5,10624,10626,10631,10632,10633*
5,10692,10693,10695,10697,10698*
5,10774,10783,10790,10792,10801*
5,10877,10884,10892,10898,10903*
5,11643,11647,11651,11657,11660*
5,11789,11790,11791,11795,11796*
5,11865,11867,11868,11869,11874*
4,10726,10733,10736,10744*
4,10779,10780,10786,10798*
4,10787,10793,10796,10800*
4,10966,10968,10969,10975*
4,11106,11108,11110,11122*
4,11276,11282,11286,11300*
4,11757,11760,11761,11763*
3,10553,10555,10556*
3,10573,10575,10577*
3,10603,10605,10607*
3,10604,10606,10610*
3,10625,10629,10640*
3,10653,10655,10661*
3,10654,10657,10658*
3,10679,10683,10688*
3,10819,10827,10832*
3,10828,10837,10846*
3,10844,10848,10854*
3,10845,10849,10855*
3,10894,10895,10899*
3,10933,10935,10937*
3,11158,11159,11160*
3,11287,11290,11305*
3,11545,11550,11556*
3,11561,11566,11568*
3,11577,11578,11580*
3,11744,11749,11751*
3,11768,11769,11772*
3,11798,11806,11808*
3,11976,11977,11978*
60,12329,12336,12339,12340,12341,12345,12346,12348,12350,12354,12358,12360,12362,12365,12366,12367,12370,12372,12376,12377,12378,12379,12381,12383,12387,12389,12390,12391,12393,12395,12397,12398,12399,12401,12403,12404,12405,12408,12409,12410,12413,12416,12417,12419,12421,12422,12423,12424,12426,12429,12431,12434,12435,12438,12439,12440,12441,12442,12443,12444*
28,12682,12683,12684,12686,12688,12689,12691,12692,12693,12694,12697,12699,12700,12702,12704,12705,12706,12709,12710,12711,12712,12715,12716,12720,12722,12729,12730,12731*
23,12556,12558,12559,12560,12562,12565,12566,12567,12568,12569,12571,12576,12577,12578,12581,12583,12584,12588,12589,12592,12596,12598,12599*
20,12446,12449,12458,12460,12462,12463,12465,12466,12468,12469,12472,12475,12477,12478,12481,12482,12483,12484,12494,12495*
18,12741,12742,12744,12746,12748,12749,12750,12751,12752,12753,12754,12755,12756,12757,12759,12764,12766,12768*
14,12622,12623,12624,12628,12631,12632,12635,12636,12640,12642,12645,12648,12652,12653*
11,12534,12535,12536,12538,12539,12540,12542,12543,12544,12548,12552*
10,12497,12499,12500,12502,12503,12504,12506,12508,12509,12513*
9,12602,12605,12606,12607,12608,12609,12611,12612,12613*
8,12184,12185,12189,12198,12199,12212,12206,12218*
3,12203,12214,12204*
6,12102,12103,12109,12108,12110,12117*
6,12233,12235,12238,12244,12251,12252*
6,12298,12300,12301,12302,12306,12308*
6,12962,12963,12964,12965,12967,12968*
6,13172,13176,13177,13179,13181,13184*
5,12050,12058,12059,12060,12066*
5,12166,12168,12176,12178,12174*
5,12195,12200,12205,12207,12215*
5,12347,12349,12351,12361,12363*
5,12773,12774,12776,12777,12778*
5,12985,12986,12987,12988,12989*
4,12123,12135,12137,12149*
4,12260,12261,12264,12272*
4,12296,12303,12312,12313*
4,12519,12520,12521,12524*
4,12660,12665,12667,12669*
4,12903,12904,12907,12911*
3,12032,12034,12037*
3,12087,12089,12091*
3,12099,12104,12106*
3,12111,12128,12127*
3,12167,12173,12175*
3,12229,12237,12240*
3,12254,12256,12265*
3,12267,12269,12279*
3,12257,12271,12283*
3,12461,12467,12479*
3,12480,12491,12493*
3,12619,12620,12621*
3,12674,12675,12676*
3,12734,12735,12737*
3,12785,12790,12793*
3,12932,12935,12937*
3,12978,12979,12980*
3,13159,13166,13167*
3,13186,13188,13191*
3,13190,13192,13193*
7,13678,13679,13682,13683,13690,13694,13695*
7,14094,14097,14099,14102,14105,14109,14110*
6,14120,14124,14131,14132,14133,14134*
4,13516,13518,13520,13523*
4,13531,13532,13536,13540*
4,13634,13637,13638,13639*
4,13697,13699,13701,13702*
4,13827,13830,13832,13833*
4,14190,14194,14199,14201*
3,13743,13744,13748*
3,13745,13746,13750*
3,13770,13772,13782*
3,13836,13837,13841*
3,13879,13881,13883*
3,14066,14069,14070*
3,14083,14086,14087*
3,14135,14136,14139*
3,14171,14174,14177*
17,15026,15029,15037,15042,15045,15050,15051,15054,15057,15059,15061,15063,15064,15065,15066,15069,15075*
4,14682,14684,14685,14690*
4,15012,15013,15015,15018*
3,14493,14500,14503*
3,14561,14567,14571*
3,14665,14667,14668*
3,14970,14974,14975*
3,15033,15035,15040*
3,15025,15032,15048*
3,15067,15076,15079*
3,15095,15098,15102*
3,15121,15123,15125*
3,15167,15169,15171*
3,15185,15186,15188*
3,15199,15200,15201*
21,15691,15694,15695,15696,15697,15701,15702,15707,15708,15713,15714,15715,15719,15720,15721,15722,15725,15726,15727,15728,15730*
15,15732,15733,15734,15747,15751,15755,15758,15759,15762,15767,15768,15769,15770,15774,15775*
13,15792,15794,15795,15802,15810,15811,15814,15815,15819,15822,15824,15825,15826*
12,15982,15983,15987,15992,15994,16012,16013,16014,16017,16028,16029,16038*
9,15944,15945,15947,15950,15951,15960,15961,15966,15968*
9,15954,15959,15967,15969,15971,15981,15985,15989,15996*
7,15671,15675,15676,15679,15681,15683,15687*
5,16015,16018,16024,16031,16034*
4,16048,16049,16050,16051*
4,16464,16467,16473,16476*
3,15350,15354,15356*
3,15465,15468,15474*
3,15659,15661,15662*
3,15946,15948,15957*
3,15965,15970,15974*
3,15972,15973,15978*
3,16000,16002,16005*
3,15995,16006,16020*
3,16069,16070,16072*
3,16062,16068,16076*
3,16122,16124,16125*
3,16141,16148,16151*
3,16186,16187,16188*
3,16290,16291,16295*
3,16512,16513,16517*
66,16608,16611,16612,16613,16614,16616,16619,16621,16622,16626,16627,16628,16629,16630,16631,16632,16634,16637,16638,16639,16640,16641,16645,16647,16648,16650,16652,16656,16657,16658,16663,16668,16669,16670,16674,16675,16676,16678,16680,16682,16683,16684,16685,16687,16688,16689,16690,16691,16692,16693,16694,16699,16712,16716,16719,16722,16723,16724,16727,16728,16730,16735,16738,16745,16746,16748*
30,17044,17050,17052,17054,17055,17056,17057,17058,17059,17060,17062,17064,17065,17068,17072,17073,17079,17080,17081,17082,17084,17085,17086,17091,17092,17093,17094,17096,17097,17098*
26,16545,16554,16555,16556,16557,16559,16565,16566,16567,16568,16571,16572,16574,16575,16578,16582,16584,16585,16586,16587,16589,16591,16593,16594,16595,16602*
21,16769,16770,16771,16776,16777,16778,16780,16781,16782,16783,16785,16786,16787,16791,16795,16796,16802,16803,16806,16808,16811*
19,17579,17580,17581,17582,17591,17597,17599,17600,17601,17603,17607,17609,17613,17614,17618,17620,17624,17626,17633*
17,18095,18097,18098,18099,18100,18101,18102,18103,18108,18109,18110,18111,18112,18114,18118,18119,18120*
16,18128,18130,18131,18133,18134,18135,18136,18138,18139,18143,18146,18152,18153,18154,18161,18162*
14,16833,16834,16836,16838,16839,16840,16841,16843,16844,16845,16846,16847,16850,16853*
14,16961,16963,16965,16966,16968,16971,16974,16976,16979,16981,16982,16983,16984,16985*
11,16864,16865,16866,16867,16870,16874,16877,16883,16884,16886,16891*
11,17022,17026,17027,17028,17029,17030,17032,17033,17036,17038,17040*
11,17901,17903,17909,17911,17912,17915,17917,17919,17920,17921,17927*
9,16814,16816,16819,16820,16824,16825,16827,16828,16831*
9,16986,16988,16989,16995,16997,16999,17000,17001,17002*
9,18066,18068,18071,18072,18074,18075,18077,18079,18080*
8,16929,16930,16932,16936,16941,16946,16947,16954*
8,18082,18083,18086,18089,18091,18092,18093,18094*
7,16759,16760,16761,16762,16766,16767,16768*
7,17840,17841,17842,17843,17849,17861,17862*
7,17883,17886,17888,17890,17894,17895,17896*
7,17931,17932,17936,17937,17938,17939,17942*
7,18035,18039,18040,18048,18049,18050,18051*
6,17005,17008,17010,17012,17014,17017*
6,17637,17638,17643,17644,17645,17648*
6,17724,17725,17726,17728,17732,17733*
6,17949,17951,17955,17957,17960,17963*
6,18028,18029,18030,18031,18033,18034*
5,17683,17691,17693,17695,17696*
5,17868,17869,17870,17872,17873*
5,18326,18327,18331,18336,18338*
4,17434,17435,17436,17438*
4,17975,17976,17979,17984*
4,18198,18199,18203,18204*
4,18451,18452,18454,18456*
3,16536,16537,16539*
3,16906,16907,16909*
3,17227,17234,17237*
3,17750,17754,17757*
3,17760,17763,17766*
3,17788,17791,17792*
3,17787,17790,17797*
3,17800,17802,17806*
3,17995,18004,18005*
3,18020,18021,18027*
3,18190,18191,18192*
3,18239,18241,18244*
3,18256,18261,18265*
3,18277,18279,18290*
3,18293,18294,18299*
3,18309,18312,18316*
3,18332,18341,18342*
3,18471,18475,18479*
3,18484,18487,18489*
17,18883,18884,18886,18888,18892,18893,18895,18896,18899,18901,18902,18907,18912,18914,18915,18916,18917*
14,18846,18852,18853,18855,18856,18857,18859,18860,18862,18866,18869,18870,18872,18873*
11,18681,18691,18704,18705,18714,18715,18716,18719,18720,18721,18722*
10,18724,18725,18730,18733,18734,18742,18744,18745,18746,18747*
9,18648,18652,18657,18659,18664,18668,18674,18676,18679*
7,19200,19201,19202,19203,19204,19206,19208*
4,18678,18703,18684,18702*
4,18749,18750,18751,18752*
4,18755,18756,18759,18769*
4,19121,19122,19127,19129*
3,18680,18682,18685*
3,18683,18708,18713*
3,18791,18795,18799*
3,18990,18992,18996*
3,19116,19118,19119*
3,19205,19207,19209*
34,19737,19739,19740,19741,19742,19743,19744,19745,19746,19747,19748,19750,19752,19753,19755,19757,19759,19761,19762,19764,19765,19771,19772,19773,19774,19775,19776,19777,19779,19781,19784,19785,19790,19792*
31,19793,19797,19798,19800,19806,19811,19814,19820,19824,19826,19828,19829,19831,19832,19833,19834,19835,19836,19842,19847,19863,19864,19865,19867,19869,19870,19873,19875,19878,19886,19890*
27,20165,20166,20167,20172,20177,20178,20179,20181,20182,20188,20189,20190,20191,20193,20194,20195,20196,20197,20199,20200,20201,20202,20205,20206,20212,20214,20219*
15,20136,20138,20139,20140,20141,20142,20143,20148,20153,20154,20156,20158,20162,20164,20170*
13,20095,20096,20099,20101,20102,20103,20104,20105,20108,20111,20113,20116,20118*
11,20057,20058,20062,20066,20068,20070,20075,20076,20078,20080,20081*
8,19900,19901,19904,19908,19912,19914,19917,19922*
8,20220,20221,20222,20226,20231,20232,20233,20235*
8,20329,20330,20337,20338,20340,20343,20346,20348*
8,20642,20643,20646,20658,20659,20660,20661,20662*
6,19989,19990,19996,20002,20005,20006*
6,20040,20047,20048,20049,20051,20053*
6,20083,20085,20086,20091,20092,20094*
5,19398,19408,19409,19414,19417*
5,20421,20427,20438,20440,20443*
4,20020,20022,20023,20024*
4,20673,20676,20681,20682*
3,19358,19359,19360*
3,19518,19521,19538*
3,19660,19666,19667*
3,19689,19692,19694*
3,20030,20031,20034*
3,20112,20124,20126*
3,20266,20267,20269*
3,20314,20318,20320*
3,20358,20360,20361*
3,20426,20437,20442*
3,20449,20450,20457*
3,20587,20592,20601*
3,20629,20630,20631*
3,20668,20675,20680*
3,20752,20755,20759*
3,20767,20773,20774*
21,21099,21100,21101,21102,21105,21106,21107,21111,21116,21121,21122,21124,21128,21129,21132,21133,21136,21139,21140,21141,21142*
20,20995,20999,21005,21006,21008,21009,21010,21011,21014,21016,21017,21020,21021,21024,21028,21030,21032,21034,21035,21037*
14,21145,21147,21148,21150,21151,21152,21154,21158,21159,21162,21166,21173,21177,21178*
11,21041,21042,21043,21044,21045,21046,21048,21049,21050,21051,21057*
11,21081,21082,21084,21086,21087,21088,21091,21094,21095,21096,21098*
10,21061,21062,21064,21069,21070,21071,21073,21074,21076,21078*
6,21181,21183,21184,21187,21189,21191*
5,21550,21552,21554,21556,21559*
4,20837,20839,20840,20853*
4,20986,20987,20988,20991*
4,21195,21202,21203,21204*
3,21275,21285,21286*
3,21329,21335,21340*
3,21391,21400,21404*
3,21499,21502,21504*
3,21598,21600,21601*
3,21611,21614,21615*
3,21700,21711,21713*
3,21826,21827,21828*
3,21924,21925,21926*
3,21978,21982,21988*
