AT4g00010	-1
AT4g00020	-1
AT4g00030	1
AT4g00040	1
AT4g00050	1
AT4g00060	1
AT4g00070	-1
AT4g00080	1
AT4g00090	1
AT4g00100	1
AT4g00110	-1
AT4g00120	-1
AT4g00130	1
AT4g00140	-1
AT4g00150	-1
AT4g00160	1
AT4g00170	-1
AT4g00180	-1
AT4g00190	-1
AT4g00200	-1
AT4g00210	-1
AT4g00220	1
AT4g00230	1
AT4g00240	-1
AT4g00250	-1
AT4g00260	1
AT4g00270	-1
AT4g00280	-1
AT4g00290	-1
AT4g00300	1
AT4g00310	1
AT4g00320	1
AT4g00330	-1
AT4g00340	1
AT4g00350	1
AT4g00360	1
AT4g00370	-1
AT4g00380	1
AT4g00390	-1
AT4g00400	-1
AT4g00410	-1
AT4g00420	-1
AT4g00430	-1
AT4g00440	1
AT4g00450	1
AT4g00460	-1
AT4g00470	-1
AT4g00480	-1
AT4g00490	1
AT4g00500	-1
AT4g00510	1
AT4g00520	1
AT4g00530	-1
AT4g00540	-1
AT4g00550	-1
AT4g00560	-1
AT4g00570	-1
AT4g00580	1
AT4g00590	1
AT4g00600	-1
AT4g00610	-1
AT4g00620	-1
AT4g00630	-1
AT4g00640	-1
AT4g00650	1
AT4g00660	1
AT4g00670	-1
AT4g00680	-1
AT4g00690	1
AT4g00700	1
AT4g00710	1
AT4g00720	-1
AT4g00730	-1
AT4g00740	-1
AT4g00750	1
AT4g00760	-1
AT4g00770	1
AT4g00780	1
AT4g00790	-1
AT4g00800	-1
AT4g00810	-1
AT4g00820	1
AT4g00830	1
AT4g00840	-1
AT4g00850	1
AT4g00860	-1
AT4g00870	-1
AT4g00880	-1
AT4g00890	-1
AT4g00900	-1
AT4g00910	-1
AT4g00920	1
AT4g00930	1
AT4g00940	-1
AT4g00950	-1
AT4g00960	1
AT4g00970	1
AT4g00980	-1
AT4g00990	1
AT4g01000	-1
AT4g01010	-1
AT4g01020	1
AT4g01030	-1
AT4g01040	1
AT4g01050	1
AT4g01060	1
AT4g01070	-1
AT4g01080	-1
AT4g01090	-1
AT4g01100	1
AT4g01110	-1
AT4g01120	-1
AT4g01130	1
AT4g01140	-1
AT4g01150	1
AT4g01160	-1
AT4g01170	1
AT4g01180	-1
AT4g01190	-1
AT4g01200	-1
AT4g01210	-1
AT4g01220	-1
AT4g01230	-1
AT4g01240	-1
AT4g01250	-1
AT4g01260	-1
AT4g01270	1
AT4g01280	1
AT4g01290	-1
AT4g01300	-1
AT4g01310	-1
AT4g01320	1
AT4g01330	1
AT4g01340	1
AT4g01350	1
AT4g01360	1
AT4g01370	1
AT4g01380	-1
AT4g01390	-1
AT4g01400	-1
AT4g01410	1
AT4g01420	-1
AT4g01430	1
AT4g01440	1
AT4g01450	1
AT4g01460	1
AT4g01470	-1
AT4g01480	1
AT4g01490	1
AT4g01500	1
AT4g01510	1
AT4g01520	-1
AT4g01530	1
AT4g01540	-1
AT4g01550	-1
AT4g01560	-1
AT4g01570	1
AT4g01580	1
AT4g01590	-1
AT4g01600	1
AT4g01610	1
AT4g01620	1
AT4g01630	1
AT4g01640	1
AT4g01650	-1
AT4g01660	1
AT4g01670	-1
AT4g01680	-1
AT4g01690	1
AT4g01700	-1
AT4g01710	1
AT4g01720	1
AT4g01730	1
AT4g01740	1
AT4g01750	1
AT4g01760	-1
AT4g01770	1
AT4g01780	1
AT4g01790	1
AT4g01800	-1
AT4g01810	-1
AT4g01820	-1
AT4g01830	-1
AT4g01840	1
AT4g01850	-1
AT4g01860	-1
AT4g01870	-1
AT4g01880	-1
AT4g01890	1
AT4g01900	1
AT4g01910	-1
AT4g01920	-1
AT4g01930	-1
AT4g01940	-1
AT4g01950	-1
AT4g01960	-1
AT4g01970	-1
AT4g01980	-1
AT4g01990	-1
AT4g02000	1
AT4g02010	1
AT4g02020	1
AT4g02030	1
AT4g02040	1
AT4g02050	-1
AT4g02060	1
AT4g02070	1
AT4g02080	1
AT4g02090	1
AT4g02100	1
AT4g02110	1
AT4g02120	1
AT4g02130	-1
AT4g02140	-1
AT4g02150	-1
AT4g02160	-1
AT4g02170	1
AT4g02180	1
AT4g02190	1
AT4g02200	1
AT4g02210	-1
AT4g02220	1
AT4g02230	-1
AT4g02240	1
AT4g02250	1
AT4g02260	1
AT4g02270	-1
AT4g02280	1
AT4g02290	-1
AT4g02300	-1
AT4g02310	-1
AT4g02320	-1
AT4g02330	1
AT4g02340	1
AT4g02350	1
AT4g02360	1
AT4g02370	1
AT4g02380	-1
AT4g02390	1
AT4g02400	1
AT4g02410	-1
AT4g02420	-1
AT4g02430	1
AT4g02440	1
AT4g02450	-1
AT4g02460	-1
AT4g02470	-1
AT4g02480	-1
AT4g02490	-1
AT4g02500	1
AT4g02510	1
AT4g02520	-1
AT4g02530	-1
AT4g02540	1
AT4g02550	-1
AT4g02560	-1
AT4g02570	1
AT4g02580	1
AT4g02590	-1
AT4g02600	1
AT4g02610	1
AT4g02620	-1
AT4g02630	1
AT4g02640	1
AT4g02650	1
AT4g02660	-1
AT4g02670	-1
AT4g02680	-1
AT4g02690	1
AT4g02700	1
AT4g02710	-1
AT4g02720	-1
AT4g02730	1
AT4g02740	-1
AT4g02750	-1
AT4g02760	-1
AT4g02770	-1
AT4g02780	-1
AT4g02790	1
AT4g02800	1
AT4g02810	1
AT4g02820	1
AT4g02830	1
AT4g02840	1
AT4g02850	-1
AT4g02860	-1
AT4g02870	-1
AT4g02880	1
AT4g02890	-1
AT4g02900	1
AT4g02910	-1
AT4g02920	1
AT4g02930	-1
AT4g02940	1
AT4g02950	1
AT4g02960	-1
AT4g02970	1
AT4g02980	-1
AT4g02990	1
AT4g03000	1
AT4g03010	1
AT4g03020	-1
AT4g03030	-1
AT4g03040	1
AT4g03050	1
AT4g03060	-1
AT4g03070	1
AT4g03080	-1
AT4g03090	-1
AT4g03100	1
AT4g03110	-1
AT4g03120	1
AT4g03130	-1
AT4g03140	1
AT4g03150	-1
AT4g03160	1
AT4g03170	1
AT4g03180	1
AT4g03190	-1
AT4g03200	1
AT4g03210	1
AT4g03220	1
AT4g03230	-1
AT4g03240	-1
AT4g03250	1
AT4g03260	1
AT4g03270	-1
AT4g03280	1
AT4g03290	1
AT4g03300	1
AT4g03310	1
AT4g03320	1
AT4g03330	1
AT4g03340	-1
AT4g03350	-1
AT4g03360	-1
AT4g03370	-1
AT4g03380	-1
AT4g03390	-1
AT4g03400	-1
AT4g03410	1
AT4g03420	1
AT4g03430	-1
AT4g03440	-1
AT4g03450	-1
AT4g03460	-1
AT4g03470	-1
AT4g03480	-1
AT4g03490	-1
AT4g03500	1
AT4g03510	-1
AT4g03520	-1
AT4g03530	1
AT4g03540	1
AT4g03550	1
AT4g03560	1
AT4g03570	-1
AT4g03580	1
AT4g03590	-1
AT4g03600	-1
AT4g03610	1
AT4g03620	-1
AT4g03630	1
AT4g03640	1
AT4g03650	1
AT4g03660	1
AT4g03670	1
AT4g03680	1
AT4g03690	1
AT4g03700	-1
AT4g03710	1
AT4g03720	1
AT4g03730	-1
AT4g03740	-1
AT4g03750	1
AT4g03760	1
AT4g03770	-1
AT4g03780	-1
AT4g03790	-1
AT4g03800	-1
AT4g03810	1
AT4g03820	-1
AT4g03830	1
AT4g03840	1
AT4g03850	1
AT4g03860	1
AT4g03870	1
AT4g03880	-1
AT4g03890	1
AT4g03900	1
AT4g03910	1
AT4g03920	1
AT4g03930	1
AT4g03940	1
AT4g03950	1
AT4g03960	1
AT4g03970	1
AT4g03980	1
AT4g03990	-1
AT4g04000	1
AT4g04010	-1
AT4g04020	1
AT4g04030	-1
AT4g04040	1
AT4g04050	1
AT4g04060	1
AT4g04070	-1
AT4g04080	1
AT4g04090	1
AT4g04100	1
AT4g04110	1
AT4g04120	1
AT4g04130	1
AT4g04140	-1
AT4g04150	1
AT4g04160	-1
AT4g04170	1
AT4g04180	1
AT4g04190	1
AT4g04200	1
AT4g04210	1
AT4g04220	1
AT4g04230	-1
AT4g04240	-1
AT4g04250	-1
AT4g04260	1
AT4g04270	-1
AT4g04280	-1
AT4g04290	1
AT4g04300	-1
AT4g04310	1
AT4g04320	1
AT4g04330	-1
AT4g04340	1
AT4g04350	1
AT4g04360	-1
AT4g04370	-1
AT4g04380	1
AT4g04390	1
AT4g04400	-1
AT4g04410	1
AT4g04420	-1
AT4g04430	-1
AT4g04440	1
AT4g04450	1
AT4g04460	1
AT4g04470	-1
AT4g04480	1
AT4g04490	-1
AT4g04500	1
AT4g04510	1
AT4g04520	1
AT4g04530	-1
AT4g04540	1
AT4g04550	-1
AT4g04560	-1
AT4g04570	1
AT4g04580	-1
AT4g04590	1
AT4g04600	1
AT4g04610	1
AT4g04620	-1
AT4g04630	-1
AT4g04640	-1
AT4g04650	-1
AT4g04660	1
AT4g04670	1
AT4g04680	1
AT4g04690	-1
AT4g04700	-1
AT4g04710	-1
AT4g04720	-1
AT4g04730	-1
AT4g04740	-1
AT4g04750	1
AT4g04760	1
AT4g04770	-1
AT4g04780	1
AT4g04790	-1
AT4g04800	1
AT4g04810	1
AT4g04820	-1
AT4g04830	1
AT4g04840	1
AT4g04850	1
AT4g04860	1
AT4g04870	-1
AT4g04880	-1
AT4g04890	-1
AT4g04900	-1
AT4g04910	-1
AT4g04920	1
AT4g04930	1
AT4g04940	-1
AT4g04950	-1
AT4g04960	1
AT4g04970	1
AT4g04980	-1
AT4g04990	1
AT4g05000	1
AT4g05010	1
AT4g05020	1
AT4g05030	-1
AT4g05040	1
AT4g05050	-1
AT4g05060	-1
AT4g05070	-1
AT4g05080	1
AT4g05090	1
AT4g05100	1
AT4g05110	-1
AT4g05120	-1
AT4g05130	-1
AT4g05140	-1
AT4g05150	1
AT4g05160	1
AT4g05170	-1
AT4g05180	-1
AT4g05190	1
AT4g05200	-1
AT4g05210	1
AT4g05220	-1
AT4g05230	1
AT4g05240	1
AT4g05250	1
AT4g05260	1
AT4g05270	1
AT4g05280	1
AT4g05290	1
AT4g05300	1
AT4g05310	1
AT4g05320	1
AT4g05330	-1
AT4g05340	1
AT4g05350	-1
AT4g05360	1
AT4g05370	1
AT4g05380	1
AT4g05390	-1
AT4g05400	1
AT4g05410	-1
AT4g05420	1
AT4g05430	1
AT4g05440	1
AT4g05450	1
AT4g05460	-1
AT4g05470	-1
AT4g05480	-1
AT4g05490	-1
AT4g05500	-1
AT4g05510	-1
AT4g05520	1
AT4g05530	1
AT4g05540	-1
AT4g05550	1
AT4g05560	1
AT4g05570	-1
AT4g05580	1
AT4g05590	1
AT4g05600	1
AT4g05610	1
AT4g05620	-1
AT4g05630	-1
AT4g05640	1
AT4g07310	1
AT4g07320	-1
AT4g07330	1
AT4g07340	-1
AT4g07350	-1
AT4g07360	-1
AT4g07370	1
AT4g07380	-1
AT4g07390	1
AT4g07400	-1
AT4g07410	-1
AT4g07420	1
AT4g07430	-1
AT4g07440	-1
AT4g07450	-1
AT4g07460	1
AT4g07470	-1
AT4g07480	1
AT4g07490	-1
AT4g07500	-1
AT4g07510	1
AT4g07520	-1
AT4g07530	-1
AT4g07540	-1
AT4g07550	1
AT4g07560	-1
AT4g07570	1
AT4g07580	1
AT4g07590	-1
AT4g07600	1
AT4g07610	1
AT4g07620	1
AT4g07630	1
AT4g07640	1
AT4g07650	1
AT4g07660	-1
AT4g07670	1
AT4g07680	1
AT4g07690	1
AT4g07700	1
AT4g07710	1
AT4g07720	1
AT4g07730	1
AT4g07740	1
AT4g07750	1
AT4g07760	1
AT4g07770	1
AT4g07780	1
AT4g07790	1
AT4g07800	1
AT4g07810	1
AT4g07820	-1
AT4g07830	-1
AT4g07840	-1
AT4g07850	1
AT4g07880	-1
AT4g07890	-1
AT4g07900	-1
AT4g07910	-1
AT4g07920	1
AT4g07930	1
AT4g07940	1
AT4g07950	1
AT4g07960	-1
AT4g07970	1
AT4g07980	-1
AT4g07990	-1
AT4g08000	1
AT4g08010	1
AT4g08020	1
AT4g08030	1
AT4g08040	1
AT4g08050	-1
AT4g08060	-1
AT4g08070	-1
AT4g08080	1
AT4g08090	1
AT4g08100	1
AT4g08110	-1
AT4g08120	-1
AT4g08130	1
AT4g08140	1
AT4g08150	-1
AT4g08160	-1
AT4g08170	-1
AT4g08180	1
AT4g08190	-1
AT4g08200	1
AT4g08210	-1
AT4g08220	1
AT4g08230	-1
AT4g08240	1
AT4g08250	1
AT4g08260	1
AT4g08270	1
AT4g08280	1
AT4g08290	1
AT4g08300	1
AT4g08310	-1
AT4g08320	1
AT4g08330	-1
AT4g08340	-1
AT4g08350	1
AT4g08360	1
AT4g08370	-1
AT4g08380	-1
AT4g08390	1
AT4g08400	-1
AT4g08410	-1
AT4g08420	-1
AT4g08430	-1
AT4g08440	-1
AT4g08450	1
AT4g08460	-1
AT4g08470	-1
AT4g08480	-1
AT4g08490	-1
AT4g08500	-1
AT4g08510	1
AT4g08520	1
AT4g08530	1
AT4g08540	1
AT4g08550	1
AT4g08560	1
AT4g08570	-1
AT4g08580	1
AT4g08590	-1
AT4g08600	1
AT4g08610	-1
AT4g08620	1
AT4g08630	-1
AT4g08640	1
AT4g08650	1
AT4g08660	-1
AT4g08670	-1
AT4g08680	-1
AT4g08690	-1
AT4g08700	-1
AT4g08710	1
AT4g08720	-1
AT4g08730	-1
AT4g08740	1
AT4g08750	-1
AT4g08760	-1
AT4g08770	-1
AT4g08780	1
AT4g08790	-1
AT4g08800	1
AT4g08810	-1
AT4g08820	1
AT4g08830	1
AT4g08840	1
AT4g08850	-1
AT4g08870	-1
AT4g08880	1
AT4g08890	-1
AT4g08900	1
AT4g08910	1
AT4g08920	1
AT4g08930	1
AT4g08940	-1
AT4g08950	1
AT4g08960	1
AT4g08970	-1
AT4g08980	1
AT4g08990	1
AT4g09000	1
AT4g09010	-1
AT4g09020	1
AT4g09030	1
AT4g09040	-1
AT4g09050	-1
AT4g09060	-1
AT4g09070	1
AT4g09080	1
AT4g09090	-1
AT4g09100	1
AT4g09110	1
AT4g09120	1
AT4g09130	1
AT4g09140	-1
AT4g09150	1
AT4g09160	1
AT4g09170	-1
AT4g09180	1
AT4g09190	1
AT4g09200	1
AT4g09210	1
AT4g09220	1
AT4g09230	-1
AT4g09250	1
AT4g09260	1
AT4g09270	1
AT4g09280	-1
AT4g09290	-1
AT4g09300	1
AT4g09310	1
AT4g09320	1
AT4g09330	-1
AT4g09340	-1
AT4g09350	-1
AT4g09360	1
AT4g09370	1
AT4g09380	-1
AT4g09390	1
AT4g09400	-1
AT4g09410	-1
AT4g09420	-1
AT4g09430	1
AT4g09440	-1
AT4g09450	1
AT4g09460	1
AT4g09470	-1
AT4g09480	1
AT4g09490	-1
AT4g09500	1
AT4g09510	-1
AT4g09520	-1
AT4g09530	-1
AT4g09540	1
AT4g09550	1
AT4g09560	-1
AT4g09570	1
AT4g09580	-1
AT4g09590	1
AT4g09600	-1
AT4g09610	-1
AT4g09620	-1
AT4g09630	1
AT4g09640	-1
AT4g09650	1
AT4g09660	1
AT4g09670	-1
AT4g09680	1
AT4g09690	1
AT4g09700	1
AT4g09710	1
AT4g09720	1
AT4g09730	1
AT4g09740	-1
AT4g09750	1
AT4g09760	-1
AT4g09770	-1
AT4g09780	-1
AT4g09790	-1
AT4g09800	1
AT4g09810	-1
AT4g09820	1
AT4g09830	1
AT4g09840	-1
AT4g09850	1
AT4g09860	-1
AT4g09870	1
AT4g09880	1
AT4g09890	1
AT4g09900	-1
AT4g09910	-1
AT4g09920	1
AT4g09930	1
AT4g09940	1
AT4g09950	1
AT4g09960	-1
AT4g09970	1
AT4g09980	-1
AT4g09990	-1
AT4g10000	-1
AT4g10010	-1
AT4g10020	1
AT4g10030	-1
AT4g10040	1
AT4g10050	-1
AT4g10060	1
AT4g10070	-1
AT4g10080	-1
AT4g10090	1
AT4g10100	1
AT4g10110	-1
AT4g10120	1
AT4g10130	-1
AT4g10140	1
AT4g10150	1
AT4g10160	1
AT4g10170	1
AT4g10180	1
AT4g10190	1
AT4g10200	1
AT4g10210	1
AT4g10220	1
AT4g10230	1
AT4g10240	-1
AT4g10250	1
AT4g10260	-1
AT4g10270	1
AT4g10280	-1
AT4g10290	-1
AT4g10300	1
AT4g10310	1
AT4g10320	-1
AT4g10330	1
AT4g10340	1
AT4g10350	-1
AT4g10360	1
AT4g10370	-1
AT4g10380	-1
AT4g10390	-1
AT4g10400	-1
AT4g10410	-1
AT4g10420	-1
AT4g10430	-1
AT4g10440	-1
AT4g10450	-1
AT4g10460	1
AT4g10470	1
AT4g10480	-1
AT4g10490	1
AT4g10500	1
AT4g10510	1
AT4g10520	1
AT4g10530	1
AT4g10540	-1
AT4g10550	-1
AT4g10560	-1
AT4g10570	-1
AT4g10580	-1
AT4g10590	-1
AT4g10600	-1
AT4g10610	1
AT4g10620	1
AT4g10630	-1
AT4g10640	1
AT4g10650	-1
AT4g10660	1
AT4g10670	1
AT4g10680	1
AT4g10690	1
AT4g10700	-1
AT4g10710	-1
AT4g10720	1
AT4g10730	-1
AT4g10740	-1
AT4g10750	1
AT4g10760	-1
AT4g10770	-1
AT4g10780	-1
AT4g10790	-1
AT4g10800	1
AT4g10810	-1
AT4g10820	-1
AT4g10830	1
AT4g10840	1
AT4g10850	1
AT4g10860	-1
AT4g10870	-1
AT4g10880	-1
AT4g10890	1
AT4g10900	1
AT4g10910	1
AT4g10920	-1
AT4g10930	-1
AT4g10940	-1
AT4g10950	-1
AT4g10960	-1
AT4g10970	-1
AT4g10980	1
AT4g10990	1
AT4g11000	1
AT4g11010	-1
AT4g11020	-1
AT4g11030	1
AT4g11040	1
AT4g11050	-1
AT4g11060	-1
AT4g11070	1
AT4g11080	-1
AT4g11090	-1
AT4g11100	1
AT4g11110	1
AT4g11120	1
AT4g11130	1
AT4g11140	-1
AT4g11150	1
AT4g11160	1
AT4g11170	1
AT4g11180	1
AT4g11190	1
AT4g11200	-1
AT4g11210	1
AT4g11220	-1
AT4g11230	-1
AT4g11240	1
AT4g11250	1
AT4g11260	-1
AT4g11270	1
AT4g11280	1
AT4g11290	1
AT4g11300	-1
AT4g11310	1
AT4g11320	1
AT4g11330	1
AT4g11340	-1
AT4g11350	1
AT4g11360	1
AT4g11370	1
AT4g11380	1
AT4g11390	1
AT4g11400	1
AT4g11410	-1
AT4g11420	-1
AT4g11430	1
AT4g11440	1
AT4g11450	-1
AT4g11460	1
AT4g11470	1
AT4g11480	1
AT4g11490	1
AT4g11500	1
AT4g11510	-1
AT4g11520	1
AT4g11530	1
AT4g11540	-1
AT4g11550	-1
AT4g11560	-1
AT4g11570	1
AT4g11580	-1
AT4g11590	1
AT4g11600	-1
AT4g11610	-1
AT4g11620	-1
AT4g11630	1
AT4g11640	1
AT4g11650	-1
AT4g11660	1
AT4g11670	-1
AT4g11680	-1
AT4g11690	1
AT4g11700	-1
AT4g11710	-1
AT4g11720	1
AT4g11730	1
AT4g11740	1
AT4g11750	-1
AT4g11760	1
AT4g11770	-1
AT4g11780	1
AT4g11790	1
AT4g11800	-1
AT4g11810	1
AT4g11820	-1
AT4g11830	-1
AT4g11840	-1
AT4g11850	-1
AT4g11860	-1
AT4g11870	-1
AT4g11880	1
AT4g11890	1
AT4g11900	-1
AT4g11910	1
AT4g11920	-1
AT4g11930	1
AT4g11940	1
AT4g11950	-1
AT4g11960	-1
AT4g11970	1
AT4g11980	-1
AT4g11990	-1
AT4g12000	-1
AT4g12010	-1
AT4g12020	1
AT4g12030	1
AT4g12040	1
AT4g12050	-1
AT4g12060	-1
AT4g12070	1
AT4g12080	1
AT4g12090	-1
AT4g12100	-1
AT4g12110	1
AT4g12120	-1
AT4g12130	1
AT4g12140	-1
AT4g12150	-1
AT4g12160	1
AT4g12170	-1
AT4g12180	1
AT4g12190	-1
AT4g12200	1
AT4g12210	-1
AT4g12220	-1
AT4g12230	1
AT4g12240	1
AT4g12250	-1
AT4g12260	-1
AT4g12270	1
AT4g12280	1
AT4g12290	1
AT4g12300	-1
AT4g12310	-1
AT4g12320	-1
AT4g12330	-1
AT4g12340	-1
AT4g12350	1
AT4g12360	-1
AT4g12370	1
AT4g12380	-1
AT4g12390	1
AT4g12400	-1
AT4g12410	-1
AT4g12420	-1
AT4g12430	-1
AT4g12440	1
AT4g12450	-1
AT4g12460	1
AT4g12470	-1
AT4g12480	-1
AT4g12490	-1
AT4g12500	-1
AT4g12510	-1
AT4g12520	-1
AT4g12530	-1
AT4g12540	-1
AT4g12550	1
AT4g12560	1
AT4g12570	1
AT4g12580	-1
AT4g12590	-1
AT4g12600	1
AT4g12610	1
AT4g12620	-1
AT4g12630	1
AT4g12640	1
AT4g12650	-1
AT4g12670	1
AT4g12680	1
AT4g12690	1
AT4g12700	-1
AT4g12710	-1
AT4g12720	1
AT4g12730	-1
AT4g12740	-1
AT4g12750	-1
AT4g12760	1
AT4g12770	-1
AT4g12780	1
AT4g12790	-1
AT4g12800	1
AT4g12810	-1
AT4g12820	-1
AT4g12830	1
AT4g12840	-1
AT4g12850	1
AT4g12860	-1
AT4g12870	1
AT4g12880	-1
AT4g12890	1
AT4g12900	1
AT4g12910	-1
AT4g12920	1
AT4g12930	-1
AT4g12940	1
AT4g12950	1
AT4g12960	1
AT4g12970	-1
AT4g12980	-1
AT4g12990	-1
AT4g13000	-1
AT4g13010	1
AT4g13020	1
AT4g13030	1
AT4g13040	1
AT4g13050	1
AT4g13060	-1
AT4g13070	-1
AT4g13080	-1
AT4g13090	-1
AT4g13100	-1
AT4g13110	1
AT4g13120	-1
AT4g13130	1
AT4g13140	-1
AT4g13150	-1
AT4g13160	1
AT4g13170	-1
AT4g13180	-1
AT4g13190	-1
AT4g13200	-1
AT4g13210	1
AT4g13220	-1
AT4g13230	-1
AT4g13240	1
AT4g13250	-1
AT4g13260	-1
AT4g13270	1
AT4g13280	-1
AT4g13290	1
AT4g13300	-1
AT4g13310	1
AT4g13320	1
AT4g13330	-1
AT4g13340	1
AT4g13350	-1
AT4g13360	1
AT4g13370	-1
AT4g13380	1
AT4g13390	1
AT4g13400	-1
AT4g13410	-1
AT4g13420	-1
AT4g13430	-1
AT4g13440	1
AT4g13450	-1
AT4g13460	-1
AT4g13470	-1
AT4g13480	1
AT4g13490	-1
AT4g13500	-1
AT4g13510	1
AT4g13520	1
AT4g13530	1
AT4g13540	1
AT4g13550	-1
AT4g13560	-1
AT4g13570	1
AT4g13580	1
AT4g13590	-1
AT4g13600	-1
AT4g13610	1
AT4g13620	1
AT4g13630	-1
AT4g13640	-1
AT4g13650	-1
AT4g13660	1
AT4g13670	1
AT4g13680	-1
AT4g13690	-1
AT4g13700	-1
AT4g13710	1
AT4g13720	-1
AT4g13730	1
AT4g13740	1
AT4g13750	1
AT4g13760	1
AT4g13770	-1
AT4g13780	-1
AT4g13790	-1
AT4g13800	-1
AT4g13810	-1
AT4g13820	-1
AT4g13830	1
AT4g13840	-1
AT4g13850	1
AT4g13860	1
AT4g13870	-1
AT4g13880	1
AT4g13890	-1
AT4g13900	1
AT4g13910	1
AT4g13920	1
AT4g13930	-1
AT4g13940	1
AT4g13950	-1
AT4g13960	-1
AT4g13970	-1
AT4g13980	-1
AT4g13990	1
AT4g14000	1
AT4g14010	-1
AT4g14020	-1
AT4g14030	-1
AT4g14040	-1
AT4g14050	-1
AT4g14060	1
AT4g14070	-1
AT4g14080	-1
AT4g14090	1
AT4g14100	-1
AT4g14110	-1
AT4g14120	1
AT4g14130	-1
AT4g14140	1
AT4g14150	-1
AT4g14160	1
AT4g14170	-1
AT4g14180	1
AT4g14190	-1
AT4g14200	-1
AT4g14210	-1
AT4g14220	1
AT4g14230	-1
AT4g14240	-1
AT4g14250	-1
AT4g14260	-1
AT4g14270	1
AT4g14280	1
AT4g14290	-1
AT4g14300	1
AT4g14310	-1
AT4g14320	-1
AT4g14330	1
AT4g14340	-1
AT4g14350	-1
AT4g14360	-1
AT4g14370	-1
AT4g14380	1
AT4g14390	1
AT4g14400	1
AT4g14410	1
AT4g14420	-1
AT4g14430	-1
AT4g14440	-1
AT4g14450	1
AT4g14460	1
AT4g14470	1
AT4g14480	-1
AT4g14490	-1
AT4g14500	1
AT4g14510	-1
AT4g14520	1
AT4g14530	-1
AT4g14540	1
AT4g14550	-1
AT4g14560	1
AT4g14570	1
AT4g14580	-1
AT4g14590	1
AT4g14600	1
AT4g14610	-1
AT4g14620	-1
AT4g14630	1
AT4g14640	1
AT4g14650	-1
AT4g14660	-1
AT4g14670	1
AT4g14680	-1
AT4g14690	1
AT4g14700	1
AT4g14710	-1
AT4g14720	-1
AT4g14730	1
AT4g14740	-1
AT4g14750	1
AT4g14760	1
AT4g14770	-1
AT4g14780	1
AT4g14790	-1
AT4g14800	1
AT4g14810	1
AT4g14820	-1
AT4g14830	1
AT4g14840	-1
AT4g14850	1
AT4g14860	1
AT4g14870	1
AT4g14880	-1
AT4g14890	1
AT4g14900	-1
AT4g14910	-1
AT4g14920	-1
AT4g14930	1
AT4g14940	1
AT4g14950	1
AT4g14960	-1
AT4g14970	1
AT4g14980	-1
AT4g14990	-1
AT4g15000	1
AT4g15010	-1
AT4g15020	1
AT4g15030	1
AT4g15040	-1
AT4g15050	-1
AT4g15060	1
AT4g15070	-1
AT4g15080	-1
AT4g15090	1
AT4g15100	1
AT4g15110	-1
AT4g15120	1
AT4g15130	1
AT4g15140	-1
AT4g15150	-1
AT4g15160	1
AT4g15170	1
AT4g15180	1
AT4g15190	-1
AT4g15200	-1
AT4g15210	-1
AT4g15220	1
AT4g15230	1
AT4g15240	-1
AT4g15250	-1
AT4g15260	1
AT4g15270	-1
AT4g15280	1
AT4g15290	-1
AT4g15300	-1
AT4g15310	1
AT4g15320	-1
AT4g15330	-1
AT4g15340	-1
AT4g15350	1
AT4g15360	1
AT4g15370	-1
AT4g15380	1
AT4g15390	-1
AT4g15400	-1
AT4g15410	1
AT4g15420	1
AT4g15430	1
AT4g15440	1
AT4g15450	1
AT4g15460	-1
AT4g15470	1
AT4g15480	-1
AT4g15490	-1
AT4g15500	-1
AT4g15510	1
AT4g15520	1
AT4g15530	-1
AT4g15540	1
AT4g15550	-1
AT4g15560	1
AT4g15570	1
AT4g15580	-1
AT4g15590	-1
AT4g15600	-1
AT4g15610	1
AT4g15620	1
AT4g15630	1
AT4g15640	-1
AT4g15650	1
AT4g15660	1
AT4g15670	1
AT4g15680	1
AT4g15690	1
AT4g15700	1
AT4g15710	1
AT4g15720	1
AT4g15730	-1
AT4g15740	-1
AT4g15750	-1
AT4g15760	-1
AT4g15770	1
AT4g15780	-1
AT4g15790	1
AT4g15800	-1
AT4g15810	-1
AT4g15820	1
AT4g15830	-1
AT4g15840	1
AT4g15850	1
AT4g15860	-1
AT4g15870	-1
AT4g15880	1
AT4g15890	1
AT4g15900	1
AT4g15910	1
AT4g15920	-1
AT4g15930	1
AT4g15940	1
AT4g15950	1
AT4g15960	-1
AT4g15970	1
AT4g15980	-1
AT4g15990	-1
AT4g16000	-1
AT4g16010	1
AT4g16020	1
AT4g16030	1
AT4g16040	-1
AT4g16050	1
AT4g16060	1
AT4g16070	-1
AT4g16080	-1
AT4g16090	1
AT4g16100	1
AT4g16110	1
AT4g16120	-1
AT4g16130	1
AT4g16140	1
AT4g16150	1
AT4g16160	1
AT4g16170	-1
AT4g16180	-1
AT4g16190	1
AT4g16200	1
AT4g16210	-1
AT4g16220	1
AT4g16230	1
AT4g16240	-1
AT4g16250	-1
AT4g16260	-1
AT4g16270	1
AT4g16280	-1
AT4g16290	-1
AT4g16300	-1
AT4g16310	1
AT4g16320	1
AT4g16330	-1
AT4g16340	-1
AT4g16350	-1
AT4g16360	1
AT4g16370	-1
AT4g16380	-1
AT4g16390	1
AT4g16400	1
AT4g16410	-1
AT4g16420	-1
AT4g16430	1
AT4g16440	-1
AT4g16450	1
AT4g16460	1
AT4g16470	-1
AT4g16480	1
AT4g16490	-1
AT4g16500	-1
AT4g16510	1
AT4g16520	-1
AT4g16530	1
AT4g16540	-1
AT4g16550	-1
AT4g16560	-1
AT4g16570	1
AT4g16580	-1
AT4g16590	1
AT4g16600	1
AT4g16610	-1
AT4g16620	-1
AT4g16630	-1
AT4g16640	-1
AT4g16650	1
AT4g16660	1
AT4g16670	1
AT4g16680	-1
AT4g16690	-1
AT4g16700	-1
AT4g16710	1
AT4g16720	-1
AT4g16730	1
AT4g16740	1
AT4g16750	-1
AT4g16760	-1
AT4g16770	-1
AT4g16780	1
AT4g16790	-1
AT4g16800	-1
AT4g16810	-1
AT4g16820	1
AT4g16830	1
AT4g16840	1
AT4g16850	1
AT4g16860	-1
AT4g16870	-1
AT4g16880	-1
AT4g16890	-1
AT4g16910	-1
AT4g16900	-1
AT4g16920	-1
AT4g16930	-1
AT4g16940	-1
AT4g16950	-1
AT4g16960	-1
AT4g16970	-1
AT4g16980	-1
AT4g16990	1
AT4g17000	-1
AT4g17010	1
AT4g17020	-1
AT4g17030	-1
AT4g17040	-1
AT4g17050	1
AT4g17060	-1
AT4g17070	-1
AT4g17080	1
AT4g17090	-1
AT4g17100	-1
AT4g17110	-1
AT4g17120	-1
AT4g17130	-1
AT4g17140	-1
AT4g17150	1
AT4g17160	-1
AT4g17170	-1
AT4g17180	1
AT4g17190	-1
AT4g17200	1
AT4g17210	-1
AT4g17220	-1
AT4g17230	-1
AT4g17240	-1
AT4g17250	1
AT4g17260	1
AT4g17270	1
AT4g17280	-1
AT4g17300	1
AT4g17310	-1
AT4g17330	-1
AT4g17340	1
AT4g17350	1
AT4g17360	-1
AT4g17370	1
AT4g17380	1
AT4g17390	-1
AT4g17410	1
AT4g17420	-1
AT4g17430	-1
AT4g17440	1
AT4g17450	-1
AT4g17460	1
AT4g17470	-1
AT4g17480	-1
AT4g17483	-1
AT4g17486	-1
AT4g17490	-1
AT4g17500	1
AT4g17505	-1
AT4g17510	-1
AT4g17520	1
AT4g17530	-1
AT4g17540	1
AT4g17550	-1
AT4g17560	1
AT4g17565	-1
AT4g17570	-1
AT4g17580	-1
AT4g17585	-1
AT4g17590	-1
AT4g17600	1
AT4g17610	-1
AT4g17615	1
AT4g17620	1
AT4g17640	1
AT4g17650	1
AT4g17660	1
AT4g17670	-1
AT4g17680	-1
AT4g17690	1
AT4g17700	1
AT4g17710	-1
AT4g17720	-1
AT4g17730	1
AT4g17740	-1
AT4g17750	-1
AT4g17760	1
AT4g17770	1
AT4g17780	-1
AT4g17790	1
AT4g17800	-1
AT4g17810	1
AT4g17830	1
AT4g17840	-1
AT4g17850	1
AT4g17860	-1
AT4g17870	1
AT4g17880	-1
AT4g17890	1
AT4g17900	1
AT4g17910	-1
AT4g17920	-1
AT4g17930	1
AT4g17940	1
AT4g17950	-1
AT4g17960	1
AT4g17970	1
AT4g17980	-1
AT4g17990	-1
AT4g18000	-1
AT4g18010	-1
AT4g18020	-1
AT4g18030	-1
AT4g18040	-1
AT4g18050	1
AT4g18060	-1
AT4g18070	1
AT4g18080	-1
AT4g18090	-1
AT4g18100	-1
AT4g18110	-1
AT4g18120	1
AT4g18130	-1
AT4g18140	-1
AT4g18150	1
AT4g18160	1
AT4g18170	1
AT4g18180	1
AT4g18190	1
AT4g18200	1
AT4g18210	1
AT4g18220	1
AT4g18230	-1
AT4g18240	1
AT4g18250	-1
AT4g18260	-1
AT4g18270	-1
AT4g18280	1
AT4g18290	1
AT4g18300	1
AT4g18310	1
AT4g18320	1
AT4g18330	1
AT4g18340	-1
AT4g18350	1
AT4g18360	-1
AT4g18370	1
AT4g18380	1
AT4g18390	-1
AT4g18400	-1
AT4g18410	1
AT4g18420	-1
AT4g18430	-1
AT4g18440	-1
AT4g18450	-1
AT4g18460	1
AT4g18470	-1
AT4g18480	-1
AT4g18490	1
AT4g18500	-1
AT4g18510	1
AT4g18520	-1
AT4g18530	1
AT4g18540	-1
AT4g18550	-1
AT4g18560	1
AT4g18570	-1
AT4g18580	-1
AT4g18590	1
AT4g18600	-1
AT4g18610	1
AT4g18620	1
AT4g18630	1
AT4g18640	1
AT4g18650	-1
AT4g18660	1
AT4g18670	-1
AT4g18680	1
AT4g18690	1
AT4g18700	-1
AT4g18710	1
AT4g18720	1
AT4g18730	1
AT4g18740	-1
AT4g18750	1
AT4g18760	-1
AT4g18770	1
AT4g18780	-1
AT4g18790	-1
AT4g18800	-1
AT4g18810	-1
AT4g18820	1
AT4g18830	1
AT4g18840	-1
AT4g18850	-1
AT4g18860	1
AT4g18870	1
AT4g18880	-1
AT4g18890	1
AT4g18900	1
AT4g18910	1
AT4g18920	1
AT4g18930	1
AT4g18940	1
AT4g18950	1
AT4g18960	1
AT4g18970	-1
AT4g18980	1
AT4g18990	-1
AT4g19000	1
AT4g19010	-1
AT4g19020	1
AT4g19030	-1
AT4g19040	-1
AT4g19050	-1
AT4g19060	-1
AT4g19070	-1
AT4g19080	-1
AT4g19090	1
AT4g19100	1
AT4g19110	-1
AT4g19120	-1
AT4g19130	-1
AT4g19140	1
AT4g19150	-1
AT4g19160	1
AT4g19170	1
AT4g19180	-1
AT4g19190	1
AT4g19200	1
AT4g19210	1
AT4g19220	-1
AT4g19230	1
AT4g19240	-1
AT4g19250	1
AT4g19260	1
AT4g19270	-1
AT4g19280	-1
AT4g19290	-1
AT4g19300	-1
AT4g19310	-1
AT4g19320	-1
AT4g19330	1
AT4g19340	1
AT4g19350	-1
AT4g19360	1
AT4g19370	-1
AT4g19380	-1
AT4g19390	-1
AT4g19400	-1
AT4g19410	-1
AT4g19420	-1
AT4g19430	-1
AT4g19440	-1
AT4g19450	1
AT4g19460	-1
AT4g19470	-1
AT4g19480	-1
AT4g19490	1
AT4g19500	1
AT4g19510	1
AT4g19520	-1
AT4g19530	1
AT4g19540	1
AT4g19550	-1
AT4g19560	1
AT4g19570	1
AT4g19580	1
AT4g19590	1
AT4g19600	1
AT4g19610	1
AT4g19620	-1
AT4g19630	-1
AT4g19640	-1
AT4g19650	1
AT4g19660	-1
AT4g19670	-1
AT4g19680	1
AT4g19690	1
AT4g19700	-1
AT4g19710	1
AT4g19720	-1
AT4g19730	-1
AT4g19740	-1
AT4g19750	-1
AT4g19760	1
AT4g19770	-1
AT4g19780	-1
AT4g19790	1
AT4g19800	-1
AT4g19810	-1
AT4g19820	-1
AT4g19830	-1
AT4g19840	1
AT4g19850	1
AT4g19860	-1
AT4g19870	-1
AT4g19880	-1
AT4g19900	-1
AT4g19920	-1
AT4g19930	1
AT4g19940	1
AT4g19950	1
AT4g19960	1
AT4g19970	1
AT4g19980	-1
AT4g19990	1
AT4g20000	1
AT4g20010	1
AT4g20020	-1
AT4g20030	1
AT4g20040	-1
AT4g20050	-1
AT4g20060	-1
AT4g20070	1
AT4g20080	1
AT4g20090	-1
AT4g20100	-1
AT4g20110	1
AT4g20120	1
AT4g20130	1
AT4g20140	1
AT4g20150	-1
AT4g20160	1
AT4g20170	1
AT4g20180	1
AT4g20190	-1
AT4g20200	-1
AT4g20210	-1
AT4g20220	1
AT4g20230	-1
AT4g20240	-1
AT4g20250	-1
AT4g20260	1
AT4g20270	1
AT4g20280	1
AT4g20290	-1
AT4g20300	1
AT4g20310	1
AT4g20320	1
AT4g20330	-1
AT4g20340	1
AT4g20350	1
AT4g20360	1
AT4g20370	-1
AT4g20380	1
AT4g20390	1
AT4g20400	1
AT4g20410	-1
AT4g20420	1
AT4g20430	-1
AT4g20440	-1
AT4g20450	-1
AT4g20460	-1
AT4g20470	-1
AT4g20480	-1
AT4g20490	1
AT4g20500	-1
AT4g20510	1
AT4g20520	1
AT4g20530	1
AT4g20540	1
AT4g20550	1
AT4g20560	1
AT4g20570	1
AT4g20580	1
AT4g20590	1
AT4g20600	1
AT4g20610	1
AT4g20620	1
AT4g20630	1
AT4g20640	1
AT4g20650	1
AT4g20660	1
AT4g20670	1
AT4g20680	1
AT4g20690	-1
AT4g20700	1
AT4g20710	1
AT4g20720	1
AT4g20730	-1
AT4g20740	1
AT4g20750	1
AT4g20760	1
AT4g20770	-1
AT4g20780	-1
AT4g20790	-1
AT4g20800	1
AT4g20810	-1
AT4g20820	1
AT4g20830	1
AT4g20840	1
AT4g20850	-1
AT4g20860	1
AT4g20870	-1
AT4g20880	-1
AT4g20890	1
AT4g20900	-1
AT4g20910	-1
AT4g20920	-1
AT4g20930	-1
AT4g20940	1
AT4g20950	-1
AT4g20960	1
AT4g20970	1
AT4g20980	1
AT4g20990	1
AT4g21000	1
AT4g21010	-1
AT4g21020	1
AT4g21030	1
AT4g21040	-1
AT4g21050	1
AT4g21060	1
AT4g21070	1
AT4g21080	-1
AT4g21090	-1
AT4g21100	-1
AT4g21110	1
AT4g21120	1
AT4g21130	1
AT4g21140	-1
AT4g21150	1
AT4g21160	1
AT4g21170	-1
AT4g21180	1
AT4g21190	-1
AT4g21200	1
AT4g21210	1
AT4g21220	-1
AT4g21230	-1
AT4g21240	1
AT4g21250	1
AT4g21260	1
AT4g21270	-1
AT4g21280	1
AT4g21300	1
AT4g21310	-1
AT4g21320	1
AT4g21330	1
AT4g21340	1
AT4g21350	-1
AT4g21360	-1
AT4g21370	-1
AT4g21380	-1
AT4g21390	-1
AT4g21400	-1
AT4g21410	-1
AT4g21420	1
AT4g21430	-1
AT4g21440	-1
AT4g21450	1
AT4g21460	1
AT4g21470	1
AT4g21480	-1
AT4g21490	-1
AT4g21500	-1
AT4g21510	-1
AT4g21520	-1
AT4g21530	1
AT4g21540	1
AT4g21550	1
AT4g21560	-1
AT4g21570	-1
AT4g21580	1
AT4g21590	1
AT4g21600	1
AT4g21610	1
AT4g21620	1
AT4g21630	-1
AT4g21640	-1
AT4g21650	-1
AT4g21660	-1
AT4g21670	1
AT4g21680	-1
AT4g21690	1
AT4g21700	1
AT4g21710	-1
AT4g21720	1
AT4g21730	1
AT4g21740	1
AT4g21750	1
AT4g21760	1
AT4g21770	-1
AT4g21780	1
AT4g21790	1
AT4g21800	1
AT4g21810	-1
AT4g21820	1
AT4g21830	-1
AT4g21840	-1
AT4g21850	-1
AT4g21860	1
AT4g21870	-1
AT4g21880	1
AT4g21890	-1
AT4g21900	-1
AT4g21910	-1
AT4g21920	-1
AT4g21930	1
AT4g21940	1
AT4g21950	1
AT4g21960	-1
AT4g21970	1
AT4g21980	1
AT4g21990	-1
AT4g22000	-1
AT4g22010	1
AT4g22020	1
AT4g22030	1
AT4g22040	-1
AT4g22050	1
AT4g22060	1
AT4g22070	-1
AT4g22080	-1
AT4g22090	-1
AT4g22100	-1
AT4g22110	-1
AT4g22120	-1
AT4g22130	1
AT4g22140	-1
AT4g22150	-1
AT4g22160	1
AT4g22170	1
AT4g22180	1
AT4g22190	-1
AT4g22200	-1
AT4g22210	1
AT4g22220	-1
AT4g22230	1
AT4g22240	-1
AT4g22250	-1
AT4g22260	-1
AT4g22270	1
AT4g22280	-1
AT4g22290	-1
AT4g22300	-1
AT4g22310	1
AT4g22320	-1
AT4g22330	1
AT4g22340	-1
AT4g22350	-1
AT4g22360	1
AT4g22370	-1
AT4g22380	-1
AT4g22390	-1
AT4g22400	1
AT4g22410	-1
AT4g22420	-1
AT4g22430	1
AT4g22440	1
AT4g22450	1
AT4g22460	-1
AT4g22470	-1
AT4g22480	1
AT4g22490	-1
AT4g22500	1
AT4g22510	-1
AT4g22520	1
AT4g22530	-1
AT4g22540	-1
AT4g22550	-1
AT4g22560	1
AT4g22570	-1
AT4g22580	-1
AT4g22590	-1
AT4g22600	-1
AT4g22610	-1
AT4g22620	1
AT4g22630	1
AT4g22640	1
AT4g22650	1
AT4g22660	-1
AT4g22670	1
AT4g22680	-1
AT4g22690	1
AT4g22700	1
AT4g22710	1
AT4g22720	1
AT4g22730	1
AT4g22740	-1
AT4g22750	-1
AT4g22760	1
AT4g22770	-1
AT4g22780	-1
AT4g22790	-1
AT4g22800	-1
AT4g22810	1
AT4g22820	-1
AT4g22830	-1
AT4g22840	-1
AT4g22850	1
AT4g22860	1
AT4g22870	-1
AT4g22880	-1
AT4g22890	1
AT4g22900	1
AT4g22910	1
AT4g22920	-1
AT4g22930	1
AT4g22940	-1
AT4g22950	-1
AT4g22960	1
AT4g22970	-1
AT4g22980	-1
AT4g22990	-1
AT4g23000	1
AT4g23010	-1
AT4g23020	-1
AT4g23030	1
AT4g23040	-1
AT4g23050	1
AT4g23060	1
AT4g23070	-1
AT4g23080	1
AT4g23090	-1
AT4g23100	-1
AT4g23110	1
AT4g23120	1
AT4g23130	-1
AT4g23140	1
AT4g23150	1
AT4g23160	1
AT4g23170	1
AT4g23180	1
AT4g23190	-1
AT4g23200	-1
AT4g23210	-1
AT4g23220	-1
AT4g23230	-1
AT4g23240	-1
AT4g23250	-1
AT4g23260	-1
AT4g23270	1
AT4g23280	1
AT4g23290	-1
AT4g23300	1
AT4g23310	1
AT4g23320	-1
AT4g23330	1
AT4g23340	-1
AT4g23350	-1
AT4g23360	-1
AT4g23370	-1
AT4g23380	-1
AT4g23390	-1
AT4g23400	1
AT4g23410	1
AT4g23420	1
AT4g23430	1
AT4g23440	1
AT4g23450	-1
AT4g23460	-1
AT4g23470	1
AT4g23480	1
AT4g23490	-1
AT4g23500	1
AT4g23510	-1
AT4g23520	-1
AT4g23530	1
AT4g23540	-1
AT4g23550	1
AT4g23560	-1
AT4g23570	1
AT4g23580	-1
AT4g23590	1
AT4g23600	1
AT4g23610	1
AT4g23620	-1
AT4g23630	1
AT4g23640	-1
AT4g23650	-1
AT4g23660	-1
AT4g23670	-1
AT4g23680	-1
AT4g23690	-1
AT4g23700	-1
AT4g23710	1
AT4g23720	1
AT4g23730	1
AT4g23740	1
AT4g23750	1
AT4g23760	1
AT4g23770	-1
AT4g23780	-1
AT4g23790	1
AT4g23800	1
AT4g23810	-1
AT4g23820	-1
AT4g23830	1
AT4g23840	1
AT4g23850	-1
AT4g23860	1
AT4g23870	1
AT4g23880	-1
AT4g23890	-1
AT4g23900	1
AT4g23910	1
AT4g23920	1
AT4g23930	-1
AT4g23940	1
AT4g23950	1
AT4g23960	1
AT4g23970	-1
AT4g23980	1
AT4g23990	1
AT4g24000	1
AT4g24010	1
AT4g24020	1
AT4g24030	-1
AT4g24040	1
AT4g24050	1
AT4g24060	1
AT4g24070	1
AT4g24080	1
AT4g24090	1
AT4g24100	1
AT4g24110	-1
AT4g24120	1
AT4g24130	1
AT4g24140	-1
AT4g24150	1
AT4g24160	1
AT4g24170	1
AT4g24180	-1
AT4g24190	-1
AT4g24200	-1
AT4g24210	1
AT4g24220	1
AT4g24230	-1
AT4g24240	1
AT4g24250	-1
AT4g24260	-1
AT4g24270	-1
AT4g24280	1
AT4g24290	1
AT4g24300	-1
AT4g24310	1
AT4g24320	-1
AT4g24330	-1
AT4g24340	1
AT4g24350	1
AT4g24360	1
AT4g24370	-1
AT4g24380	1
AT4g24390	-1
AT4g24400	1
AT4g24410	-1
AT4g24420	1
AT4g24430	1
AT4g24440	1
AT4g24450	1
AT4g24460	1
AT4g24470	1
AT4g24480	1
AT4g24490	-1
AT4g24500	1
AT4g24510	1
AT4g24520	-1
AT4g24530	-1
AT4g24540	-1
AT4g24550	1
AT4g24560	-1
AT4g24570	1
AT4g24580	-1
AT4g24590	1
AT4g24600	1
AT4g24610	-1
AT4g24620	-1
AT4g24630	1
AT4g24640	1
AT4g24650	1
AT4g24660	-1
AT4g24670	-1
AT4g24680	1
AT4g24690	1
AT4g24700	-1
AT4g24710	-1
AT4g24720	-1
AT4g24730	-1
AT4g24740	-1
AT4g24750	-1
AT4g24760	-1
AT4g24770	-1
AT4g24780	-1
AT4g24790	1
AT4g24800	1
AT4g24810	-1
AT4g24820	-1
AT4g24830	-1
AT4g24840	-1
AT4g24850	-1
AT4g24860	-1
AT4g24880	1
AT4g24890	-1
AT4g24900	1
AT4g24910	-1
AT4g24920	-1
AT4g24930	-1
AT4g24940	1
AT4g24950	1
AT4g24960	1
AT4g24970	1
AT4g24980	-1
AT4g24990	-1
AT4g25000	-1
AT4g25010	-1
AT4g25020	-1
AT4g25030	1
AT4g25040	1
AT4g25050	1
AT4g25060	1
AT4g25070	1
AT4g25080	1
AT4g25090	-1
AT4g25100	-1
AT4g25110	-1
AT4g25120	1
AT4g25130	-1
AT4g25140	1
AT4g25150	-1
AT4g25160	-1
AT4g25170	1
AT4g25180	-1
AT4g25190	-1
AT4g25200	1
AT4g25210	1
AT4g25220	1
AT4g25230	1
AT4g25240	1
AT4g25250	1
AT4g25260	-1
AT4g25270	-1
AT4g25280	-1
AT4g25290	-1
AT4g25300	1
AT4g25310	1
AT4g25320	1
AT4g25330	1
AT4g25340	-1
AT4g25350	-1
AT4g25360	1
AT4g25370	1
AT4g25380	-1
AT4g25390	1
AT4g25400	1
AT4g25410	1
AT4g25420	-1
AT4g25430	1
AT4g25440	-1
AT4g25450	-1
AT4g25460	-1
AT4g25470	-1
AT4g25480	-1
AT4g25490	-1
AT4g25500	1
AT4g25510	-1
AT4g25520	-1
AT4g25530	1
AT4g25540	-1
AT4g25550	1
AT4g25560	1
AT4g25570	-1
AT4g25580	1
AT4g25590	-1
AT4g25600	1
AT4g25610	1
AT4g25620	-1
AT4g25630	1
AT4g25640	-1
AT4g25650	-1
AT4g25660	1
AT4g25670	-1
AT4g25680	1
AT4g25690	-1
AT4g25700	-1
AT4g25710	-1
AT4g25720	-1
AT4g25730	-1
AT4g25740	-1
AT4g25750	-1
AT4g25760	1
AT4g25770	-1
AT4g25780	1
AT4g25790	-1
AT4g25800	1
AT4g25810	1
AT4g25820	1
AT4g25830	1
AT4g25840	1
AT4g25850	1
AT4g25860	1
AT4g25870	-1
AT4g25880	1
AT4g25890	-1
AT4g25900	1
AT4g25910	1
AT4g25920	1
AT4g25930	1
AT4g25940	-1
AT4g25950	-1
AT4g25960	1
AT4g25970	1
AT4g25980	1
AT4g25990	-1
AT4g26000	1
AT4g26010	1
AT4g26020	-1
AT4g26030	1
AT4g26040	1
AT4g26050	1
AT4g26060	-1
AT4g26070	1
AT4g26080	-1
AT4g26090	1
AT4g26100	-1
AT4g26110	1
AT4g26120	1
AT4g26130	-1
AT4g26140	-1
AT4g26150	1
AT4g26160	1
AT4g26170	1
AT4g26180	-1
AT4g26190	-1
AT4g26200	1
AT4g26210	1
AT4g26220	1
AT4g26230	1
AT4g26240	-1
AT4g26250	1
AT4g26260	1
AT4g26270	-1
AT4g26280	-1
AT4g26290	-1
AT4g26300	-1
AT4g26310	-1
AT4g26320	-1
AT4g26330	1
AT4g26340	1
AT4g26350	1
AT4g26360	-1
AT4g26370	-1
AT4g26380	1
AT4g26390	1
AT4g26400	-1
AT4g26410	1
AT4g26420	-1
AT4g26430	1
AT4g26440	-1
AT4g26450	1
AT4g26460	1
AT4g26470	1
AT4g26480	-1
AT4g26490	1
AT4g26500	-1
AT4g26510	1
AT4g26520	1
AT4g26530	1
AT4g26540	-1
AT4g26550	-1
AT4g26560	-1
AT4g26570	-1
AT4g26580	-1
AT4g26590	-1
AT4g26600	1
AT4g26610	1
AT4g26620	-1
AT4g26630	-1
AT4g26640	-1
AT4g26650	1
AT4g26660	1
AT4g26670	1
AT4g26680	1
AT4g26690	-1
AT4g26700	1
AT4g26710	1
AT4g26720	-1
AT4g26730	1
AT4g26740	-1
AT4g26750	-1
AT4g26760	-1
AT4g26770	1
AT4g26780	-1
AT4g26790	1
AT4g26800	1
AT4g26810	-1
AT4g26820	-1
AT4g26830	-1
AT4g26840	1
AT4g26850	-1
AT4g26860	-1
AT4g26870	1
AT4g26880	-1
AT4g26890	1
AT4g26900	1
AT4g26910	-1
AT4g26920	1
AT4g26930	1
AT4g26940	-1
AT4g26950	-1
AT4g26960	-1
AT4g26970	1
AT4g26980	-1
AT4g26990	-1
AT4g27000	-1
AT4g27010	1
AT4g27020	-1
AT4g27030	1
AT4g27040	-1
AT4g27050	-1
AT4g27060	-1
AT4g27070	1
AT4g27080	1
AT4g27090	-1
AT4g27100	1
AT4g27110	-1
AT4g27120	-1
AT4g27130	-1
AT4g27140	1
AT4g27150	1
AT4g27160	1
AT4g27170	1
AT4g27180	-1
AT4g27190	-1
AT4g27200	1
AT4g27210	1
AT4g27220	-1
AT4g27230	-1
AT4g27240	1
AT4g27250	-1
AT4g27260	1
AT4g27270	-1
AT4g27280	-1
AT4g27290	1
AT4g27300	-1
AT4g27310	1
AT4g27320	-1
AT4g27330	-1
AT4g27340	-1
AT4g27350	-1
AT4g27360	1
AT4g27370	-1
AT4g27380	1
AT4g27390	-1
AT4g27400	1
AT4g27410	-1
AT4g27420	-1
AT4g27430	1
AT4g27440	1
AT4g27450	-1
AT4g27460	1
AT4g27470	1
AT4g27480	-1
AT4g27490	1
AT4g27500	1
AT4g27510	-1
AT4g27520	-1
AT4g27530	1
AT4g27540	-1
AT4g27550	1
AT4g27560	-1
AT4g27570	-1
AT4g27580	-1
AT4g27590	1
AT4g27600	-1
AT4g27610	-1
AT4g27620	-1
AT4g27630	-1
AT4g27640	-1
AT4g27650	-1
AT4g27660	-1
AT4g27670	-1
AT4g27680	1
AT4g27690	1
AT4g27700	-1
AT4g27710	1
AT4g27720	1
AT4g27730	-1
AT4g27740	1
AT4g27750	1
AT4g27760	1
AT4g27780	1
AT4g27790	1
AT4g27800	-1
AT4g27810	-1
AT4g27820	-1
AT4g27830	-1
AT4g27840	-1
AT4g27850	1
AT4g27860	1
AT4g27870	1
AT4g27880	1
AT4g27890	1
AT4g27900	1
AT4g27910	1
AT4g27920	1
AT4g27930	-1
AT4g27940	1
AT4g27950	-1
AT4g27960	-1
AT4g27970	-1
AT4g27980	1
AT4g27990	-1
AT4g28000	1
AT4g28010	1
AT4g28020	-1
AT4g28030	-1
AT4g28040	1
AT4g28050	-1
AT4g28060	-1
AT4g28070	1
AT4g28080	-1
AT4g28090	-1
AT4g28100	-1
AT4g28110	-1
AT4g28120	1
AT4g28130	1
AT4g28140	-1
AT4g28150	-1
AT4g28160	1
AT4g28170	1
AT4g28180	-1
AT4g28190	1
AT4g28200	-1
AT4g28210	1
AT4g28220	1
AT4g28230	-1
AT4g28240	-1
AT4g28250	-1
AT4g28260	1
AT4g28270	-1
AT4g28280	1
AT4g28290	-1
AT4g28300	1
AT4g28310	1
AT4g28320	-1
AT4g28330	-1
AT4g28340	-1
AT4g28350	1
AT4g28360	-1
AT4g28370	1
AT4g28380	-1
AT4g28390	-1
AT4g28400	1
AT4g28410	1
AT4g28420	1
AT4g28430	1
AT4g28440	1
AT4g28450	-1
AT4g28460	1
AT4g28470	-1
AT4g28480	1
AT4g28490	1
AT4g28500	1
AT4g28510	-1
AT4g28520	1
AT4g28530	-1
AT4g28540	1
AT4g28550	1
AT4g28560	-1
AT4g28570	1
AT4g28580	1
AT4g28590	-1
AT4g28600	1
AT4g28610	-1
AT4g28620	-1
AT4g28630	-1
AT4g28640	1
AT4g28650	-1
AT4g28660	1
AT4g28670	1
AT4g28680	1
AT4g28690	1
AT4g28700	1
AT4g28710	1
AT4g28720	1
AT4g28730	1
AT4g28740	1
AT4g28750	-1
AT4g28760	1
AT4g28770	-1
AT4g28780	1
AT4g28790	1
AT4g28800	1
AT4g28810	1
AT4g28820	-1
AT4g28830	1
AT4g28840	1
AT4g28850	1
AT4g28860	1
AT4g28870	1
AT4g28880	1
AT4g28890	-1
AT4g28900	1
AT4g28910	-1
AT4g28920	-1
AT4g28930	1
AT4g28940	1
AT4g28950	1
AT4g28960	1
AT4g28970	-1
AT4g28980	1
AT4g28990	1
AT4g29000	1
AT4g29010	-1
AT4g29020	1
AT4g29030	1
AT4g29040	1
AT4g29050	-1
AT4g29060	1
AT4g29070	1
AT4g29080	-1
AT4g29090	1
AT4g29100	1
AT4g29110	1
AT4g29120	1
AT4g29130	-1
AT4g29140	1
AT4g29150	1
AT4g29160	1
AT4g29170	1
AT4g29180	1
AT4g29190	-1
AT4g29200	-1
AT4g29210	1
AT4g29220	-1
AT4g29230	1
AT4g29240	1
AT4g29250	1
AT4g29260	-1
AT4g29270	-1
AT4g29280	-1
AT4g29290	-1
AT4g29300	-1
AT4g29310	-1
AT4g29320	-1
AT4g29330	1
AT4g29340	1
AT4g29350	1
AT4g29360	-1
AT4g29370	1
AT4g29380	1
AT4g29390	-1
AT4g29400	1
AT4g29410	-1
AT4g29420	-1
AT4g29430	1
AT4g29440	-1
AT4g29450	-1
AT4g29460	-1
AT4g29470	-1
AT4g29480	-1
AT4g29490	1
AT4g29500	1
AT4g29510	1
AT4g29520	-1
AT4g29530	1
AT4g29540	1
AT4g29550	1
AT4g29560	-1
AT4g29570	1
AT4g29580	1
AT4g29590	-1
AT4g29600	1
AT4g29610	1
AT4g29620	1
AT4g29630	1
AT4g29640	1
AT4g29650	1
AT4g29660	-1
AT4g29670	-1
AT4g29680	-1
AT4g29690	-1
AT4g29700	-1
AT4g29710	-1
AT4g29720	-1
AT4g29730	-1
AT4g29740	1
AT4g29750	1
AT4g29760	1
AT4g29770	1
AT4g29780	1
AT4g29790	1
AT4g29800	-1
AT4g29810	-1
AT4g29820	-1
AT4g29830	1
AT4g29840	-1
AT4g29850	-1
AT4g29860	-1
AT4g29870	1
AT4g29880	-1
AT4g29890	1
AT4g29900	-1
AT4g29910	-1
AT4g29920	-1
AT4g29930	1
AT4g29940	-1
AT4g29950	1
AT4g29960	-1
AT4g29970	-1
AT4g29980	-1
AT4g29990	-1
AT4g30000	-1
AT4g30010	1
AT4g30020	1
AT4g30030	-1
AT4g30040	1
AT4g30050	-1
AT4g30060	-1
AT4g30070	1
AT4g30080	-1
AT4g30090	-1
AT4g30100	1
AT4g30110	-1
AT4g30120	-1
AT4g30130	1
AT4g30140	-1
AT4g30150	1
AT4g30160	1
AT4g30170	1
AT4g30180	1
AT4g30190	-1
AT4g30200	-1
AT4g30210	1
AT4g30220	-1
AT4g30230	1
AT4g30240	-1
AT4g30250	-1
AT4g30260	-1
AT4g30270	-1
AT4g30280	-1
AT4g30290	-1
AT4g30300	-1
AT4g30310	1
AT4g30320	1
AT4g30330	-1
AT4g30340	-1
AT4g30350	1
AT4g30360	-1
AT4g30370	-1
AT4g30380	1
AT4g30390	-1
AT4g30400	1
AT4g30410	-1
AT4g30420	1
AT4g30430	-1
AT4g30440	-1
AT4g30450	-1
AT4g30460	-1
AT4g30470	1
AT4g30480	1
AT4g30490	-1
AT4g30500	1
AT4g30510	-1
AT4g30520	-1
AT4g30530	1
AT4g30540	1
AT4g30550	1
AT4g30560	-1
AT4g30570	-1
AT4g30580	-1
AT4g30590	-1
AT4g30600	-1
AT4g30610	1
AT4g30620	-1
AT4g30630	1
AT4g30640	1
AT4g30650	1
AT4g30660	1
AT4g30670	-1
AT4g30680	-1
AT4g30690	1
AT4g30700	-1
AT4g30710	-1
AT4g30720	-1
AT4g30730	-1
AT4g30740	-1
AT4g30750	-1
AT4g30760	1
AT4g30770	-1
AT4g30780	1
AT4g30790	-1
AT4g30800	1
AT4g30810	1
AT4g30820	1
AT4g30830	-1
AT4g30840	-1
AT4g30850	-1
AT4g30860	1
AT4g30870	1
AT4g30880	1
AT4g30890	-1
AT4g30900	1
AT4g30910	-1
AT4g30920	-1
AT4g30930	-1
AT4g30940	1
AT4g30950	-1
AT4g30960	1
AT4g30970	-1
AT4g30980	-1
AT4g30990	1
AT4g31000	1
AT4g31010	1
AT4g31020	-1
AT4g31030	-1
AT4g31040	-1
AT4g31050	1
AT4g31060	1
AT4g31070	-1
AT4g31080	1
AT4g31090	1
AT4g31100	1
AT4g31110	1
AT4g31120	-1
AT4g31130	-1
AT4g31140	1
AT4g31150	-1
AT4g31160	1
AT4g31170	-1
AT4g31180	1
AT4g31190	-1
AT4g31200	-1
AT4g31210	1
AT4g31220	-1
AT4g31230	-1
AT4g31240	-1
AT4g31250	-1
AT4g31260	-1
AT4g31270	-1
AT4g31280	-1
AT4g31290	1
AT4g31300	1
AT4g31310	1
AT4g31320	-1
AT4g31330	1
AT4g31340	1
AT4g31350	1
AT4g31360	1
AT4g31370	-1
AT4g31380	1
AT4g31390	1
AT4g31400	1
AT4g31410	1
AT4g31420	-1
AT4g31430	1
AT4g31440	1
AT4g31450	-1
AT4g31460	-1
AT4g31470	-1
AT4g31480	1
AT4g31490	1
AT4g31500	-1
AT4g31510	-1
AT4g31520	-1
AT4g31530	1
AT4g31540	-1
AT4g31550	-1
AT4g31560	1
AT4g31570	1
AT4g31580	1
AT4g31590	-1
AT4g31600	-1
AT4g31610	1
AT4g31620	-1
AT4g31630	-1
AT4g31640	1
AT4g31650	1
AT4g31660	1
AT4g31670	-1
AT4g31680	-1
AT4g31690	-1
AT4g31700	-1
AT4g31710	1
AT4g31720	-1
AT4g31730	1
AT4g31740	1
AT4g31750	-1
AT4g31760	-1
AT4g31770	-1
AT4g31780	1
AT4g31790	1
AT4g31800	1
AT4g31810	-1
AT4g31820	-1
AT4g31830	-1
AT4g31840	1
AT4g31850	1
AT4g31860	-1
AT4g31870	1
AT4g31880	-1
AT4g31890	-1
AT4g31900	1
AT4g31910	1
AT4g31920	-1
AT4g31930	-1
AT4g31940	1
AT4g31950	1
AT4g31960	-1
AT4g31970	1
AT4g31980	1
AT4g31990	-1
AT4g32000	-1
AT4g32010	1
AT4g32020	1
AT4g32030	1
AT4g32040	1
AT4g32050	1
AT4g32060	1
AT4g32070	-1
AT4g32080	-1
AT4g32090	-1
AT4g32100	-1
AT4g32110	-1
AT4g32120	-1
AT4g32130	-1
AT4g32140	-1
AT4g32150	-1
AT4g32160	1
AT4g32170	1
AT4g32180	-1
AT4g32190	1
AT4g32200	1
AT4g32210	-1
AT4g32220	-1
AT4g32230	-1
AT4g32240	1
AT4g32250	-1
AT4g32260	-1
AT4g32270	-1
AT4g32280	1
AT4g32290	-1
AT4g32300	1
AT4g32320	1
AT4g32330	1
AT4g32340	-1
AT4g32350	1
AT4g32360	1
AT4g32370	1
AT4g32380	1
AT4g32390	1
AT4g32400	1
AT4g32410	-1
AT4g32420	-1
AT4g32430	1
AT4g32440	1
AT4g32450	1
AT4g32460	-1
AT4g32470	-1
AT4g32480	1
AT4g32490	-1
AT4g32500	1
AT4g32510	-1
AT4g32520	-1
AT4g32530	-1
AT4g32540	1
AT4g32550	1
AT4g32560	1
AT4g32570	-1
AT4g32580	-1
AT4g32590	1
AT4g32600	1
AT4g32610	-1
AT4g32620	1
AT4g32630	1
AT4g32640	1
AT4g32650	-1
AT4g32660	1
AT4g32670	-1
AT4g32680	-1
AT4g32690	1
AT4g32700	1
AT4g32710	1
AT4g32720	1
AT4g32730	1
AT4g32740	1
AT4g32750	-1
AT4g32760	1
AT4g32770	1
AT4g32780	1
AT4g32790	1
AT4g32800	1
AT4g32810	1
AT4g32820	-1
AT4g32830	1
AT4g32840	-1
AT4g32850	1
AT4g32860	-1
AT4g32870	1
AT4g32880	-1
AT4g32890	1
AT4g32900	-1
AT4g32910	1
AT4g32920	-1
AT4g32930	1
AT4g32940	-1
AT4g32950	-1
AT4g32960	-1
AT4g32970	-1
AT4g32980	-1
AT4g32990	1
AT4g33000	1
AT4g33010	-1
AT4g33020	-1
AT4g33030	1
AT4g33040	-1
AT4g33050	-1
AT4g33060	1
AT4g33070	-1
AT4g33080	1
AT4g33090	-1
AT4g33100	1
AT4g33110	-1
AT4g33120	-1
AT4g33130	-1
AT4g33140	1
AT4g33150	-1
AT4g33160	1
AT4g33170	-1
AT4g33180	1
AT4g33190	1
AT4g33200	-1
AT4g33210	-1
AT4g33220	1
AT4g33230	-1
AT4g33240	-1
AT4g33250	-1
AT4g33260	-1
AT4g33270	-1
AT4g33280	-1
AT4g33290	1
AT4g33300	-1
AT4g33310	1
AT4g33320	-1
AT4g33330	-1
AT4g33340	-1
AT4g33350	-1
AT4g33360	-1
AT4g33370	-1
AT4g33380	1
AT4g33390	1
AT4g33400	-1
AT4g33410	1
AT4g33420	1
AT4g33430	-1
AT4g33440	1
AT4g33450	-1
AT4g33460	-1
AT4g33470	-1
AT4g33480	-1
AT4g33490	-1
AT4g33500	-1
AT4g33510	1
AT4g33520	1
AT4g33530	-1
AT4g33540	1
AT4g33550	1
AT4g33560	1
AT4g33570	1
AT4g33580	1
AT4g33590	-1
AT4g33600	-1
AT4g33610	1
AT4g33620	1
AT4g33630	1
AT4g33640	-1
AT4g33650	1
AT4g33660	1
AT4g33670	-1
AT4g33680	-1
AT4g33690	1
AT4g33700	-1
AT4g33710	1
AT4g33720	1
AT4g33730	1
AT4g33740	1
AT4g33750	1
AT4g33760	-1
AT4g33770	-1
AT4g33780	-1
AT4g33790	-1
AT4g33800	-1
AT4g33810	-1
AT4g33820	-1
AT4g33830	-1
AT4g33840	-1
AT4g33850	-1
AT4g33860	-1
AT4g33870	-1
AT4g33880	-1
AT4g33890	1
AT4g33900	-1
AT4g33910	-1
AT4g33920	1
AT4g33930	-1
AT4g33940	1
AT4g33950	1
AT4g33960	1
AT4g33970	-1
AT4g33980	-1
AT4g33990	-1
AT4g34000	1
AT4g34010	1
AT4g34020	-1
AT4g34030	1
AT4g34040	-1
AT4g34050	1
AT4g34060	1
AT4g34070	-1
AT4g34080	1
AT4g34090	-1
AT4g34100	1
AT4g34110	1
AT4g34120	1
AT4g34130	-1
AT4g34140	1
AT4g34150	1
AT4g34160	1
AT4g34170	1
AT4g34180	-1
AT4g34190	-1
AT4g34200	-1
AT4g34210	1
AT4g34220	-1
AT4g34230	-1
AT4g34240	1
AT4g34250	1
AT4g34260	1
AT4g34270	-1
AT4g34280	1
AT4g34290	1
AT4g34300	1
AT4g34310	1
AT4g34320	1
AT4g34330	1
AT4g34340	-1
AT4g34350	-1
AT4g34360	1
AT4g34370	1
AT4g34380	1
AT4g34390	1
AT4g34400	1
AT4g34410	1
AT4g34420	1
AT4g34430	1
AT4g34440	1
AT4g34450	1
AT4g34460	-1
AT4g34470	-1
AT4g34480	-1
AT4g34490	-1
AT4g34500	-1
AT4g34510	1
AT4g34520	1
AT4g34530	1
AT4g34540	1
AT4g34550	1
AT4g34560	1
AT4g34570	-1
AT4g34580	1
AT4g34590	1
AT4g34600	1
AT4g34610	-1
AT4g34620	-1
AT4g34630	-1
AT4g34640	1
AT4g34650	1
AT4g34660	-1
AT4g34670	1
AT4g34680	1
AT4g34690	-1
AT4g34700	1
AT4g34710	-1
AT4g34720	-1
AT4g34730	-1
AT4g34740	-1
AT4g34750	1
AT4g34760	-1
AT4g34770	1
AT4g34780	-1
AT4g34790	1
AT4g34800	1
AT4g34810	1
AT4g34820	-1
AT4g34830	-1
AT4g34840	1
AT4g34850	1
AT4g34860	-1
AT4g34870	1
AT4g34880	1
AT4g34890	-1
AT4g34900	-1
AT4g34910	1
AT4g34920	1
AT4g34930	1
AT4g34940	1
AT4g34950	-1
AT4g34960	1
AT4g34970	1
AT4g34980	-1
AT4g34990	-1
AT4g35000	-1
AT4g35010	-1
AT4g35020	1
AT4g35030	1
AT4g35040	1
AT4g35050	-1
AT4g35060	-1
AT4g35070	1
AT4g35080	1
AT4g35090	-1
AT4g35100	1
AT4g35110	-1
AT4g35120	1
AT4g35130	-1
AT4g35140	-1
AT4g35150	-1
AT4g35160	-1
AT4g35170	1
AT4g35180	-1
AT4g35190	1
AT4g35200	-1
AT4g35210	1
AT4g35220	1
AT4g35230	-1
AT4g35240	-1
AT4g35250	-1
AT4g35260	-1
AT4g35270	-1
AT4g35280	-1
AT4g35290	1
AT4g35300	-1
AT4g35310	1
AT4g35320	-1
AT4g35330	1
AT4g35340	1
AT4g35350	1
AT4g35360	-1
AT4g35370	1
AT4g35380	1
AT4g35390	1
AT4g35400	1
AT4g35410	1
AT4g35420	-1
AT4g35440	-1
AT4g35450	1
AT4g35460	1
AT4g35470	1
AT4g35480	-1
AT4g35490	1
AT4g35500	1
AT4g35510	-1
AT4g35520	1
AT4g35530	-1
AT4g35540	1
AT4g35550	-1
AT4g35560	1
AT4g35570	-1
AT4g35580	-1
AT4g35590	1
AT4g35600	1
AT4g35610	-1
AT4g35620	1
AT4g35630	1
AT4g35640	-1
AT4g35650	1
AT4g35660	1
AT4g35670	1
AT4g35680	1
AT4g35690	1
AT4g35700	1
AT4g35710	1
AT4g35720	1
AT4g35730	1
AT4g35740	1
AT4g35750	-1
AT4g35760	-1
AT4g35770	1
AT4g35780	-1
AT4g35790	-1
AT4g35800	-1
AT4g35810	1
AT4g35820	1
AT4g35830	-1
AT4g35840	1
AT4g35850	1
AT4g35860	-1
AT4g35870	1
AT4g35880	1
AT4g35890	1
AT4g35900	1
AT4g35910	-1
AT4g35920	-1
AT4g35930	1
AT4g35940	1
AT4g35950	-1
AT4g35960	1
AT4g35970	1
AT4g35980	-1
AT4g35990	1
AT4g36000	-1
AT4g36010	-1
AT4g36020	-1
AT4g36030	-1
AT4g36040	-1
AT4g36050	-1
AT4g36060	1
AT4g36070	-1
AT4g36080	-1
AT4g36090	-1
AT4g36100	1
AT4g36110	1
AT4g36120	-1
AT4g36130	1
AT4g36140	-1
AT4g36150	1
AT4g36160	-1
AT4g36170	1
AT4g36180	-1
AT4g36190	1
AT4g36200	-1
AT4g36210	1
AT4g36220	-1
AT4g36230	1
AT4g36240	-1
AT4g36250	1
AT4g36260	-1
AT4g36270	-1
AT4g36280	-1
AT4g36290	-1
AT4g36350	-1
AT4g36360	-1
AT4g36370	1
AT4g36380	-1
AT4g36390	-1
AT4g36400	1
AT4g36410	1
AT4g36420	-1
AT4g36430	-1
AT4g36440	-1
AT4g36450	-1
AT4g36460	-1
AT4g36470	-1
AT4g36480	1
AT4g36490	1
AT4g36500	-1
AT4g36510	1
AT4g36520	-1
AT4g36530	-1
AT4g36540	1
AT4g36550	-1
AT4g36560	1
AT4g36570	1
AT4g36580	1
AT4g36590	-1
AT4g36600	1
AT4g36610	-1
AT4g36620	-1
AT4g36630	-1
AT4g36640	-1
AT4g36650	-1
AT4g36660	-1
AT4g36670	-1
AT4g36680	-1
AT4g36690	-1
AT4g36700	-1
AT4g36710	1
AT4g36720	1
AT4g36730	-1
AT4g36740	-1
AT4g36750	1
AT4g36760	1
AT4g36770	-1
AT4g36780	-1
AT4g36790	1
AT4g36800	-1
AT4g36810	1
AT4g36820	1
AT4g36830	1
AT4g36840	1
AT4g36850	-1
AT4g36860	-1
AT4g36870	1
AT4g36880	-1
AT4g36890	-1
AT4g36900	1
AT4g36910	-1
AT4g36920	1
AT4g36930	1
AT4g36940	1
AT4g36950	-1
AT4g36960	1
AT4g36970	-1
AT4g36980	-1
AT4g36990	1
AT4g37000	1
AT4g37010	1
AT4g37020	1
AT4g37030	1
AT4g37040	1
AT4g37050	-1
AT4g37060	-1
AT4g37070	-1
AT4g37080	1
AT4g37090	1
AT4g37100	-1
AT4g37110	-1
AT4g37120	1
AT4g37130	1
AT4g37140	-1
AT4g37150	-1
AT4g37160	-1
AT4g37170	-1
AT4g37180	1
AT4g37190	1
AT4g37200	-1
AT4g37210	1
AT4g37220	1
AT4g37230	1
AT4g37240	1
AT4g37250	-1
AT4g37260	1
AT4g37270	-1
AT4g37280	-1
AT4g37290	-1
AT4g37300	1
AT4g37310	-1
AT4g37320	-1
AT4g37330	-1
AT4g37340	-1
AT4g37360	-1
AT4g37370	-1
AT4g37380	-1
AT4g37390	1
AT4g37400	1
AT4g37410	1
AT4g37420	1
AT4g37430	1
AT4g37440	1
AT4g37450	-1
AT4g37460	-1
AT4g37470	-1
AT4g37480	1
AT4g37490	-1
AT4g37500	1
AT4g37510	-1
AT4g37520	1
AT4g37530	1
AT4g37540	-1
AT4g37550	1
AT4g37560	1
AT4g37570	-1
AT4g37580	1
AT4g37590	-1
AT4g37600	1
AT4g37610	-1
AT4g37620	-1
AT4g37630	1
AT4g37640	-1
AT4g37650	1
AT4g37660	1
AT4g37670	-1
AT4g37680	1
AT4g37690	1
AT4g37700	-1
AT4g37710	1
AT4g37720	-1
AT4g37730	1
AT4g37740	-1
AT4g37750	1
AT4g37760	1
AT4g37770	1
AT4g37780	-1
AT4g37790	1
AT4g37800	-1
AT4g37810	1
AT4g37820	1
AT4g37830	-1
AT4g37840	-1
AT4g37850	-1
AT4g37860	-1
AT4g37870	-1
AT4g37880	1
AT4g37890	-1
AT4g37900	-1
AT4g37910	-1
AT4g37920	-1
AT4g37930	-1
AT4g37940	-1
AT4g37950	1
AT4g37960	1
AT4g37970	1
AT4g37980	1
AT4g37990	1
AT4g38000	1
AT4g38010	-1
AT4g38020	1
AT4g38030	-1
AT4g38040	1
AT4g38050	-1
AT4g38060	-1
AT4g38070	1
AT4g38080	1
AT4g38090	-1
AT4g38100	-1
AT4g38110	-1
AT4g38120	-1
AT4g38130	-1
AT4g38140	-1
AT4g38150	-1
AT4g38160	1
AT4g38170	1
AT4g38180	-1
AT4g38190	-1
AT4g38200	1
AT4g38210	-1
AT4g38220	1
AT4g38230	-1
AT4g38240	-1
AT4g38250	1
AT4g38260	-1
AT4g38270	1
AT4g38280	1
AT4g38290	1
AT4g38300	-1
AT4g38310	1
AT4g38320	1
AT4g38330	1
AT4g38340	1
AT4g38350	-1
AT4g38360	1
AT4g38370	-1
AT4g38380	-1
AT4g38390	1
AT4g38400	-1
AT4g38410	1
AT4g38420	1
AT4g38430	1
AT4g38440	1
AT4g38460	1
AT4g38470	1
AT4g38480	1
AT4g38490	1
AT4g38500	1
AT4g38510	-1
AT4g38520	-1
AT4g38530	1
AT4g38540	1
AT4g38550	1
AT4g38560	1
AT4g38570	-1
AT4g38580	1
AT4g38590	1
AT4g38600	-1
AT4g38610	-1
AT4g38620	1
AT4g38630	-1
AT4g38640	-1
AT4g38650	1
AT4g38660	-1
AT4g38670	-1
AT4g38680	-1
AT4g38690	-1
AT4g38700	-1
AT4g38710	-1
AT4g38730	-1
AT4g38740	-1
AT4g38750	-1
AT4g38760	-1
AT4g38770	-1
AT4g38780	-1
AT4g38790	1
AT4g38800	-1
AT4g38810	-1
AT4g38820	-1
AT4g38830	1
AT4g38840	-1
AT4g38850	1
AT4g38860	1
AT4g38870	-1
AT4g38880	1
AT4g38890	-1
AT4g38900	-1
AT4g38910	-1
AT4g38920	1
AT4g38930	1
AT4g38940	1
AT4g38950	-1
AT4g38960	1
AT4g38970	-1
AT4g38980	-1
AT4g38990	-1
AT4g39000	-1
AT4g39010	-1
AT4g39020	1
AT4g39030	1
AT4g39040	-1
AT4g39050	1
AT4g39060	1
AT4g39070	-1
AT4g39080	1
AT4g39090	-1
AT4g39100	-1
AT4g39110	-1
AT4g39120	-1
AT4g39130	-1
AT4g39140	-1
AT4g39150	-1
AT4g39160	1
AT4g39170	1
AT4g39180	-1
AT4g39190	-1
AT4g39200	1
AT4g39210	1
AT4g39220	1
AT4g39230	-1
AT4g39240	-1
AT4g39250	-1
AT4g39260	-1
AT4g39270	1
AT4g39280	-1
AT4g39290	-1
AT4g39300	1
AT4g39310	1
AT4g39320	1
AT4g39330	1
AT4g39340	-1
AT4g39350	1
AT4g39360	1
AT4g39370	1
AT4g39380	-1
AT4g39390	1
AT4g39400	1
AT4g39410	-1
AT4g39420	1
AT4g39430	1
AT4g39440	1
AT4g39450	1
AT4g39460	-1
AT4g39470	-1
AT4g39480	1
AT4g39490	1
AT4g39500	-1
AT4g39510	-1
AT4g39520	-1
AT4g39530	-1
AT4g39540	1
AT4g39550	-1
AT4g39560	-1
AT4g39570	-1
AT4g39580	-1
AT4g39590	-1
AT4g39600	-1
AT4g39610	-1
AT4g39620	1
AT4g39630	-1
AT4g39640	1
AT4g39650	1
AT4g39660	1
AT4g39670	1
AT4g39680	-1
AT4g39690	1
AT4g39700	1
AT4g39710	-1
AT4g39720	-1
AT4g39730	1
AT4g39740	-1
AT4g39750	1
AT4g39760	1
AT4g39770	-1
AT4g39780	-1
AT4g39790	-1
AT4g39800	-1
AT4g39810	-1
AT4g39820	-1
AT4g39830	1
AT4g39840	1
AT4g39850	1
AT4g39860	1
AT4g39870	1
AT4g39880	1
AT4g39890	1
AT4g39900	-1
AT4g39910	-1
AT4g39920	1
AT4g39930	-1
AT4g39940	1
AT4g39950	1
AT4g39960	1
AT4g39970	-1
AT4g39980	1
AT4g39990	1
AT4g40000	-1
AT4g40010	-1
AT4g40020	-1
AT4g40030	-1
AT4g40040	-1
AT4g40050	-1
AT4g40060	-1
AT4g40070	1
AT4g40080	1
AT4g40090	1
AT4g40100	1
