AT5g01010	-1
AT5g01020	-1
AT5g01030	1
AT5g01040	-1
AT5g01050	-1
AT5g01060	1
AT5g01070	-1
AT5g01080	-1
AT5g01090	1
AT5g01100	-1
AT5g01110	-1
AT5g01120	1
AT5g01130	1
AT5g01140	1
AT5g01150	1
AT5g01160	1
AT5g01170	1
AT5g01180	-1
AT5g01190	1
AT5g01200	1
AT5g01210	1
AT5g01220	-1
AT5g01230	-1
AT5g01240	1
AT5g01250	-1
AT5g01260	1
AT5g01270	-1
AT5g01280	-1
AT5g01290	1
AT5g01300	-1
AT5g01310	1
AT5g01320	-1
AT5g01330	-1
AT5g01340	-1
AT5g01350	-1
AT5g01360	-1
AT5g01370	1
AT5g01380	-1
AT5g01390	-1
AT5g01400	-1
AT5g01410	-1
AT5g01420	-1
AT5g01430	-1
AT5g01440	1
AT5g01450	-1
AT5g01460	1
AT5g01470	1
AT5g01480	1
AT5g01490	1
AT5g01500	1
AT5g01510	1
AT5g01520	1
AT5g01530	1
AT5g01540	-1
AT5g01550	-1
AT5g01560	-1
AT5g01570	1
AT5g01580	-1
AT5g01590	1
AT5g01600	-1
AT5g01610	1
AT5g01620	1
AT5g01630	-1
AT5g01640	-1
AT5g01650	-1
AT5g01660	-1
AT5g01670	1
AT5g01680	-1
AT5g01690	1
AT5g01700	-1
AT5g01710	-1
AT5g01720	-1
AT5g01730	-1
AT5g01740	1
AT5g01750	1
AT5g01760	1
AT5g01770	-1
AT5g01780	-1
AT5g01790	-1
AT5g01800	1
AT5g01810	1
AT5g01820	-1
AT5g01830	1
AT5g01840	1
AT5g01850	1
AT5g01860	1
AT5g01870	1
AT5g01880	1
AT5g01890	-1
AT5g01900	-1
AT5g01910	-1
AT5g01920	1
AT5g01930	-1
AT5g01940	-1
AT5g01950	-1
AT5g01960	1
AT5g01970	-1
AT5g01980	1
AT5g01990	-1
AT5g02000	-1
AT5g02010	1
AT5g02020	-1
AT5g02030	1
AT5g02040	1
AT5g02050	-1
AT5g02060	1
AT5g02070	-1
AT5g02080	1
AT5g02090	-1
AT5g02100	1
AT5g02110	1
AT5g02120	1
AT5g02130	-1
AT5g02140	1
AT5g02150	-1
AT5g02160	1
AT5g02170	1
AT5g02180	1
AT5g02190	1
AT5g02200	1
AT5g02210	-1
AT5g02220	-1
AT5g02230	1
AT5g02240	1
AT5g02250	1
AT5g02260	1
AT5g02270	-1
AT5g02280	1
AT5g02290	-1
AT5g02300	1
AT5g02310	1
AT5g02320	-1
AT5g02330	-1
AT5g02340	-1
AT5g02350	-1
AT5g02360	-1
AT5g02370	1
AT5g02380	-1
AT5g02390	-1
AT5g02400	1
AT5g02410	-1
AT5g02420	1
AT5g02430	1
AT5g02440	1
AT5g02450	1
AT5g02460	-1
AT5g02470	-1
AT5g02480	1
AT5g02490	-1
AT5g02500	-1
AT5g02510	1
AT5g02520	1
AT5g02530	-1
AT5g02540	1
AT5g02550	-1
AT5g02560	1
AT5g02570	-1
AT5g02580	1
AT5g02590	1
AT5g02600	-1
AT5g02610	1
AT5g02620	1
AT5g02630	1
AT5g02640	-1
AT5g02650	1
AT5g02660	1
AT5g02670	-1
AT5g02680	1
AT5g02690	1
AT5g02700	-1
AT5g02710	1
AT5g02720	-1
AT5g02730	1
AT5g02740	1
AT5g02750	1
AT5g02760	1
AT5g02770	-1
AT5g02780	1
AT5g02790	1
AT5g02800	-1
AT5g02810	-1
AT5g02820	1
AT5g02830	-1
AT5g02840	1
AT5g02850	1
AT5g02860	1
AT5g02870	1
AT5g02880	1
AT5g02890	-1
AT5g02900	1
AT5g02910	1
AT5g02920	1
AT5g02930	1
AT5g02940	-1
AT5g02950	1
AT5g02960	-1
AT5g02970	1
AT5g02980	1
AT5g02990	1
AT5g03000	1
AT5g03010	1
AT5g03020	1
AT5g03030	-1
AT5g03040	-1
AT5g03050	-1
AT5g03060	-1
AT5g03070	-1
AT5g03080	1
AT5g03090	1
AT5g03100	1
AT5g03110	1
AT5g03120	1
AT5g03130	1
AT5g03140	-1
AT5g03150	1
AT5g03160	1
AT5g03170	-1
AT5g03180	-1
AT5g03190	1
AT5g03200	-1
AT5g03210	-1
AT5g03220	-1
AT5g03230	1
AT5g03240	-1
AT5g03250	1
AT5g03260	-1
AT5g03270	1
AT5g03280	1
AT5g03290	1
AT5g03300	1
AT5g03310	-1
AT5g03320	1
AT5g03330	1
AT5g0340	-1
AT5g03350	-1
AT5g03360	1
AT5g03365	1
AT5g03370	-1
AT5g03380	-1
AT5g03390	1
AT5g03400	-1
AT5g03410	1
AT5g03415	1
AT5g03420	1
AT5g03430	-1
AT5g03435	-1
AT5g03440	-1
AT5g03450	-1
AT5g03455	1
AT5g03460	1
AT5g03470	1
AT5g03480	-1
AT5g03490	1
AT5g03500	-1
AT5g03505	-1
AT5g03510	1
AT5g03520	1
AT5g03530	-1
AT5g03540	1
AT5g03545	1
AT5g03550	-1
AT5g03555	-1
AT5g03560	-1
AT5g03570	1
AT5g03590	1
AT5g03600	1
AT5g03610	1
AT5g03620	1
AT5g03630	-1
AT5g03640	1
AT5g03650	1
AT5g03660	1
AT5g03670	1
AT5g03680	1
AT5g03690	-1
AT5g03700	-1
AT5g03710	1
AT5g03720	-1
AT5g03730	-1
AT5g03740	1
AT5g03750	1
AT5g03760	-1
AT5g03770	1
AT5g03780	-1
AT5g03790	1
AT5g03800	-1
AT5g03810	-1
AT5g03820	-1
AT5g03830	1
AT5g03840	-1
AT5g03850	-1
AT5g03860	-1
AT5g03870	-1
AT5g03880	-1
AT5g03890	1
AT5g03900	1
AT5g03910	-1
AT5g03920	1
AT5g03930	1
AT5g03940	-1
AT5g03950	1
AT5g03960	-1
AT5g03970	-1
AT5g03980	-1
AT5g03990	1
AT5g04000	-1
AT5g04010	-1
AT5g04020	-1
AT5g04030	-1
AT5g04040	1
AT5g04050	1
AT5g04060	1
AT5g04070	1
AT5g04080	1
AT5g04090	-1
AT5g04100	-1
AT5g04110	-1
AT5g04120	1
AT5g04130	-1
AT5g04140	1
AT5g04150	-1
AT5g04160	-1
AT5g04170	1
AT5g04180	-1
AT5g04190	1
AT5g04200	1
AT5g04210	-1
AT5g04220	-1
AT5g04230	1
AT5g04240	1
AT5g04250	1
AT5g04260	-1
AT5g04270	-1
AT5g04280	1
AT5g04290	1
AT5g04300	-1
AT5g04310	-1
AT5g04320	1
AT5g04330	-1
AT5g04340	-1
AT5g04350	1
AT5g04360	1
AT5g04370	1
AT5g04380	1
AT5g04390	1
AT5g04400	1
AT5g04410	1
AT5g04420	-1
AT5g04430	-1
AT5g04440	1
AT5g04450	-1
AT5g04460	1
AT5g04470	-1
AT5g04480	-1
AT5g04490	1
AT5g04500	1
AT5g04510	1
AT5g04520	-1
AT5g04530	-1
AT5g04540	-1
AT5g04550	-1
AT5g04560	1
AT5g04570	1
AT5g04580	1
AT5g04590	1
AT5g04600	1
AT5g04610	-1
AT5g04620	1
AT5g04630	1
AT5g04640	1
AT5g04650	1
AT5g04660	1
AT5g04670	-1
AT5g04680	-1
AT5g04690	-1
AT5g04700	-1
AT5g04710	-1
AT5g04720	1
AT5g04730	-1
AT5g04740	-1
AT5g04750	1
AT5g04760	-1
AT5g04770	1
AT5g04780	1
AT5g04790	-1
AT5g04800	1
AT5g04810	1
AT5g04820	1
AT5g04830	-1
AT5g04840	1
AT5g04850	-1
AT5g04860	-1
AT5g04870	-1
AT5g04880	-1
AT5g04890	1
AT5g04900	1
AT5g04910	1
AT5g04920	-1
AT5g04930	1
AT5g04940	-1
AT5g04950	-1
AT5g04960	1
AT5g04970	-1
AT5g04980	-1
AT5g04990	-1
AT5g05000	-1
AT5g05010	1
AT5g05020	-1
AT5g05030	-1
AT5g05040	-1
AT5g05050	1
AT5g05060	-1
AT5g05070	1
AT5g05080	-1
AT5g05090	1
AT5g05100	-1
AT5g05110	-1
AT5g05120	1
AT5g05130	1
AT5g05140	1
AT5g05150	-1
AT5g05160	1
AT5g05170	-1
AT5g05180	1
AT5g05190	1
AT5g05200	-1
AT5g05210	1
AT5g05220	1
AT5g05230	1
AT5g05240	-1
AT5g05250	-1
AT5g05260	-1
AT5g05270	1
AT5g05280	-1
AT5g05290	1
AT5g05300	-1
AT5g05310	1
AT5g05320	-1
AT5g05330	-1
AT5g05340	-1
AT5g05350	1
AT5g05360	1
AT5g05370	-1
AT5g05380	1
AT5g05390	1
AT5g05400	-1
AT5g05410	1
AT5g05420	-1
AT5g05430	-1
AT5g05440	1
AT5g05450	1
AT5g05460	1
AT5g05470	1
AT5g05480	-1
AT5g05490	1
AT5g05500	1
AT5g05510	-1
AT5g05520	1
AT5g05530	1
AT5g05540	1
AT5g05550	-1
AT5g05560	1
AT5g05570	1
AT5g05580	1
AT5g05590	-1
AT5g05600	1
AT5g05610	-1
AT5g05620	1
AT5g05630	1
AT5g05640	1
AT5g05650	-1
AT5g05660	-1
AT5g05670	-1
AT5g05680	1
AT5g05690	-1
AT5g05700	-1
AT5g05710	1
AT5g05720	1
AT5g05730	-1
AT5g05740	-1
AT5g05750	1
AT5g05760	-1
AT5g05770	1
AT5g05780	1
AT5g05790	-1
AT5g05800	-1
AT5g05810	1
AT5g05820	-1
AT5g05830	1
AT5g05840	-1
AT5g05850	-1
AT5g05860	1
AT5g05870	1
AT5g05880	1
AT5g05890	1
AT5g05900	1
AT5g05910	1
AT5g05920	-1
AT5g05930	-1
AT5g05940	1
AT5g05950	1
AT5g05960	1
AT5g05970	1
AT5g05980	-1
AT5g05990	-1
AT5g06000	1
AT5g06010	1
AT5g06020	1
AT5g06030	1
AT5g06040	1
AT5g06050	1
AT5g06060	-1
AT5g06070	-1
AT5g06080	-1
AT5g06090	1
AT5g06100	1
AT5g06110	-1
AT5g06120	1
AT5g06130	-1
AT5g06140	-1
AT5g06150	-1
AT5g06160	-1
AT5g06170	1
AT5g06180	1
AT5g06190	-1
AT5g06200	1
AT5g06210	1
AT5g06220	1
AT5g06230	-1
AT5g06240	1
AT5g06250	-1
AT5g06260	-1
AT5g06270	1
AT5g06280	-1
AT5g06290	1
AT5g06300	-1
AT5g06310	1
AT5g06320	-1
AT5g06330	-1
AT5g06340	1
AT5g06350	1
AT5g06360	1
AT5g06370	-1
AT5g06380	1
AT5g06390	1
AT5g06400	1
AT5g06410	-1
AT5g06420	1
AT5g06430	-1
AT5g06440	-1
AT5g06450	-1
AT5g06460	1
AT5g06470	-1
AT5g06480	-1
AT5g06490	-1
AT5g06500	1
AT5g06510	1
AT5g06520	-1
AT5g06530	-1
AT5g06540	-1
AT5g06550	-1
AT5g06560	-1
AT5g06570	-1
AT5g06580	-1
AT5g06590	1
AT5g06600	-1
AT5g06610	1
AT5g06620	1
AT5g06630	-1
AT5g06640	-1
AT5g06650	1
AT5g06660	1
AT5g06670	-1
AT5g06680	1
AT5g06690	-1
AT5g06700	1
AT5g06710	-1
AT5g06720	-1
AT5g06730	-1
AT5g06740	1
AT5g06750	-1
AT5g06760	-1
AT5g06770	-1
AT5g06780	-1
AT5g06790	-1
AT5g06800	1
AT5g06810	1
AT5g06820	1
AT5g06830	-1
AT5g06840	1
AT5g06850	-1
AT5g06860	1
AT5g06870	1
AT5g06890	1
AT5g06900	-1
AT5g06905	-1
AT5g06910	1
AT5g06920	1
AT5g06930	1
AT5g06940	-1
AT5g06950	1
AT5g06960	1
AT5g06970	-1
AT5g06980	1
AT5g06990	1
AT5g07000	-1
AT5g07010	-1
AT5g07020	-1
AT5g07030	-1
AT5g07040	1
AT5g07050	-1
AT5g07060	-1
AT5g07070	-1
AT5g07080	1
AT5g07090	1
AT5g07100	1
AT5g07110	1
AT5g07120	-1
AT5g07130	1
AT5g07140	1
AT5g07150	1
AT5g07160	-1
AT5g07170	1
AT5g07180	-1
AT5g07190	1
AT5g07200	-1
AT5g07210	1
AT5g07220	-1
AT5g07230	1
AT5g07240	1
AT5g07250	-1
AT5g07260	1
AT5g07270	1
AT5g07280	1
AT5g07290	1
AT5g07300	1
AT5g07310	1
AT5g07320	1
AT5g07330	1
AT5g07340	1
AT5g07350	-1
AT5g07360	-1
AT5g07370	1
AT5g07380	1
AT5g07390	-1
AT5g07400	1
AT5g07410	1
AT5g07420	1
AT5g07430	1
AT5g07440	1
AT5g07450	-1
AT5g07460	-1
AT5g07470	-1
AT5g07480	1
AT5g07490	1
AT5g07500	1
AT5g07510	-1
AT5g07520	-1
AT5g07530	-1
AT5g07540	-1
AT5g07550	-1
AT5g07560	-1
AT5g07570	1
AT5g07580	1
AT5g07590	-1
AT5g07600	-1
AT5g07610	1
AT5g07620	-1
AT5g07630	1
AT5g07640	1
AT5g07650	-1
AT5g07660	1
AT5g07670	1
AT5g07680	1
AT5g07690	1
AT5g07700	1
AT5g07710	1
AT5g07720	1
AT5g07730	-1
AT5g07740	-1
AT5g07750	-1
AT5g07760	1
AT5g07770	1
AT5g07780	1
AT5g07790	1
AT5g07800	-1
AT5g07810	-1
AT5g07820	-1
AT5g07830	1
AT5g07840	-1
AT5g07850	1
AT5g07860	1
AT5g07870	1
AT5g07880	-1
AT5g07890	-1
AT5g07900	1
AT5g07910	-1
AT5g07920	-1
AT5g07930	1
AT5g07940	1
AT5g07950	-1
AT5g07960	1
AT5g07970	-1
AT5g07980	-1
AT5g07990	1
AT5g08000	1
AT5g08010	1
AT5g08020	1
AT5g08030	-1
AT5g08040	-1
AT5g08050	1
AT5g08060	1
AT5g08070	1
AT5g08080	1
AT5g08090	1
AT5g08100	-1
AT5g08110	-1
AT5g08120	-1
AT5g08130	-1
AT5g08140	1
AT5g08150	-1
AT5g08160	-1
AT5g08170	-1
AT5g08180	-1
AT5g08190	1
AT5g08200	1
AT5g08210	-1
AT5g08220	-1
AT5g08230	-1
AT5g08240	-1
AT5g08250	-1
AT5g08260	1
AT5g08270	1
AT5g08280	-1
AT5g08290	1
AT5g08300	1
AT5g08310	-1
AT5g08320	1
AT5g08330	1
AT5g08340	1
AT5g08350	-1
AT5g08360	1
AT5g08370	-1
AT5g08380	-1
AT5g08390	1
AT5g08400	-1
AT5g08410	-1
AT5g08420	1
AT5g08430	1
AT5g08440	1
AT5g08450	-1
AT5g08460	1
AT5g08470	1
AT5g08480	1
AT5g08490	-1
AT5g08500	1
AT5g08510	1
AT5g08520	-1
AT5g08530	-1
AT5g08540	1
AT5g08550	-1
AT5g08560	-1
AT5g08570	1
AT5g08580	-1
AT5g08590	1
AT5g08600	1
AT5g08610	1
AT5g08620	1
AT5g08630	-1
AT5g08640	1
AT5g08650	-1
AT5g09210	-1
AT5g09220	1
AT5g09230	1
AT5g09240	-1
AT5g09250	-1
AT5g09260	1
AT5g09270	1
AT5g09280	-1
AT5g09290	1
AT5g09300	-1
AT5g09310	-1
AT5g09320	-1
AT5g09330	-1
AT5g09340	-1
AT5g09350	-1
AT5g09360	-1
AT5g09370	-1
AT5g09380	-1
AT5g09390	1
AT5g09400	1
AT5g09410	1
AT5g09420	1
AT5g09430	1
AT5g09440	1
AT5g09450	1
AT5g09460	-1
AT5g09470	-1
AT5g09480	-1
AT5g09490	-1
AT5g09500	-1
AT5g09510	-1
AT5g09520	-1
AT5g09530	-1
AT5g09540	-1
AT5g09550	1
AT5g09560	1
AT5g09570	1
AT5g09580	1
AT5g09590	1
AT5g09600	1
AT5g09610	1
AT5g09620	-1
AT5g09630	-1
AT5g09640	1
AT5g09650	-1
AT5g09660	-1
AT5g09670	-1
AT5g09680	-1
AT5g09690	-1
AT5g09700	-1
AT5g09710	-1
AT5g09720	-1
AT5g09730	-1
AT5g09740	-1
AT5g09750	-1
AT5g09760	1
AT5g09770	-1
AT5g09780	-1
AT5g09790	-1
AT5g09800	-1
AT5g09810	1
AT5g09820	-1
AT5g09830	-1
AT5g09840	1
AT5g09850	-1
AT5g09860	1
AT5g09870	1
AT5g09880	-1
AT5g09890	-1
AT5g09900	-1
AT5g09910	1
AT5g09920	1
AT5g09930	-1
AT5g09940	1
AT5g09950	-1
AT5g09960	1
AT5g09970	1
AT5g09980	1
AT5g09990	1
AT5g10000	1
AT5g10010	1
AT5g10020	1
AT5g10030	-1
AT5g10040	1
AT5g10050	1
AT5g10060	-1
AT5g10070	-1
AT5g10080	1
AT5g10090	-1
AT5g10100	1
AT5g10110	-1
AT5g10120	1
AT5g10130	-1
AT5g10140	-1
AT5g10150	-1
AT5g10160	1
AT5g10170	-1
AT5g10180	1
AT5g10190	1
AT5g10200	1
AT5g10210	1
AT5g10220	-1
AT5g10230	-1
AT5g10240	-1
AT5g10250	-1
AT5g10260	1
AT5g10270	-1
AT5g10280	1
AT5g10290	-1
AT5g10300	1
AT5g10310	-1
AT5g10320	-1
AT5g10330	-1
AT5g10340	1
AT5g10350	-1
AT5g10360	-1
AT5g10370	1
AT5g10380	1
AT5g10390	-1
AT5g10400	-1
AT5g10410	1
AT5g10420	-1
AT5g10430	-1
AT5g10440	-1
AT5g10450	-1
AT5g10460	1
AT5g10470	-1
AT5g10480	-1
AT5g10490	-1
AT5g10500	1
AT5g10510	1
AT5g10520	-1
AT5g10530	-1
AT5g10540	1
AT5g10550	-1
AT5g10560	-1
AT5g10570	1
AT5g10580	1
AT5g10590	-1
AT5g10600	1
AT5g10610	1
AT5g10620	-1
AT5g10640	1
AT5g10630	1
AT5g10650	-1
AT5g10660	1
AT5g10670	-1
AT5g10680	1
AT5g10690	-1
AT5g10700	-1
AT5g10710	1
AT5g10720	1
AT5g10730	-1
AT5g10740	-1
AT5g10750	1
AT5g10760	-1
AT5g10770	-1
AT5g10780	1
AT5g10790	1
AT5g10800	-1
AT5g10810	-1
AT5g10820	-1
AT5g10830	1
AT5g10840	-1
AT5g10850	1
AT5g10860	-1
AT5g10870	-1
AT5g10880	1
AT5g10890	-1
AT5g10900	-1
AT5g10910	1
AT5g10920	1
AT5g10930	-1
AT5g10940	-1
AT5g10950	-1
AT5g10960	1
AT5g10970	1
AT5g10980	-1
AT5g10990	1
AT5g11000	-1
AT5g11010	1
AT5g11020	-1
AT5g11030	-1
AT5g11040	1
AT5g11050	1
AT5g11060	1
AT5g11070	-1
AT5g11080	-1
AT5g11090	1
AT5g11100	1
AT5g11110	1
AT5g11120	1
AT5g11130	1
AT5g11140	1
AT5g11150	-1
AT5g11160	1
AT5g11170	1
AT5g11180	-1
AT5g11190	1
AT5g11200	1
AT5g11210	-1
AT5g11220	1
AT5g11230	1
AT5g11240	1
AT5g11250	-1
AT5g11260	-1
AT5g11270	-1
AT5g11280	1
AT5g11290	1
AT5g11300	-1
AT5g11310	1
AT5g11320	-1
AT5g11330	-1
AT5g11340	1
AT5g11360	-1
AT5g11370	1
AT5g11380	1
AT5g11390	1
AT5g11400	-1
AT5g11410	-1
AT5g11420	1
AT5g11430	1
AT5g11440	-1
AT5g11450	1
AT5g11460	-1
AT5g11470	-1
AT5g11480	-1
AT5g11490	1
AT5g11500	1
AT5g11510	1
AT5g11520	-1
AT5g11530	1
AT5g11540	-1
AT5g11550	-1
AT5g11560	-1
AT5g11570	-1
AT5g11580	1
AT5g11590	-1
AT5g11600	-1
AT5g11610	-1
AT5g11620	-1
AT5g11630	1
AT5g11640	1
AT5g11650	1
AT5g11660	1
AT5g11670	1
AT5g11680	1
AT5g11690	1
AT5g11700	-1
AT5g11710	1
AT5g11720	1
AT5g11730	1
AT5g11740	1
AT5g11750	1
AT5g11760	1
AT5g11770	-1
AT5g11780	1
AT5g11790	1
AT5g11800	-1
AT5g11810	1
AT5g11820	-1
AT5g11830	-1
AT5g11840	-1
AT5g11850	-1
AT5g11860	-1
AT5g11870	1
AT5g11880	-1
AT5g11890	1
AT5g11900	1
AT5g11910	-1
AT5g11920	1
AT5g11930	-1
AT5g11940	1
AT5g11950	1
AT5g11960	-1
AT5g11970	-1
AT5g11980	-1
AT5g11990	-1
AT5g12000	-1
AT5g12010	-1
AT5g12020	-1
AT5g12030	-1
AT5g12040	1
AT5g12050	1
AT5g12060	-1
AT5g12070	-1
AT5g12080	-1
AT5g12090	1
AT5g12100	1
AT5g12110	1
AT5g12120	-1
AT5g12130	1
AT5g12140	-1
AT5g12150	-1
AT5g12160	1
AT5g12170	1
AT5g12180	1
AT5g12190	-1
AT5g12200	-1
AT5g12210	1
AT5g12220	1
AT5g12230	-1
AT5g12240	-1
AT5g12250	-1
AT5g12260	1
AT5g12840	-1
AT5g12850	1
AT5g12860	-1
AT5g12870	-1
AT5g12880	-1
AT5g12890	-1
AT5g12900	-1
AT5g12910	1
AT5g12920	-1
AT5g12930	-1
AT5g12940	1
AT5g12950	1
AT5g12960	1
AT5g12970	1
AT5g12980	-1
AT5g12990	-1
AT5g13000	-1
AT5g13010	1
AT5g13020	-1
AT5g13030	1
AT5g13040	1
AT5g13050	-1
AT5g13060	1
AT5g13070	1
AT5g13080	-1
AT5g13090	-1
AT5g13100	1
AT5g13110	1
AT5g13120	-1
AT5g13130	1
AT5g13140	-1
AT5g13150	-1
AT5g13160	1
AT5g13170	-1
AT5g13180	1
AT5g13190	-1
AT5g13200	1
AT5g13210	1
AT5g13220	1
AT5g13230	1
AT5g13250	1
AT5g13260	1
AT5g13270	-1
AT5g13280	1
AT5g13290	-1
AT5g13300	-1
AT5g13310	1
AT5g13320	1
AT5g13330	1
AT5g13340	-1
AT5g13350	1
AT5g13360	1
AT5g13370	1
AT5g13380	1
AT5g13390	1
AT5g13400	-1
AT5g13410	-1
AT5g13420	-1
AT5g13430	-1
AT5g13440	-1
AT5g13450	-1
AT5g13460	1
AT5g13470	1
AT5g13480	-1
AT5g13490	1
AT5g13500	1
AT5g13510	1
AT5g13520	-1
AT5g13530	1
AT5g13540	1
AT5g13550	-1
AT5g13560	-1
AT5g13570	1
AT5g13580	1
AT5g13590	-1
AT5g13600	1
AT5g13610	1
AT5g13620	-1
AT5g13630	-1
AT5g13640	1
AT5g13650	1
AT5g13660	1
AT5g13670	-1
AT5g13680	-1
AT5g13690	1
AT5g13700	-1
AT5g13710	-1
AT5g13720	1
AT5g13730	-1
AT5g13740	1
AT5g13750	1
AT5g13760	1
AT5g13770	1
AT5g13780	-1
AT5g13790	-1
AT5g13800	-1
AT5g13810	1
AT5g13820	1
AT5g13830	1
AT5g13840	-1
AT5g13850	1
AT5g13860	-1
AT5g13870	-1
AT5g13880	-1
AT5g13890	-1
AT5g13900	-1
AT5g13910	-1
AT5g13920	-1
AT5g13930	1
AT5g13940	-1
AT5g13950	-1
AT5g13960	1
AT5g13970	-1
AT5g13980	1
AT5g13990	-1
AT5g14000	1
AT5g14010	1
AT5g14020	-1
AT5g14030	1
AT5g14040	-1
AT5g14050	1
AT5g14060	1
AT5g14070	1
AT5g14080	-1
AT5g14090	1
AT5g14100	-1
AT5g14110	-1
AT5g14120	1
AT5g14130	-1
AT5g14140	1
AT5g14150	-1
AT5g14160	1
AT5g14170	-1
AT5g14180	-1
AT5g14190	-1
AT5g14200	1
AT5g14210	-1
AT5g14220	-1
AT5g14230	1
AT5g14240	-1
AT5g14250	1
AT5g14260	1
AT5g14270	1
AT5g14280	1
AT5g14290	-1
AT5g14300	1
AT5g14310	1
AT5g14320	-1
AT5g14330	-1
AT5g14340	1
AT5g14350	-1
AT5g14360	1
AT5g14370	-1
AT5g14380	-1
AT5g14390	-1
AT5g14400	1
AT5g14410	-1
AT5g14420	-1
AT5g14430	1
AT5g14440	-1
AT5g14450	1
AT5g14460	-1
AT5g14470	-1
AT5g14480	1
AT5g14490	-1
AT5g14500	-1
AT5g14510	-1
AT5g14520	-1
AT5g14530	-1
AT5g14540	-1
AT5g14550	-1
AT5g14560	1
AT5g14570	-1
AT5g14580	-1
AT5g14590	-1
AT5g14600	1
AT5g14610	1
AT5g14620	-1
AT5g14630	-1
AT5g14640	-1
AT5g14650	1
AT5g14660	-1
AT5g14670	1
AT5g14680	-1
AT5g14690	-1
AT5g14700	-1
AT5g14710	1
AT5g14720	-1
AT5g14730	1
AT5g14740	1
AT5g14750	-1
AT5g14760	1
AT5g14770	-1
AT5g14780	1
AT5g14790	1
AT5g14800	-1
AT5g14810	1
AT5g14820	-1
AT5g14830	1
AT5g14840	-1
AT5g14850	-1
AT5g14860	1
AT5g14870	-1
AT5g14880	1
AT5g14890	1
AT5g14900	-1
AT5g14910	1
AT5g14920	1
AT5g14930	1
AT5g14940	-1
AT5g14950	-1
AT5g14960	1
AT5g14970	1
AT5g14980	1
AT5g14990	1
AT5g15000	1
AT5g15010	1
AT5g15020	-1
AT5g15030	-1
AT5g15040	-1
AT5g15050	-1
AT5g15060	-1
AT5g15070	1
AT5g15080	1
AT5g15090	-1
AT5g15100	-1
AT5g15110	1
AT5g15120	1
AT5g15130	1
AT5g15140	1
AT5g15150	-1
AT5g15160	-1
AT5g15170	-1
AT5g15180	1
AT5g15190	-1
AT5g15200	-1
AT5g15210	-1
AT5g15220	-1
AT5g15230	1
AT5g15240	1
AT5g15250	-1
AT5g15260	-1
AT5g15270	1
AT5g15280	1
AT5g15290	1
AT5g15300	-1
AT5g15310	1
AT5g15320	1
AT5g15330	1
AT5g15340	-1
AT5g15350	-1
AT5g15360	-1
AT5g15370	1
AT5g15380	1
AT5g15390	1
AT5g15400	-1
AT5g15410	-1
AT5g15420	-1
AT5g15430	1
AT5g15440	1
AT5g15450	-1
AT5g15460	-1
AT5g15470	-1
AT5g15480	-1
AT5g15490	-1
AT5g15500	-1
AT5g15510	1
AT5g15520	-1
AT5g15530	1
AT5g15540	-1
AT5g15550	-1
AT5g15560	1
AT5g15570	1
AT5g15580	-1
AT5g15590	1
AT5g15600	1
AT5g15610	1
AT5g15620	1
AT5g15630	1
AT5g15640	1
AT5g15650	1
AT5g15660	1
AT5g15670	1
AT5g15680	-1
AT5g15690	-1
AT5g15700	-1
AT5g15710	1
AT5g15720	-1
AT5g15730	1
AT5g15740	-1
AT5g15750	1
AT5g15760	1
AT5g15770	-1
AT5g15780	-1
AT5g15790	1
AT5g15800	-1
AT5g15810	1
AT5g15820	1
AT5g15830	1
AT5g15840	-1
AT5g15850	-1
AT5g15860	-1
AT5g15870	-1
AT5g15880	1
AT5g15890	-1
AT5g15900	-1
AT5g15910	1
AT5g15920	1
AT5g15930	1
AT5g15940	1
AT5g15950	1
AT5g15960	1
AT5g15970	1
AT5g15980	1
AT5g15990	1
AT5g16000	1
AT5g16010	1
AT5g16020	1
AT5g16030	1
AT5g16040	-1
AT5g16050	-1
AT5g16060	1
AT5g16070	-1
AT5g16080	-1
AT5g16090	-1
AT5g16100	-1
AT5g16110	-1
AT5g16120	1
AT5g16130	1
AT5g16140	-1
AT5g16150	1
AT5g16160	-1
AT5g16170	1
AT5g16180	1
AT5g16190	-1
AT5g16200	-1
AT5g16210	-1
AT5g16220	-1
AT5g16230	1
AT5g16240	1
AT5g16250	-1
AT5g16260	1
AT5g16270	1
AT5g16280	-1
AT5g16290	1
AT5g16300	1
AT5g16310	-1
AT5g16320	1
AT5g16330	-1
AT5g16340	-1
AT5g16350	1
AT5g16360	-1
AT5g16370	-1
AT5g16380	-1
AT5g16390	-1
AT5g16400	-1
AT5g16410	-1
AT5g16420	1
AT5g16430	1
AT5g16440	1
AT5g16450	1
AT5g16460	-1
AT5g16470	1
AT5g16480	-1
AT5g16490	-1
AT5g16500	-1
AT5g16510	1
AT5g16520	-1
AT5g16530	1
AT5g16540	1
AT5g16550	1
AT5g16560	-1
AT5g16570	-1
AT5g16580	-1
AT5g16590	1
AT5g16600	1
AT5g16610	-1
AT5g16620	1
AT5g16630	1
AT5g16640	1
AT5g16650	-1
AT5g16660	-1
AT5g16670	-1
AT5g16680	-1
AT5g16690	1
AT5g16700	1
AT5g16710	1
AT5g16720	1
AT5g16730	1
AT5g16740	-1
AT5g16750	-1
AT5g16760	1
AT5g16770	1
AT5g16780	-1
AT5g16790	-1
AT5g16800	-1
AT5g16810	-1
AT5g16820	1
AT5g16830	-1
AT5g16840	1
AT5g16850	-1
AT5g16860	1
AT5g16870	-1
AT5g16880	1
AT5g16890	1
AT5g16900	1
AT5g16910	1
AT5g16920	1
AT5g16930	1
AT5g16940	-1
AT5g16950	1
AT5g16960	-1
AT5g16970	-1
AT5g16980	-1
AT5g16990	-1
AT5g17000	-1
AT5g17010	-1
AT5g17020	1
AT5g17030	-1
AT5g17040	-1
AT5g17050	-1
AT5g17060	1
AT5g17070	-1
AT5g17080	1
AT5g17090	-1
AT5g17100	-1
AT5g17110	-1
AT5g17120	-1
AT5g17130	1
AT5g17140	1
AT5g17150	-1
AT5g17160	-1
AT5g17170	1
AT5g17180	1
AT5g17190	1
AT5g17200	-1
AT5g17210	1
AT5g17220	1
AT5g17230	-1
AT5g17240	1
AT5g17250	-1
AT5g17260	-1
AT5g17270	1
AT5g17280	1
AT5g17290	-1
AT5g17300	-1
AT5g17310	-1
AT5g17320	-1
AT5g17330	1
AT5g17340	-1
AT5g17350	1
AT5g17360	1
AT5g17370	-1
AT5g17380	-1
AT5g17390	1
AT5g17400	-1
AT5g17410	1
AT5g17420	-1
AT5g17430	-1
AT5g17440	1
AT5g17450	1
AT5g17460	-1
AT5g17470	-1
AT5g17480	1
AT5g17490	-1
AT5g17500	1
AT5g17510	-1
AT5g17520	-1
AT5g17530	1
AT5g17540	-1
AT5g17550	-1
AT5g17560	1
AT5g17570	1
AT5g17580	1
AT5g17590	-1
AT5g17600	-1
AT5g17610	1
AT5g17620	-1
AT5g17630	1
AT5g17640	-1
AT5g17650	-1
AT5g17660	-1
AT5g17670	1
AT5g17680	1
AT5g17690	-1
AT5g17700	-1
AT5g17710	-1
AT5g17720	1
AT5g17730	-1
AT5g17740	-1
AT5g17750	-1
AT5g17760	-1
AT5g17770	-1
AT5g17780	-1
AT5g17790	-1
AT5g17800	1
AT5g17810	-1
AT5g17820	-1
AT5g17830	1
AT5g17840	-1
AT5g17850	1
AT5g17860	-1
AT5g17870	1
AT5g17880	-1
AT5g17890	1
AT5g17900	1
AT5g17910	1
AT5g17920	1
AT5g17930	-1
AT5g17940	-1
AT5g17950	-1
AT5g17960	-1
AT5g17970	-1
AT5g17980	1
AT5g17990	1
AT5g18000	-1
AT5g18010	-1
AT5g18020	-1
AT5g18030	1
AT5g18040	1
AT5g18050	-1
AT5g18060	1
AT5g18070	1
AT5g18080	1
AT5g18090	1
AT5g18100	1
AT5g18110	-1
AT5g18120	1
AT5g18130	1
AT5g18140	1
AT5g18150	-1
AT5g18160	1
AT5g18170	1
AT5g18180	-1
AT5g18190	-1
AT5g18200	1
AT5g18210	1
AT5g18220	-1
AT5g18230	-1
AT5g18240	-1
AT5g18250	1
AT5g18260	-1
AT5g18270	-1
AT5g18280	-1
AT5g18290	-1
AT5g18300	1
AT5g18310	1
AT5g18320	-1
AT5g18330	-1
AT5g18340	-1
AT5g18350	-1
AT5g18360	-1
AT5g18370	-1
AT5g18380	-1
AT5g18390	1
AT5g18400	-1
AT5g18410	-1
AT5g18420	-1
AT5g18430	-1
AT5g18440	1
AT5g18450	-1
AT5g18460	1
AT5g18470	1
AT5g18480	-1
AT5g18490	-1
AT5g18500	1
AT5g18510	-1
AT5g18520	1
AT5g18530	-1
AT5g18540	1
AT5g18550	1
AT5g18560	-1
AT5g18570	-1
AT5g18580	1
AT5g18590	-1
AT5g18600	-1
AT5g18610	1
AT5g18620	-1
AT5g18630	1
AT5g18640	1
AT5g18650	1
AT5g18660	-1
AT5g18670	1
AT5g18680	-1
AT5g18690	-1
AT5g18700	-1
AT5g18710	1
AT5g18720	1
AT5g18730	1
AT5g18740	1
AT5g18750	1
AT5g18760	-1
AT5g18770	1
AT5g18780	1
AT5g18790	-1
AT5g18800	1
AT5g18810	-1
AT5g18820	1
AT5g18830	1
AT5g18840	1
AT5g18850	1
AT5g18860	1
AT5g18870	1
AT5g18880	-1
AT5g18890	1
AT5g18900	-1
AT5g18910	-1
AT5g18920	1
AT5g18930	-1
AT5g18940	1
AT5g18950	-1
AT5g18960	1
AT5g18970	-1
AT5g18980	-1
AT5g18990	1
AT5g19000	1
AT5g19010	-1
AT5g19020	-1
AT5g19030	-1
AT5g19040	-1
AT5g19050	1
AT5g19060	1
AT5g19070	1
AT5g19080	1
AT5g19090	1
AT5g19100	-1
AT5g19110	-1
AT5g19120	1
AT5g19130	-1
AT5g19140	1
AT5g19150	-1
AT5g19160	1
AT5g19170	1
AT5g19180	1
AT5g19190	1
AT5g19200	1
AT5g19210	1
AT5g19220	-1
AT5g19230	1
AT5g19240	1
AT5g19250	1
AT5g19260	-1
AT5g19270	-1
AT5g19280	1
AT5g19290	1
AT5g19300	1
AT5g19310	1
AT5g19320	-1
AT5g19330	-1
AT5g19340	-1
AT5g19350	1
AT5g19360	-1
AT5g19370	-1
AT5g19380	-1
AT5g19390	1
AT5g19400	1
AT5g19410	-1
AT5g19420	-1
AT5g19430	1
AT5g19440	1
AT5g19450	-1
AT5g19460	1
AT5g19470	1
AT5g19480	1
AT5g19490	-1
AT5g19500	1
AT5g19510	-1
AT5g19520	1
AT5g19530	-1
AT5g19540	1
AT5g19550	1
AT5g19560	1
AT5g19570	1
AT5g19580	-1
AT5g19590	-1
AT5g19600	-1
AT5g19610	-1
AT5g19620	1
AT5g19630	-1
AT5g19640	1
AT5g19650	-1
AT5g19660	-1
AT5g19670	1
AT5g19680	1
AT5g19690	1
AT5g19700	-1
AT5g19710	-1
AT5g19720	1
AT5g19730	1
AT5g19740	1
AT5g19750	1
AT5g19760	-1
AT5g19770	-1
AT5g19780	1
AT5g19790	-1
AT5g19800	1
AT5g19810	1
AT5g19820	-1
AT5g19830	1
AT5g19840	1
AT5g19850	-1
AT5g19860	-1
AT5g19870	-1
AT5g19880	-1
AT5g19890	-1
AT5g19900	-1
AT5g19910	-1
AT5g19920	-1
AT5g19930	-1
AT5g19940	1
AT5g19950	-1
AT5g19960	1
AT5g19970	1
AT5g19980	-1
AT5g19990	1
AT5g20000	1
AT5g20010	1
AT5g20020	1
AT5g20030	-1
AT5g20040	-1
AT5g20050	1
AT5g20060	1
AT5g20070	1
AT5g20080	1
AT5g20090	-1
AT5g20100	1
AT5g20110	-1
AT5g20120	1
AT5g20130	1
AT5g20140	-1
AT5g20150	1
AT5g20160	-1
AT5g20170	-1
AT5g20180	1
AT5g20190	1
AT5g20200	1
AT5g20210	-1
AT5g20220	1
AT5g20230	1
AT5g20240	1
AT5g20250	1
AT5g20260	-1
AT5g20270	-1
AT5g20280	-1
AT5g20290	-1
AT5g20300	-1
AT5g20310	1
AT5g20320	-1
AT5g20330	1
AT5g20340	1
AT5g20350	1
AT5g20360	-1
AT5g20370	-1
AT5g20380	-1
AT5g20390	-1
AT5g20400	1
AT5g20410	1
AT5g20420	-1
AT5g20430	1
AT5g20440	1
AT5g20450	-1
AT5g20460	1
AT5g20470	-1
AT5g20480	1
AT5g20490	-1
AT5g20500	1
AT5g20510	-1
AT5g20520	-1
AT5g20530	1
AT5g20540	1
AT5g20550	-1
AT5g20560	1
AT5g20570	-1
AT5g20580	-1
AT5g20590	1
AT5g20600	-1
AT5g20610	1
AT5g20620	-1
AT5g20630	-1
AT5g20640	1
AT5g20650	-1
AT5g20660	1
AT5g20670	-1
AT5g20680	1
AT5g20690	1
AT5g20700	-1
AT5g20710	1
AT5g20720	1
AT5g20730	-1
AT5g20740	-1
AT5g20750	1
AT5g20760	1
AT5g20770	-1
AT5g20780	-1
AT5g20790	-1
AT5g20800	1
AT5g20810	1
AT5g20820	-1
AT5g20830	-1
AT5g20840	-1
AT5g20850	-1
AT5g20860	-1
AT5g20870	-1
AT5g20880	-1
AT5g20890	-1
AT5g20900	1
AT5g20910	-1
AT5g20920	-1
AT5g20930	1
AT5g20940	-1
AT5g20950	-1
AT5g20960	1
AT5g20970	1
AT5g20980	-1
AT5g20990	-1
AT5g21000	1
AT5g21010	1
AT5g21020	-1
AT5g21030	-1
AT5g21040	-1
AT5g21050	1
AT5g21060	-1
AT5g21070	1
AT5g21080	-1
AT5g21090	1
AT5g21100	1
AT5g21110	1
AT5g21120	1
AT5g21130	1
AT5g21140	-1
AT5g21150	1
AT5g21160	-1
AT5g21170	1
AT5g22240	1
AT5g22250	-1
AT5g22260	-1
AT5g22270	-1
AT5g22280	-1
AT5g22290	-1
AT5g22300	1
AT5g22310	-1
AT5g22320	-1
AT5g22330	-1
AT5g22340	1
AT5g22350	-1
AT5g22360	-1
AT5g22370	1
AT5g22380	-1
AT5g22390	-1
AT5g22400	-1
AT5g22410	1
AT5g22420	1
AT5g22430	1
AT5g22440	-1
AT5g22450	-1
AT5g22460	-1
AT5g22470	1
AT5g22480	-1
AT5g22490	-1
AT5g22500	1
AT5g22510	-1
AT5g22520	1
AT5g22530	1
AT5g22540	-1
AT5g22550	-1
AT5g22560	-1
AT5g22570	-1
AT5g22580	1
AT5g22590	1
AT5g22600	1
AT5g22610	1
AT5g22620	-1
AT5g22630	1
AT5g22640	1
AT5g22650	1
AT5g22660	-1
AT5g22670	-1
AT5g22680	-1
AT5g22690	1
AT5g22700	-1
AT5g22710	-1
AT5g22720	-1
AT5g22730	-1
AT5g22740	-1
AT5g22750	-1
AT5g22760	1
AT5g22770	-1
AT5g22780	-1
AT5g22790	-1
AT5g22800	-1
AT5g22810	1
AT5g22820	-1
AT5g22830	1
AT5g22840	-1
AT5g22850	-1
AT5g22860	-1
AT5g22870	-1
AT5g22880	-1
AT5g22890	-1
AT5g22900	1
AT5g22910	-1
AT5g22920	1
AT5g22930	-1
AT5g22940	1
AT5g22950	1
AT5g22960	-1
AT5g22970	-1
AT5g22980	1
AT5g22990	-1
AT5g23000	1
AT5g23010	1
AT5g23020	1
AT5g23030	1
AT5g23040	-1
AT5g23050	-1
AT5g23060	-1
AT5g23070	1
AT5g23080	-1
AT5g23090	1
AT5g23100	1
AT5g23110	1
AT5g23120	1
AT5g23130	1
AT5g23140	1
AT5g23150	1
AT5g23160	-1
AT5g23170	-1
AT5g23180	1
AT5g23190	-1
AT5g23200	1
AT5g23210	1
AT5g23220	-1
AT5g23230	-1
AT5g23240	-1
AT5g23250	1
AT5g23260	1
AT5g23270	1
AT5g23280	1
AT5g23290	1
AT5g23300	-1
AT5g23310	1
AT5g23320	1
AT5g23330	1
AT5g23340	1
AT5g23350	-1
AT5g23360	1
AT5g23370	-1
AT5g23380	1
AT5g23390	-1
AT5g23400	1
AT5g23410	-1
AT5g23420	-1
AT5g23430	-1
AT5g23440	-1
AT5g23450	-1
AT5g23460	1
AT5g23470	1
AT5g23480	1
AT5g23490	1
AT5g23500	1
AT5g23510	1
AT5g23520	-1
AT5g23530	-1
AT5g23535	1
AT5g23540	1
AT5g23550	-1
AT5g23570	1
AT5g23575	1
AT5g23580	-1
AT5g23590	-1
AT5g23600	1
AT5g23610	-1
AT5g23630	-1
AT5g23640	-1
AT5g23650	1
AT5g23660	-1
AT5g23670	1
AT5g23680	-1
AT5g23690	1
AT5g23700	1
AT5g23710	-1
AT5g23720	1
AT5g23730	1
AT5g23740	-1
AT5g23750	-1
AT5g23760	-1
AT5g23770	-1
AT5g23780	-1
AT5g23790	-1
AT5g23800	-1
AT5g23810	1
AT5g23820	1
AT5g23830	1
AT5g23840	1
AT5g23850	1
AT5g23860	1
AT5g23870	-1
AT5g23880	1
AT5g23890	1
AT5g23900	-1
AT5g23910	1
AT5g23920	-1
AT5g23930	-1
AT5g23940	-1
AT5g23950	1
AT5g23960	1
AT5g23970	1
AT5g23980	-1
AT5g23990	-1
AT5g24000	-1
AT5g24010	1
AT5g24020	1
AT5g24030	-1
AT5g24040	-1
AT5g24050	-1
AT5g24060	-1
AT5g24070	-1
AT5g24080	-1
AT5g24090	-1
AT5g24100	1
AT5g24110	-1
AT5g24120	-1
AT5g24130	1
AT5g24140	-1
AT5g24150	-1
AT5g24160	-1
AT5g24170	-1
AT5g24180	1
AT5g24190	1
AT5g24200	1
AT5g24210	1
AT5g24220	1
AT5g24230	1
AT5g24240	-1
AT5g24250	-1
AT5g24260	-1
AT5g24270	-1
AT5g24280	-1
AT5g24290	-1
AT5g24300	1
AT5g24310	1
AT5g24320	-1
AT5g24330	-1
AT5g24340	1
AT5g24350	1
AT5g24360	1
AT5g24370	1
AT5g24380	1
AT5g24390	-1
AT5g24400	-1
AT5g24410	-1
AT5g24420	-1
AT5g24430	-1
AT5g24440	-1
AT5g24450	1
AT5g24460	1
AT5g24470	-1
AT5g24480	-1
AT5g24490	1
AT5g24500	-1
AT5g24510	-1
AT5g24520	-1
AT5g24530	1
AT5g24540	-1
AT5g24550	-1
AT5g24560	1
AT5g24570	-1
AT5g24580	-1
AT5g24590	-1
AT5g24600	-1
AT5g24610	1
AT5g24620	1
AT5g24630	-1
AT5g24640	1
AT5g24650	1
AT5g24660	-1
AT5g24670	1
AT5g24680	1
AT5g24690	-1
AT5g24700	-1
AT5g24710	-1
AT5g24720	-1
AT5g24730	-1
AT5g24740	-1
AT5g24750	-1
AT5g24760	-1
AT5g24770	-1
AT5g24780	-1
AT5g24790	1
AT5g24800	1
AT5g24810	-1
AT5g24820	1
AT5g24830	1
AT5g24840	-1
AT5g24850	-1
AT5g24860	1
AT5g24870	-1
AT5g24880	1
AT5g24890	-1
AT5g24900	-1
AT5g24910	-1
AT5g24920	1
AT5g24930	1
AT5g24940	-1
AT5g24950	-1
AT5g24960	-1
AT5g24970	-1
AT5g24980	1
AT5g24990	1
AT5g25000	-1
AT5g25010	1
AT5g25020	1
AT5g25030	-1
AT5g25040	1
AT5g25050	1
AT5g25060	-1
AT5g25070	-1
AT5g25080	1
AT5g25090	-1
AT5g25100	-1
AT5g25110	-1
AT5g25120	1
AT5g25130	1
AT5g25140	1
AT5g25150	1
AT5g25160	1
AT5g25170	1
AT5g25180	-1
AT5g25190	-1
AT5g25200	-1
AT5g25210	1
AT5g25220	1
AT5g25230	1
AT5g25240	-1
AT5g25250	1
AT5g25260	1
AT5g25270	-1
AT5g25280	1
AT5g25290	1
AT5g25300	1
AT5g25310	1
AT5g25320	-1
AT5g25330	1
AT5g25340	1
AT5g25350	-1
AT5g25360	-1
AT5g25370	-1
AT5g25380	1
AT5g25390	1
AT5g25400	1
AT5g25410	1
AT5g25420	-1
AT5g25430	1
AT5g25440	-1
AT5g25450	1
AT5g25460	1
AT5g25470	-1
AT5g25480	-1
AT5g25490	1
AT5g25500	1
AT5g25510	-1
AT5g25520	1
AT5g25530	-1
AT5g25540	-1
AT5g25550	1
AT5g25560	1
AT5g25570	1
AT5g25580	1
AT5g25590	-1
AT5g25600	-1
AT5g25610	-1
AT5g25620	-1
AT5g25630	1
AT5g25640	-1
AT5g25750	1
AT5g25760	1
AT5g25770	-1
AT5g25780	-1
AT5g25790	-1
AT5g25800	-1
AT5g25810	-1
AT5g25820	-1
AT5g25830	-1
AT5g25840	-1
AT5g25850	1
AT5g25860	-1
AT5g25870	-1
AT5g25880	1
AT5g25890	1
AT5g25900	1
AT5g25910	1
AT5g25920	-1
AT5g25930	1
AT5g25940	-1
AT5g25950	-1
AT5g25960	-1
AT5g25970	1
AT5g25980	1
AT5g25990	-1
AT5g26000	-1
AT5g26010	-1
AT5g26020	-1
AT5g26030	1
AT5g26040	-1
AT5g26050	-1
AT5g26060	-1
AT5g26070	1
AT5g26080	1
AT5g26090	-1
AT5g26100	-1
AT5g26110	-1
AT5g26120	-1
AT5g26130	-1
AT5g26140	1
AT5g26150	-1
AT5g26160	1
AT5g26170	-1
AT5g26180	1
AT5g26190	-1
AT5g26200	1
AT5g26210	-1
AT5g26220	-1
AT5g26230	-1
AT5g26240	1
AT5g26250	1
AT5g26260	1
AT5g26270	1
AT5g26280	1
AT5g26290	1
AT5g26300	1
AT5g26310	1
AT5g26320	1
AT5g26330	-1
AT5g26340	-1
AT5g26350	-1
AT5g26360	-1
AT5g26570	1
AT5g26740	1
AT5g26730	1
AT5g26720	1
AT5g26710	1
AT5g26700	-1
AT5g26690	1
AT5g26680	-1
AT5g26670	1
AT5g26660	-1
AT5g26650	1
AT5g26640	-1
AT5g26630	1
AT5g26620	-1
AT5g26610	1
AT5g26600	1
AT5g26590	-1
AT5g26580	-1
AT5g26750	-1
AT5g26760	-1
AT5g26770	-1
AT5g26780	1
AT5g26790	1
AT5g26800	1
AT5g26810	1
AT5g26820	1
AT5g26830	1
AT5g26840	-1
AT5g26850	1
AT5g26860	1
AT5g26870	-1
AT5g26880	-1
AT5g26890	1
AT5g26900	1
AT5g26910	-1
AT5g26920	1
AT5g26930	1
AT5g26940	1
AT5g26950	-1
AT5g26960	-1
AT5g26970	-1
AT5g26980	-1
AT5g26990	1
AT5g27000	1
AT5g27010	-1
AT5g27020	1
AT5g27030	-1
AT5g27040	1
AT5g27050	1
AT5g27060	-1
AT5g27070	1
AT5g27080	-1
AT5g27090	1
AT5g27100	-1
AT5g27110	-1
AT5g27120	1
AT5g27130	1
AT5g27140	1
AT5g27150	1
AT5g27160	1
AT5g27170	1
AT5g27180	-1
AT5g27190	-1
AT5g27200	1
AT5g27210	-1
AT5g27220	1
AT5g27230	1
AT5g27240	1
AT5g27250	1
AT5g27260	1
AT5g27270	1
AT5g27280	1
AT5g27290	-1
AT5g27300	1
AT5g27310	1
AT5g27320	1
AT5g27330	-1
AT5g27340	1
AT5g27350	1
AT5g27360	1
AT5g27370	1
AT5g27380	-1
AT5g27390	-1
AT5g27400	1
AT5g27410	1
AT5g27420	1
AT5g27430	1
AT5g27440	-1
AT5g27450	1
AT5g27460	-1
AT5g27470	1
AT5g27480	1
AT5g27490	-1
AT5g27500	1
AT5g27510	1
AT5g27520	-1
AT5g27530	1
AT5g27540	1
AT5g27550	-1
AT5g27560	1
AT5g27570	-1
AT5g27580	1
AT5g27590	-1
AT5g27600	1
AT5g27610	1
AT5g27620	1
AT5g27630	1
AT5g27640	-1
AT5g27650	1
AT5g27660	-1
AT5g27670	-1
AT5g27680	-1
AT5g27690	1
AT5g27700	-1
AT5g27710	1
AT5g27720	1
AT5g27730	1
AT5g27740	1
AT5g27750	1
AT5g27760	1
AT5g27770	1
AT5g27780	-1
AT5g27790	-1
AT5g27800	1
AT5g27810	1
AT5g27820	1
AT5g27830	1
AT5g27840	-1
AT5g27850	1
AT5g27860	-1
AT5g27870	-1
AT5g27880	1
AT5g27890	1
AT5g27900	1
AT5g27910	-1
AT5g27920	-1
AT5g27930	-1
AT5g27940	1
AT5g27950	1
AT5g27960	-1
AT5g27970	1
AT5g27980	-1
AT5g27990	1
AT5g28000	1
AT5g28010	1
AT5g28020	-1
AT5g28030	-1
AT5g28040	-1
AT5g28050	-1
AT5g28060	-1
AT5g28070	1
AT5g28080	-1
AT5g28090	1
AT5g28100	1
AT5g28110	1
AT5g28120	1
AT5g28130	-1
AT5g28140	-1
AT5g28150	1
AT5g28160	1
AT5g28170	1
AT5g28180	1
AT5g28190	-1
AT5g28200	-1
AT5g28210	1
AT5g28220	-1
AT5g28230	-1
AT5g28240	1
AT5g28250	1
AT5g28260	-1
AT5g28270	-1
AT5g28280	1
AT5g28290	-1
AT5g28300	-1
AT5g28310	-1
AT5g28320	1
AT5g28330	1
AT5g28340	1
AT5g28350	1
AT5g28360	-1
AT5g28370	-1
AT5g28380	-1
AT5g28390	-1
AT5g28400	-1
AT5g28410	1
AT5g28420	1
AT5g28430	-1
AT5g28440	-1
AT5g28450	-1
AT5g28460	1
AT5g28470	1
AT5g28480	1
AT5g28490	-1
AT5g28500	1
AT5g28510	-1
AT5g28520	1
AT5g28530	-1
AT5g28540	-1
AT5g28550	-1
AT5g28560	1
AT5g28570	1
AT5g28580	1
AT5g28590	-1
AT5g28600	1
AT5g28610	1
AT5g28620	-1
AT5g28630	1
AT5g28640	-1
AT5g28650	-1
AT5g28660	1
AT5g28670	-1
AT5g28680	-1
AT5g28690	1
AT5g28700	-1
AT5g28710	-1
AT5g28720	1
AT5g28730	1
AT5g28740	1
AT5g28750	-1
AT5g28760	1
AT5g28770	-1
AT5g28780	-1
AT5g28790	1
AT5g28800	1
AT5g28810	1
AT5g28820	1
AT5g28830	1
AT5g28840	-1
AT5g28850	-1
AT5g28860	-1
AT5g28870	-1
AT5g28880	-1
AT5g28890	-1
AT5g28900	1
AT5g28910	-1
AT5g28920	-1
AT5g28930	1
AT5g28940	-1
AT5g28950	1
AT5g28960	1
AT5g28970	1
AT5g28980	1
AT5g28990	1
AT5g29000	-1
AT5g29010	-1
AT5g29020	1
AT5g29030	1
AT5g29040	-1
AT5g29050	1
AT5g29060	1
AT5g29070	-1
AT5g29080	-1
AT5g29090	1
AT5g29100	-1
AT5g29210	-1
AT5g30380	1
AT5g30390	1
AT5g30400	-1
AT5g30410	1
AT5g30420	-1
AT5g30430	-1
AT5g30440	-1
AT5g30450	1
AT5g30460	1
AT5g30470	1
AT5g30480	1
AT5g30490	1
AT5g30500	1
AT5g30510	-1
AT5g30520	-1
AT5g30545	-1
AT5g32400	-1
AT5g32410	-1
AT5g32420	1
AT5g32430	1
AT5g32440	1
AT5g32450	1
AT5g32460	-1
AT5g32470	-1
AT5g32480	1
AT5g32490	-1
AT5g32500	1
AT5g32510	1
AT5g32520	1
AT5g32530	1
AT5g32540	1
AT5g32550	-1
AT5g32560	1
AT5g32570	1
AT5g32580	1
AT5g32590	-1
AT5g32600	-1
AT5g32610	-1
AT5g32620	1
AT5g32630	-1
AT5g32640	-1
AT5g33200	-1
AT5g33210	-1
AT5g33220	1
AT5g33230	1
AT5g33240	-1
AT5g33250	1
AT5g33260	-1
AT5g33270	1
AT5g33280	1
AT5g33290	1
AT5g33300	-1
AT5g33310	-1
AT5g33320	1
AT5g33330	-1
AT5g33340	1
AT5g33350	1
AT5g33360	1
AT5g33370	-1
AT5g33380	1
AT5g33390	1
AT5g33400	-1
AT5g33410	-1
AT5g33420	-1
AT5g33430	1
AT5g33440	1
C345ECH54M	-1
W410ECH54M	1
AT5g34450	1
AT5g34460	1
AT5g34770	-1
AT5g34780	-1
AT5g34790	1
AT5g34800	1
AT5g34810	1
AT5g34820	-1
AT5g34830	1
AT5g34840	-1
AT5g34850	-1
AT5g34860	-1
AT5g34870	1
AT5g34880	1
AT5g34890	1
AT5g34900	-1
AT5g34910	1
AT5g34920	1
AT5g34930	1
AT5g34940	-1
AT5g34950	-1
AT5g34960	-1
AT5g34970	1
AT5g34980	1
AT5g34990	1
AT5g35000	1
AT5g35010	1
AT5g35020	1
AT5g35030	-1
AT5g35040	1
AT5g35050	-1
AT5g35060	1
AT5g35070	1
AT5g35080	-1
AT5g35090	1
AT5g35100	-1
AT5g35110	-1
AT5g35120	-1
AT5g35130	-1
AT5g35140	1
AT5g35150	1
AT5g35160	1
AT5g35170	1
AT5g35180	1
AT5g35190	1
AT5g35200	-1
AT5g35210	-1
AT5g35220	-1
AT5g35230	-1
AT5g35240	1
AT5g35250	1
AT5g35260	1
AT5g35270	1
AT5g35280	1
AT5g35290	-1
AT5g35300	1
AT5g35310	1
AT5g35320	1
AT5g35330	-1
AT5g35340	1
AT5g35350	1
AT5g35360	1
AT5g35370	-1
AT5g35380	-1
AT5g35390	1
AT5g35400	-1
AT5g35410	1
AT5g35420	-1
AT5g35430	1
AT5g35440	1
AT5g35450	1
AT5g35460	1
AT5g35470	-1
AT5g35480	-1
AT5g35490	1
AT5g35500	1
AT5g35510	1
AT5g35520	1
AT5g35530	-1
AT5g35540	1
AT5g35550	1
AT5g35560	-1
AT5g35570	-1
AT5g35580	1
AT5g35590	-1
AT5g35600	-1
AT5g35610	-1
AT5g35620	-1
AT5g35630	1
AT5g35640	1
AT5g35650	1
AT5g35660	-1
AT5g35670	1
AT5g35680	-1
AT5g35690	-1
AT5g35700	-1
AT5g35710	1
AT5g35730	1
AT5g35735	-1
AT5g35740	-1
AT5g35750	-1
AT5g35760	1
AT5g35770	-1
AT5g35780	1
AT5g35790	-1
AT5g35800	-1
AT5g35810	-1
AT5g35820	1
AT5g35830	-1
AT5g35840	1
AT5g35850	-1
AT5g35860	-1
AT5g35870	1
AT5g35880	-1
AT5g35890	-1
AT5g35900	1
AT5g35910	-1
AT5g35920	1
AT5g35930	-1
AT5g35940	1
AT5g35950	1
AT5g35960	-1
AT5g35970	-1
AT5g35980	1
AT5g35990	1
AT5g36000	1
AT5g36010	1
AT5g36020	1
AT5g36030	1
AT5g36040	1
AT5g36050	1
AT5g36060	1
AT5g36070	1
AT5g36080	1
AT5g36090	1
AT5g36100	-1
AT5g36110	1
AT5g36120	-1
AT5g36130	-1
AT5g36140	-1
AT5g36150	-1
AT5g36160	-1
AT5g36170	-1
AT5g36180	1
AT5g36190	-1
AT5g36200	-1
AT5g36210	-1
AT5g36220	-1
AT5g36230	1
AT5g36240	-1
AT5g36250	1
AT5g36260	-1
AT5g36270	1
AT5g36280	-1
AT5g36290	1
AT5g36300	1
AT5g36650	-1
AT5g36660	1
AT5g36670	1
AT5g36680	-1
AT5g36690	-1
AT5g36700	-1
AT5g36710	-1
AT5g36720	-1
AT5g36730	1
AT5g36740	1
AT5g36760	1
AT5g36770	-1
AT5g36780	-1
AT5g36790	-1
AT5g36800	-1
AT5g36810	-1
AT5g36820	1
AT5g36830	1
AT5g36840	-1
AT5g36850	-1
AT5g36860	-1
AT5g36870	1
AT5g36880	-1
AT5g36890	-1
AT5g36900	1
AT5g36910	-1
AT5g36920	-1
AT5g36930	-1
AT5g36940	1
AT5g36950	1
AT5g36960	1
AT5g36970	-1
AT5g36980	-1
AT5g36990	-1
AT5g37000	1
AT5g37010	-1
AT5g37020	1
AT5g37030	-1
AT5g37040	1
AT5g37050	-1
AT5g37060	-1
AT5g37070	1
AT5g37080	1
AT5g37090	1
AT5g37100	1
AT5g37110	1
AT5g37120	1
AT5g37130	1
AT5g37140	1
AT5g37150	1
AT5g37160	1
AT5g37170	1
AT5g37180	1
AT5g37190	-1
AT5g37200	1
AT5g37210	-1
AT5g37220	1
AT5g37230	1
AT5g37240	-1
AT5g37250	1
AT5g37260	-1
AT5g37270	-1
AT5g37280	-1
AT5g37290	1
AT5g37300	1
AT5g37310	-1
AT5g37320	1
AT5g37330	1
AT5g37340	-1
AT5g37350	1
AT5g37360	-1
AT5g37370	-1
AT5g37380	-1
AT5g37390	-1
AT5g37400	1
AT5g37410	1
AT5g37420	1
AT5g37430	1
AT5g37440	-1
AT5g37450	-1
AT5g37460	-1
AT5g37470	-1
AT5g37480	-1
AT5g37490	1
AT5g37500	-1
AT5g37510	1
AT5g37520	1
AT5g37530	1
AT5g37540	1
AT5g37550	-1
AT5g37560	1
AT5g37570	-1
AT5g37580	-1
AT5g37590	-1
AT5g37600	-1
AT5g37610	1
AT5g37620	-1
AT5g37630	1
AT5g37640	-1
AT5g37650	-1
AT5g37660	1
AT5g37670	1
AT5g37680	-1
AT5g37690	-1
AT5g37700	-1
AT5g37710	1
AT5g37720	-1
AT5g37730	-1
AT5g37740	1
AT5g37750	1
AT5g37760	1
AT5g37770	-1
AT5g37780	-1
AT5g37790	-1
AT5g37800	1
AT5g37810	1
AT5g37820	1
AT5g37830	-1
AT5g37840	-1
AT5g37850	1
AT5g37860	-1
AT5g37870	-1
AT5g37880	-1
AT5g37890	-1
AT5g37900	-1
AT5g37910	-1
AT5g37920	-1
AT5g37930	-1
AT5g37940	1
AT5g37950	1
AT5g37960	1
AT5g37970	-1
AT5g37980	1
AT5g37990	-1
AT5g38000	1
AT5g38010	1
AT5g38020	-1
AT5g38030	-1
AT5g38040	1
AT5g38050	1
AT5g38060	1
AT5g38070	1
AT5g38080	-1
AT5g38090	-1
AT5g38100	-1
AT5g38110	1
AT5g38120	1
AT5g38130	-1
AT5g38140	-1
AT5g38150	-1
AT5g38160	1
AT5g38170	1
AT5g38180	1
AT5g38190	1
AT5g38200	1
AT5g38210	1
AT5g38220	1
AT5g38230	1
AT5g38240	-1
AT5g38250	-1
AT5g38260	-1
AT5g38270	1
AT5g38280	-1
AT5g38290	1
AT5g38300	1
AT5g38310	-1
AT5g38320	-1
AT5g38330	1
AT5g38340	1
AT5g38350	1
AT5g38360	-1
AT5g38370	-1
AT5g38380	1
AT5g38390	1
AT5g38400	1
AT5g38410	-1
AT5g38420	-1
AT5g38430	-1
AT5g38440	1
AT5g38450	-1
AT5g38460	-1
AT5g38470	1
AT5g38480	1
AT5g38490	-1
AT5g38500	-1
AT5g38510	-1
AT5g38520	1
AT5g38530	1
AT5g38540	-1
AT5g38550	-1
AT5g38560	1
AT5g38570	-1
AT5g38580	-1
AT5g38590	-1
AT5g38600	1
AT5g38610	-1
AT5g38620	-1
AT5g38630	1
AT5g38640	-1
AT5g38650	-1
AT5g38660	-1
AT5g38670	1
AT5g38680	1
AT5g38690	-1
AT5g38700	1
AT5g38710	1
AT5g38720	-1
AT5g38730	1
AT5g38740	-1
AT5g38750	1
AT5g38760	1
AT5g38770	1
AT5g38780	1
AT5g38790	1
AT5g38800	-1
AT5g38810	-1
AT5g38820	1
AT5g38830	-1
AT5g38840	1
AT5g38850	1
AT5g38860	1
AT5g38870	1
AT5g38880	-1
AT5g38890	1
AT5g38900	-1
AT5g38910	1
AT5g38920	-1
AT5g38930	1
AT5g38940	1
AT5g38950	1
AT5g38960	1
AT5g38970	-1
AT5g38980	1
AT5g38990	1
AT5g39000	1
AT5g39010	1
AT5g39020	1
AT5g39030	1
AT5g39040	1
AT5g39050	1
AT5g39060	-1
AT5g39070	-1
AT5g39080	1
AT5g39090	1
AT5g39100	-1
AT5g39110	-1
AT5g39120	-1
AT5g39130	-1
AT5g39140	-1
AT5g39150	-1
AT5g39160	-1
AT5g39170	-1
AT5g39180	-1
AT5g39190	-1
AT5g39200	-1
AT5g39210	1
AT5g39220	1
AT5g39230	1
AT5g39240	-1
AT5g39250	1
AT5g39260	-1
AT5g39270	-1
AT5g39280	-1
AT5g39290	-1
AT5g39300	-1
AT5g39310	-1
AT5g39320	1
AT5g39330	1
AT5g39340	1
AT5g39350	1
AT5g39360	-1
AT5g39370	1
AT5g39380	-1
AT5g39390	-1
AT5g39400	1
AT5g39410	-1
AT5g39420	1
AT5g39430	-1
AT5g39440	1
AT5g39450	1
AT5g39460	-1
AT5g39470	-1
AT5g39480	-1
AT5g39490	-1
AT5g39500	1
AT5g39510	1
AT5g39520	-1
AT5g39530	-1
AT5g39540	-1
AT5g39550	-1
AT5g39560	-1
AT5g39570	1
AT5g39580	-1
AT5g39590	1
AT5g39600	-1
AT5g39610	-1
AT5g39620	-1
AT5g39630	1
AT5g39640	-1
AT5g39650	1
AT5g39660	1
AT5g39670	1
AT5g39680	-1
AT5g39690	1
AT5g39700	-1
AT5g39710	1
AT5g39720	1
AT5g39730	1
AT5g39740	1
AT5g39750	1
AT5g39760	1
AT5g39770	-1
AT5g39780	1
AT5g39790	-1
AT5g39800	1
AT5g39810	-1
AT5g39820	-1
AT5g39830	1
AT5g39840	1
AT5g39850	1
AT5g39860	1
AT5g39870	-1
AT5g39880	1
AT5g39890	1
AT5g39900	-1
AT5g39910	-1
AT5g39920	-1
AT5g39930	-1
AT5g39940	1
AT5g39950	-1
AT5g39960	1
AT5g39970	1
AT5g39980	-1
AT5g39990	1
AT5g40000	-1
AT5g40010	-1
AT5g40020	-1
AT5g40030	1
AT5g40040	-1
AT5g40050	-1
AT5g40060	1
AT5g40070	1
AT5g40080	-1
AT5g40090	-1
AT5g40100	1
AT5g40110	1
AT5g40120	1
AT5g40130	-1
AT5g40140	1
AT5g40150	-1
AT5g40160	-1
AT5g40170	-1
AT5g40180	1
AT5g40190	-1
AT5g40200	1
AT5g40210	-1
AT5g40220	-1
AT5g40230	-1
AT5g40240	-1
AT5g40250	1
AT5g40260	1
AT5g40270	-1
AT5g40280	1
AT5g40290	-1
AT5g40300	1
AT5g40310	-1
AT5g40320	1
AT5g40330	1
AT5g40340	-1
AT5g40350	-1
AT5g40360	1
AT5g40370	-1
AT5g40380	1
AT5g40390	1
AT5g40400	1
AT5g40410	1
AT5g40420	-1
AT5g40430	-1
AT5g40440	1
AT5g40450	-1
AT5g40460	1
AT5g40470	-1
AT5g40480	1
AT5g40490	1
AT5g40500	1
AT5g40510	1
AT5g40520	-1
AT5g40530	1
AT5g40540	1
AT5g40550	1
AT5g40560	1
AT5g40570	1
AT5g40580	-1
AT5g40590	-1
AT5g40600	-1
AT5g40610	-1
AT5g40620	1
AT5g40630	-1
AT5g40640	1
AT5g40650	1
AT5g40660	-1
AT5g40670	1
AT5g40680	1
AT5g40690	1
AT5g40700	-1
AT5g40710	1
AT5g40720	1
AT5g40730	1
AT5g40740	-1
AT5g40750	1
AT5g40760	1
AT5g40770	-1
AT5g40780	1
AT5g40790	-1
AT5g40800	-1
AT5g40810	1
AT5g40820	-1
AT5g40830	-1
AT5g40840	-1
AT5g40850	1
AT5g40860	1
AT5g40870	1
AT5g40880	1
AT5g40890	-1
AT5g40900	1
AT5g40910	1
AT5g40920	1
AT5g40930	1
AT5g40940	-1
AT5g40950	1
AT5g40960	-1
AT5g40970	1
AT5g40980	-1
AT5g40990	1
AT5g41000	1
AT5g41010	1
AT5g41020	-1
AT5g41030	1
AT5g41040	1
AT5g41050	-1
AT5g41060	1
AT5g41070	1
AT5g41080	1
AT5g41090	1
AT5g41100	1
AT5g41110	1
AT5g41120	-1
AT5g41130	-1
AT5g41140	1
AT5g41150	-1
AT5g41160	1
AT5g41170	-1
AT5g41180	1
AT5g41190	-1
AT5g41200	1
AT5g41210	-1
AT5g41220	-1
AT5g41230	-1
AT5g41240	-1
AT5g41250	-1
AT5g41260	1
AT5g41270	1
AT5g41280	1
AT5g41290	1
AT5g41300	1
AT5g41310	-1
AT5g41315	1
AT5g41320	1
AT5g41330	-1
AT5g41340	-1
AT5g41350	-1
AT5g41360	1
AT5g41370	1
AT5g41380	-1
AT5g41390	1
AT5g41400	-1
AT5g41410	1
AT5g41430	-1
AT5g41440	-1
AT5g41450	-1
AT5g41460	-1
AT5g41470	1
AT5g41480	1
AT5g41490	1
AT5g41500	1
AT5g41510	1
AT5g41520	-1
AT5g41530	1
AT5g41540	-1
AT5g41550	-1
AT5g41560	-1
AT5g41570	1
AT5g41580	-1
AT5g41590	-1
AT5g41600	1
AT5g41610	-1
AT5g41620	1
AT5g41630	1
AT5g41640	-1
AT5g41650	1
AT5g41660	1
AT5g41670	-1
AT5g41680	1
AT5g41690	-1
AT5g41700	1
AT5g41710	1
AT5g41720	-1
AT5g41730	-1
AT5g41740	1
AT5g41750	1
AT5g41760	1
AT5g41770	1
AT5g41780	1
AT5g41790	1
AT5g41800	1
AT5g41810	1
AT5g41820	1
AT5g41830	-1
AT5g41840	-1
AT5g41850	-1
AT5g41860	1
AT5g41870	-1
AT5g41880	1
AT5g41890	-1
AT5g41900	1
AT5g41910	-1
AT5g41920	1
AT5g41930	1
AT5g41940	1
AT5g41950	1
AT5g41960	1
AT5g41970	1
AT5g41980	1
AT5g41990	-1
AT5g42000	1
AT5g42010	1
AT5g42020	-1
AT5g42030	-1
AT5g42040	-1
AT5g42050	1
AT5g42060	-1
AT5g42070	-1
AT5g42080	-1
AT5g42090	1
AT5g42100	-1
AT5g42110	-1
AT5g42120	-1
AT5g42130	-1
AT5g42140	-1
AT5g42150	1
AT5g42160	1
AT5g42170	1
AT5g42180	1
AT5g42190	-1
AT5g42200	1
AT5g42210	1
AT5g42220	1
AT5g42230	1
AT5g42240	1
AT5g42250	1
AT5g42260	1
AT5g42270	1
AT5g42280	-1
AT5g42290	1
AT5g42300	-1
AT5g42310	1
AT5g42320	-1
AT5g42330	1
AT5g42340	-1
AT5g42350	1
AT5g42360	-1
AT5g42370	-1
AT5g42380	-1
AT5g42390	1
AT5g42400	-1
AT5g42410	1
AT5g42420	1
AT5g42430	-1
AT5g42440	-1
AT5g42450	1
AT5g42460	1
AT5g42470	1
AT5g42480	1
AT5g42490	-1
AT5g42500	-1
AT5g42510	-1
AT5g42520	1
AT5g42530	-1
AT5g42540	1
AT5g42550	1
AT5g42560	1
AT5g42570	-1
AT5g42580	-1
AT5g42590	-1
AT5g42600	1
AT5g42610	1
AT5g42620	1
AT5g42630	-1
AT5g42640	1
AT5g42650	-1
AT5g42660	-1
AT5g42670	1
AT5g42680	1
AT5g42690	-1
AT5g42700	1
AT5g42710	1
AT5g42720	1
AT5g42730	1
AT5g42740	1
AT5g42750	-1
AT5g42760	1
AT5g42770	1
AT5g42780	1
AT5g42790	-1
AT5g42800	-1
AT5g42810	1
AT5g42820	-1
AT5g42830	1
AT5g42840	1
AT5g42850	-1
AT5g42860	-1
AT5g42870	-1
AT5g42880	1
AT5g42890	-1
AT5g42900	-1
AT5g42910	1
AT5g42920	-1
AT5g42930	-1
AT5g42940	-1
AT5g42950	1
AT5g42960	1
AT5g42970	-1
AT5g42980	1
AT5g42990	-1
AT5g43000	-1
AT5g43010	-1
AT5g43020	-1
AT5g43030	-1
AT5g43040	-1
AT5g43050	1
AT5g43060	-1
AT5g43070	-1
AT5g43080	1
AT5g43090	1
AT5g43100	1
AT5g43110	1
AT5g43120	1
AT5g43130	-1
AT5g43140	1
AT5g43150	1
AT5g43160	1
AT5g43170	-1
AT5g43180	-1
AT5g43190	-1
AT5g43200	-1
AT5g43210	1
AT5g43220	1
AT5g43230	1
AT5g43240	-1
AT5g43250	-1
AT5g43260	-1
AT5g43270	-1
AT5g43280	1
AT5g43290	-1
AT5g43300	-1
AT5g43310	-1
AT5g43320	-1
AT5g43330	1
AT5g43340	-1
AT5g43350	-1
AT5g43360	1
AT5g43370	1
AT5g43380	-1
AT5g43390	-1
AT5g43400	-1
AT5g43410	-1
AT5g43420	1
AT5g43430	1
AT5g43440	-1
AT5g43450	-1
AT5g43460	1
AT5g43470	-1
AT5g43480	-1
AT5g43490	-1
AT5g43500	1
AT5g43510	1
AT5g43520	-1
AT5g43530	1
AT5g43540	1
AT5g43550	1
AT5g43560	1
AT5g43570	1
AT5g43580	-1
AT5g43590	-1
AT5g43600	1
AT5g43610	1
AT5g43620	1
AT5g43630	1
AT5g43640	1
AT5g43650	-1
AT5g43660	-1
AT5g43670	-1
AT5g43680	1
AT5g43690	1
AT5g43700	1
AT5g43710	-1
AT5g43720	-1
AT5g43730	1
AT5g43740	1
AT5g43750	-1
AT5g43760	1
AT5g43770	1
AT5g43780	-1
AT5g43790	-1
AT5g43800	1
AT5g43810	1
AT5g43820	1
AT5g43830	-1
AT5g43840	-1
AT5g43850	-1
AT5g43860	1
AT5g43870	-1
AT5g43880	-1
AT5g43890	-1
AT5g43900	-1
AT5g43910	-1
AT5g43920	1
AT5g43930	1
AT5g43940	1
AT5g43950	-1
AT5g43960	-1
AT5g43970	1
AT5g43980	-1
AT5g43990	1
AT5g44000	-1
AT5g44010	-1
AT5g44020	1
AT5g44030	1
AT5g44040	-1
AT5g44050	1
AT5g44060	1
AT5g44070	1
AT5g44080	-1
AT5g44090	-1
AT5g44100	-1
AT5g44110	-1
AT5g44120	-1
AT5g44130	1
AT5g44140	1
AT5g44150	-1
AT5g44160	1
AT5g44170	1
AT5g44180	1
AT5g44190	1
AT5g44200	-1
AT5g44210	1
AT5g44220	1
AT5g44230	1
AT5g44240	1
AT5g44250	-1
AT5g44260	-1
AT5g44270	1
AT5g44280	-1
AT5g44290	-1
AT5g44300	-1
AT5g44310	-1
AT5g44320	-1
AT5g44330	1
AT5g44340	-1
AT5g44350	1
AT5g44360	-1
AT5g44370	-1
AT5g44380	-1
AT5g44390	-1
AT5g44400	-1
AT5g44410	-1
AT5g44420	-1
AT5g44430	-1
AT5g44440	-1
AT5g44450	-1
AT5g44460	1
AT5g44470	1
AT5g44480	1
AT5g44490	1
AT5g44500	1
AT5g44510	-1
AT5g44520	-1
AT5g44530	1
AT5g44540	-1
AT5g44550	-1
AT5g44560	1
AT5g44570	1
AT5g44580	1
AT5g44590	1
AT5g44600	1
AT5g44610	-1
AT5g44620	-1
AT5g44630	1
AT5g44640	1
AT5g44650	1
AT5g44660	1
AT5g44670	-1
AT5g44680	-1
AT5g44690	-1
AT5g44700	-1
AT5g44710	1
AT5g44720	1
AT5g44730	-1
AT5g44740	-1
AT5g44750	1
AT5g44760	1
AT5g44770	1
AT5g44780	1
AT5g44790	-1
AT5g44800	-1
AT5g44810	-1
AT5g44820	-1
AT5g44830	-1
AT5g44840	-1
AT5g44850	1
AT5g44860	-1
AT5g44870	1
AT5g44880	1
AT5g44890	-1
AT5g44900	1
AT5g44910	1
AT5g44920	1
AT5g44930	-1
AT5g44940	1
AT5g44950	1
AT5g44960	1
AT5g44970	1
AT5g44980	1
AT5g44990	1
AT5g45000	1
AT5g45010	-1
AT5g45020	1
AT5g45030	1
AT5g45040	-1
AT5g45050	-1
AT5g45060	1
AT5g45070	-1
AT5g45080	-1
AT5g45090	-1
AT5g45100	1
AT5g45110	1
AT5g45120	1
AT5g45130	1
AT5g45140	-1
AT5g45150	1
AT5g45160	1
AT5g45170	-1
AT5g45180	-1
AT5g45190	-1
AT5g45200	-1
AT5g45210	1
AT5g45220	-1
AT5g45230	-1
AT5g45240	1
AT5g45250	-1
AT5g45260	1
AT5g45270	1
AT5g45280	1
AT5g45290	-1
AT5g45300	1
AT5g45310	-1
AT5g45320	-1
AT5g45330	-1
AT5g45340	-1
AT5g45350	-1
AT5g45360	-1
AT5g45370	1
AT5g45380	1
AT5g45390	1
AT5g45400	1
AT5g45410	-1
AT5g45420	-1
AT5g45430	1
AT5g45440	-1
AT5g45450	1
AT5g45460	-1
AT5g45470	-1
AT5g45480	-1
AT5g45490	1
AT5g45500	-1
AT5g45510	1
AT5g45520	-1
AT5g45530	-1
AT5g45540	-1
AT5g45550	1
AT5g45560	1
AT5g45570	1
AT5g45580	-1
AT5g45590	-1
AT5g45600	1
AT5g45610	-1
AT5g45620	1
AT5g45630	-1
AT5g45640	-1
AT5g45650	-1
AT5g45670	1
AT5g45680	1
AT5g45690	-1
AT5g45700	1
AT5g45710	1
AT5g45720	-1
AT5g45730	1
AT5g45740	-1
AT5g45750	1
AT5g45760	1
AT5g45770	1
AT5g45775	-1
AT5g45780	-1
AT5g45790	1
AT5g45800	-1
AT5g45810	1
AT5g45820	-1
AT5g45830	-1
AT5g45840	-1
AT5g45850	-1
AT5g45860	-1
AT5g45870	-1
AT5g45880	-1
AT5g45890	1
AT5g45900	1
AT5g45910	-1
AT5g45920	1
AT5g45930	1
AT5g45940	-1
AT5g45950	1
AT5g45960	-1
AT5g45970	1
AT5g45980	1
AT5g45990	1
AT5g46000	-1
AT5g46010	1
AT5g46020	-1
AT5g46030	1
AT5g46040	-1
AT5g46050	-1
AT5g46060	1
AT5g46070	1
AT5g46080	-1
AT5g46090	1
AT5g46100	-1
AT5g46110	1
AT5g46120	-1
AT5g46130	-1
AT5g46140	-1
AT5g46150	-1
AT5g46160	-1
AT5g46170	-1
AT5g46180	-1
AT5g46190	-1
AT5g46200	-1
AT5g46210	-1
AT5g46220	1
AT5g46230	-1
AT5g46240	-1
AT5g46250	1
AT5g46260	-1
AT5g46270	-1
AT5g46280	-1
AT5g46290	-1
AT5g46300	1
AT5g46310	1
AT5g46320	-1
AT5g46330	1
AT5g46340	-1
AT5g46350	-1
AT5g46360	-1
AT5g46370	-1
AT5g46380	-1
AT5g46390	1
AT5g46400	1
AT5g46410	1
AT5g46420	1
AT5g46430	1
AT5g46440	1
AT5g46450	1
AT5g46460	1
AT5g46470	1
AT5g46480	1
AT5g46490	1
AT5g46500	1
AT5g46510	1
AT5g46520	1
AT5g46530	1
AT5g46540	-1
AT5g46550	-1
AT5g46560	1
AT5g46570	1
AT5g46580	-1
AT5g46590	1
AT5g46600	-1
AT5g46610	-1
AT5g46620	-1
AT5g46630	1
AT5g46640	1
AT5g46650	1
AT5g46660	1
AT5g46670	1
AT5g46680	1
AT5g46690	1
AT5g46700	1
AT5g46710	-1
AT5g46720	1
AT5g46730	1
AT5g46740	-1
AT5g46750	-1
AT5g46760	1
AT5g46770	1
AT5g46780	1
AT5g46790	-1
AT5g46800	-1
AT5g46810	1
AT5g46820	1
AT5g46830	1
AT5g46840	1
AT5g46850	1
AT5g46860	-1
AT5g46870	1
AT5g46880	1
AT5g46890	-1
AT5g46900	-1
AT5g46910	1
AT5g46920	1
AT5g46930	-1
AT5g46940	-1
AT5g46950	-1
AT5g46960	-1
AT5g46970	-1
AT5g46980	-1
AT5g46990	-1
AT5g47000	-1
AT5g47010	1
AT5g47020	1
AT5g47030	1
AT5g47040	-1
AT5g47050	1
AT5g47060	1
AT5g47070	-1
AT5g47080	-1
AT5g47090	1
AT5g47100	-1
AT5g47110	-1
AT5g47120	1
AT5g47130	1
AT5g47140	1
AT5g47150	1
AT5g47160	1
AT5g47170	-1
AT5g47180	-1
AT5g47190	-1
AT5g47200	1
AT5g47210	-1
AT5g47220	-1
AT5g47230	1
AT5g47240	1
AT5g47250	-1
AT5g47260	1
AT5g47270	1
AT5g47280	1
AT5g47290	-1
AT5g47300	1
AT5g47310	1
AT5g47320	1
AT5g47330	1
AT5g47340	1
AT5g47350	1
AT5g47360	-1
AT5g47370	-1
AT5g47380	-1
AT5g47390	1
AT5g47400	1
AT5g47410	1
AT5g47420	1
AT5g47430	-1
AT5g47440	-1
AT5g47450	-1
AT5g47460	-1
AT5g47470	1
AT5g47480	1
AT5g47490	1
AT5g47500	-1
AT5g47510	1
AT5g47520	-1
AT5g47530	1
AT5g47540	-1
AT5g47550	-1
AT5g47560	-1
AT5g47570	-1
AT5g47580	-1
AT5g47590	-1
AT5g47600	-1
AT5g47610	-1
AT5g47620	-1
AT5g47630	1
AT5g47640	1
AT5g47650	-1
AT5g47660	1
AT5g47670	1
AT5g47680	-1
AT5g47690	1
AT5g47700	-1
AT5g47710	1
AT5g47720	1
AT5g47730	-1
AT5g47740	1
AT5g47750	-1
AT5g47760	-1
AT5g47770	1
AT5g47780	1
AT5g47790	1
AT5g47800	1
AT5g47810	-1
AT5g47820	1
AT5g47830	-1
AT5g47840	1
AT5g47850	-1
AT5g47860	1
AT5g47870	-1
AT5g47880	-1
AT5g47890	1
AT5g47900	1
AT5g47910	1
AT5g47920	-1
AT5g47930	-1
AT5g47940	-1
AT5g47950	-1
AT5g47960	-1
AT5g47970	1
AT5g47980	1
AT5g47990	1
AT5g48000	-1
AT5g48010	1
AT5g48020	-1
AT5g48030	-1
AT5g48040	1
AT5g48050	-1
AT5g48060	1
AT5g48070	1
AT5g48080	1
AT5g48090	1
AT5g48100	-1
AT5g48110	-1
AT5g48120	-1
AT5g48130	1
AT5g48140	-1
AT5g48150	-1
AT5g48160	-1
AT5g48170	-1
AT5g48180	-1
AT5g48190	1
AT5g48200	1
AT5g48210	1
AT5g48220	1
AT5g48230	-1
AT5g48240	1
AT5g48250	-1
AT5g48260	-1
AT5g48270	-1
AT5g48280	-1
AT5g48290	1
AT5g48300	1
AT5g48310	-1
AT5g48320	-1
AT5g48330	1
AT5g48340	1
AT5g48350	1
AT5g48360	1
AT5g48370	-1
AT5g48380	-1
AT5g48390	1
AT5g48400	1
AT5g48410	1
AT5g48420	-1
AT5g48430	-1
AT5g48440	-1
AT5g48450	-1
AT5g48460	-1
AT5g48470	1
AT5g48480	1
AT5g48490	-1
AT5g48500	1
AT5g48510	1
AT5g48520	1
AT5g48530	-1
AT5g48540	-1
AT5g48550	1
AT5g48560	1
AT5g48570	-1
AT5g48580	-1
AT5g48590	1
AT5g48600	1
AT5g48610	1
AT5g48620	1
AT5g48630	-1
AT5g48640	-1
AT5g48650	1
AT5g48660	1
AT5g48670	-1
AT5g48680	-1
AT5g48690	-1
AT5g48700	-1
AT5g48710	-1
AT5g48720	1
AT5g48730	1
AT5g48740	-1
AT5g48750	-1
AT5g48760	-1
AT5g48770	-1
AT5g48780	1
AT5g48790	-1
AT5g48800	1
AT5g48810	-1
AT5g48820	-1
AT5g48830	-1
AT5g48840	-1
AT5g48850	-1
AT5g48860	-1
AT5g48870	1
AT5g48880	-1
AT5g48890	1
AT5g48900	1
AT5g48910	-1
AT5g48920	1
AT5g48930	-1
AT5g48940	1
AT5g48950	1
AT5g48960	1
AT5g48970	-1
AT5g48980	1
AT5g48990	1
AT5g49000	1
AT5g49010	1
AT5g49020	1
AT5g49030	-1
AT5g49040	-1
AT5g49050	1
AT5g49060	1
AT5g49070	-1
AT5g49080	-1
AT5g49090	-1
AT5g49100	-1
AT5g49110	1
AT5g49120	-1
AT5g49130	1
AT5g49140	-1
AT5g49150	1
AT5g49160	1
AT5g49170	-1
AT5g49180	-1
AT5g49190	-1
AT5g49200	-1
AT5g49210	1
AT5g49220	1
AT5g49230	-1
AT5g49240	1
AT5g49250	1
AT5g49260	1
AT5g49270	-1
AT5g49280	-1
AT5g49290	1
AT5g49300	-1
AT5g49310	-1
AT5g49320	-1
AT5g49330	-1
AT5g49340	-1
AT5g49350	-1
AT5g49360	-1
AT5g49370	1
AT5g49380	1
AT5g49390	1
AT5g49400	1
AT5g49410	1
AT5g49420	-1
AT5g49430	-1
AT5g49440	1
AT5g49450	1
AT5g49460	1
AT5g49470	1
AT5g49480	1
AT5g49490	1
AT5g49500	-1
AT5g49510	1
AT5g49520	1
AT5g49530	1
AT5g49540	-1
AT5g49550	-1
AT5g49560	-1
AT5g49570	-1
AT5g49580	-1
AT5g49590	1
AT5g49600	1
AT5g49610	-1
AT5g49620	-1
AT5g49630	-1
AT5g49640	1
AT5g49650	1
AT5g49660	-1
AT5g49670	1
AT5g49680	1
AT5g49690	-1
AT5g49700	1
AT5g49710	1
AT5g49720	-1
AT5g49730	-1
AT5g49740	-1
AT5g49750	1
AT5g49760	1
AT5g49770	1
AT5g49780	1
AT5g49790	1
AT5g49800	-1
AT5g49810	1
AT5g49820	-1
AT5g49830	-1
AT5g49840	1
AT5g49850	-1
AT5g49860	-1
AT5g49870	-1
AT5g49880	1
AT5g49890	-1
AT5g49900	-1
AT5g49910	1
AT5g49920	-1
AT5g49930	-1
AT5g49940	1
AT5g49950	-1
AT5g49960	-1
AT5g49970	1
AT5g49980	-1
AT5g49990	-1
AT5g50000	-1
AT5g50010	1
AT5g50020	1
AT5g50030	1
AT5g50040	1
AT5g50050	1
AT5g50060	1
AT5g50070	1
AT5g50080	1
AT5g50090	1
AT5g50100	1
AT5g50110	1
AT5g50120	-1
AT5g50130	1
AT5g50140	1
AT5g50150	-1
AT5g50160	1
AT5g50170	1
AT5g50180	1
AT5g50190	-1
AT5g50200	1
AT5g50210	1
AT5g50220	-1
AT5g50230	-1
AT5g50240	1
AT5g50250	-1
AT5g50260	1
AT5g50270	1
AT5g50280	1
AT5g50290	1
AT5g50300	-1
AT5g50310	1
AT5g50320	-1
AT5g50330	-1
AT5g50340	-1
AT5g50350	-1
AT5g50360	-1
AT5g50370	-1
AT5g50380	-1
AT5g50390	-1
AT5g50400	-1
AT5g50410	-1
AT5g50420	-1
AT5g50430	-1
AT5g50440	-1
AT5g50450	-1
AT5g50460	-1
AT5g50470	-1
AT5g50480	-1
AT5g50490	-1
AT5g50500	-1
AT5g50510	-1
AT5g50520	-1
AT5g50530	-1
AT5g50540	-1
AT5g50550	1
AT5g50560	1
AT5g50570	-1
AT5g50580	1
AT5g50590	1
AT5g50600	-1
AT5g50610	1
AT5g50620	-1
AT5g50630	-1
AT5g50640	-1
AT5g50650	1
AT5g50660	1
AT5g50670	-1
AT5g50680	1
AT5g50690	1
AT5g50700	-1
AT5g50710	1
AT5g50720	-1
AT5g50730	-1
AT5g50740	-1
AT5g50750	1
AT5g50760	1
AT5g50770	-1
AT5g50780	1
AT5g50790	-1
AT5g50800	-1
AT5g50810	-1
AT5g50820	1
AT5g50830	1
AT5g50840	1
AT5g50850	1
AT5g50860	-1
AT5g50870	-1
AT5g50880	-1
AT5g50890	1
AT5g50900	-1
AT5g50910	-1
AT5g50920	-1
AT5g50930	1
AT5g50940	1
AT5g50950	1
AT5g50960	1
AT5g50970	1
AT5g50980	1
AT5g50990	1
AT5g51000	-1
AT5g51010	1
AT5g51020	-1
AT5g51030	-1
AT5g51040	1
AT5g51050	1
AT5g51060	-1
AT5g51070	1
AT5g51080	-1
AT5g51090	-1
AT5g51100	-1
AT5g51110	-1
AT5g51120	1
AT5g51130	1
AT5g51140	-1
AT5g51150	1
AT5g51160	1
AT5g51170	-1
AT5g51180	1
AT5g51190	-1
AT5g51200	1
AT5g51210	1
AT5g51220	-1
AT5g51230	1
AT5g51240	1
AT5g51250	1
AT5g51260	-1
AT5g51270	-1
AT5g51280	1
AT5g51290	-1
AT5g51300	-1
AT5g51310	-1
AT5g51320	-1
AT5g51330	-1
AT5g51340	1
AT5g51350	-1
AT5g51360	1
AT5g51370	1
AT5g51380	1
AT5g51390	-1
AT5g51400	-1
AT5g51410	-1
AT5g51420	-1
AT5g51430	-1
AT5g51440	1
AT5g51450	1
AT5g51460	1
AT5g51470	1
AT5g51480	1
AT5g51490	-1
AT5g51500	-1
AT5g51510	1
AT5g51520	1
AT5g51530	-1
AT5g51540	1
AT5g51550	-1
AT5g51560	1
AT5g51570	1
AT5g51580	-1
AT5g51590	-1
AT5g51600	-1
AT5g51610	1
AT5g51620	1
AT5g51630	1
AT5g51640	-1
AT5g51650	-1
AT5g51660	1
AT5g51670	1
AT5g51680	1
AT5g51690	-1
AT5g51700	-1
AT5g51710	-1
AT5g51720	1
AT5g51730	1
AT5g51740	1
AT5g51750	1
AT5g51760	1
AT5g51770	1
AT5g51780	1
AT5g51790	1
AT5g51800	1
AT5g51810	-1
AT5g51820	-1
AT5g51830	1
AT5g51840	1
AT5g51850	1
AT5g51860	-1
AT5g51870	-1
AT5g51880	1
AT5g51890	-1
AT5g51900	-1
AT5g51910	-1
AT5g51920	-1
AT5g51930	1
AT5g51940	1
AT5g51950	-1
AT5g51960	1
AT5g51970	1
AT5g51980	-1
AT5g51990	-1
AT5g52000	-1
AT5g52010	-1
AT5g52020	-1
AT5g52030	1
AT5g52040	1
AT5g52050	1
AT5g52060	-1
AT5g52070	1
AT5g52080	1
AT5g52090	-1
AT5g52100	1
AT5g52110	-1
AT5g52120	-1
AT5g52130	-1
AT5g52140	-1
AT5g52150	-1
AT5g52160	1
AT5g52170	1
AT5g52180	-1
AT5g52190	-1
AT5g52200	-1
AT5g52210	1
AT5g52220	-1
AT5g52230	-1
AT5g52240	1
AT5g52250	1
AT5g52260	1
AT5g52270	-1
AT5g52280	1
AT5g52290	-1
AT5g52300	1
AT5g52310	1
AT5g52320	-1
AT5g52330	-1
AT5g52340	1
AT5g52350	1
AT5g52360	-1
AT5g52370	-1
AT5g52380	-1
AT5g52390	-1
AT5g52400	1
AT5g52410	1
AT5g52420	1
AT5g52430	-1
AT5g52440	1
AT5g52450	-1
AT5g52460	-1
AT5g52470	1
AT5g52480	-1
AT5g52490	1
AT5g52500	1
AT5g52510	1
AT5g52520	1
AT5g52530	1
AT5g52540	-1
AT5g52550	-1
AT5g52560	1
AT5g52570	-1
AT5g52580	1
AT5g52590	1
AT5g52600	-1
AT5g52610	-1
AT5g52620	-1
AT5g52630	1
AT5g52640	1
AT5g52650	-1
AT5g52660	-1
AT5g52670	1
AT5g52680	1
AT5g52690	1
AT5g52700	1
AT5g52710	1
AT5g52720	1
AT5g52730	1
AT5g52740	1
AT5g52750	1
AT5g52760	1
AT5g52770	1
AT5g52780	-1
AT5g52790	-1
AT5g52800	1
AT5g52810	1
AT5g52820	1
AT5g52830	1
AT5g52840	1
AT5g52850	-1
AT5g52860	-1
AT5g52870	-1
AT5g52880	-1
AT5g52890	-1
AT5g52900	-1
AT5g52910	-1
AT5g52920	1
AT5g52930	1
AT5g52940	1
AT5g52950	-1
AT5g52960	1
AT5g52970	1
AT5g52980	-1
AT5g52990	1
AT5g53000	-1
AT5g53010	-1
AT5g53020	1
AT5g53030	1
AT5g53040	-1
AT5g53050	-1
AT5g53060	1
AT5g53070	1
AT5g53080	1
AT5g53090	1
AT5g53100	1
AT5g53110	1
AT5g53120	1
AT5g53130	-1
AT5g53140	1
AT5g53150	1
AT5g53160	1
AT5g53170	-1
AT5g53180	-1
AT5g53190	-1
AT5g53200	1
AT5g53210	-1
AT5g53220	1
AT5g53230	1
AT5g53240	1
AT5g53250	1
AT5g53260	-1
AT5g53270	-1
AT5g53280	1
AT5g53290	-1
AT5g53300	-1
AT5g53310	1
AT5g53320	-1
AT5g53330	1
AT5g53340	-1
AT5g53350	1
AT5g53360	1
AT5g53370	-1
AT5g53380	1
AT5g53390	-1
AT5g53400	1
AT5g53410	1
AT5g53420	1
AT5g53430	1
AT5g53440	-1
AT5g53450	1
AT5g53460	1
AT5g53470	1
AT5g53480	1
AT5g53490	-1
AT5g53500	-1
AT5g53510	1
AT5g53520	1
AT5g53530	-1
AT5g53540	-1
AT5g53550	1
AT5g53560	1
AT5g53570	-1
AT5g53580	-1
AT5g53590	1
AT5g53600	1
AT5g53610	1
AT5g53620	1
AT5g53630	-1
AT5g53640	-1
AT5g53650	1
AT5g53660	1
AT5g53670	1
AT5g53680	1
AT5g53690	1
AT5g53700	1
AT5g53710	-1
AT5g53720	1
AT5g53730	-1
AT5g53740	1
AT5g53750	1
AT5g53760	1
AT5g53770	1
AT5g53780	-1
AT5g53790	1
AT5g53800	1
AT5g53810	-1
AT5g53820	1
AT5g53830	1
AT5g53840	-1
AT5g53850	-1
AT5g53860	1
AT5g53870	-1
AT5g53880	-1
AT5g53890	1
AT5g53900	-1
AT5g53910	1
AT5g53920	1
AT5g53930	-1
AT5g53940	-1
AT5g53950	-1
AT5g53960	1
AT5g53970	1
AT5g53980	1
AT5g53990	-1
AT5g54000	-1
AT5g54010	-1
AT5g54020	-1
AT5g54030	-1
AT5g54040	-1
AT5g54050	-1
AT5g54060	-1
AT5g54070	1
AT5g54080	1
AT5g54090	-1
AT5g54100	-1
AT5g54110	1
AT5g54120	1
AT5g54130	1
AT5g54140	1
AT5g54150	-1
AT5g54160	1
AT5g54170	-1
AT5g54180	1
AT5g54190	-1
AT5g54200	-1
AT5g54210	1
AT5g54220	1
AT5g54230	-1
AT5g54240	-1
AT5g54250	-1
AT5g54260	1
AT5g54270	1
AT5g54280	-1
AT5g54290	1
AT5g54300	-1
AT5g54310	-1
AT5g54320	1
AT5g54330	1
AT5g54340	1
AT5g54350	1
AT5g54360	1
AT5g54370	1
AT5g54380	-1
AT5g54390	1
AT5g54400	1
AT5g54410	-1
AT5g54420	1
AT5g54430	-1
AT5g54440	1
AT5g54450	-1
AT5g54460	-1
AT5g54470	-1
AT5g54480	1
AT5g54490	1
AT5g54500	1
AT5g54510	-1
AT5g54520	-1
AT5g54530	1
AT5g54540	1
AT5g54550	1
AT5g54560	1
AT5g54570	-1
AT5g54580	1
AT5g54590	1
AT5g54600	1
AT5g54610	-1
AT5g54620	-1
AT5g54630	-1
AT5g54640	1
AT5g54650	-1
AT5g54660	1
AT5g54670	1
AT5g54680	1
AT5g54690	-1
AT5g54700	-1
AT5g54710	-1
AT5g54720	-1
AT5g54730	-1
AT5g54740	-1
AT5g54750	1
AT5g54760	1
AT5g54770	1
AT5g54780	-1
AT5g54790	-1
AT5g54800	1
AT5g54810	-1
AT5g54820	1
AT5g54830	1
AT5g54840	-1
AT5g54850	-1
AT5g54860	1
AT5g54870	1
AT5g54880	1
AT5g54890	1
AT5g54900	1
AT5g54910	-1
AT5g54920	1
AT5g54930	-1
AT5g54940	-1
AT5g54950	-1
AT5g54960	-1
AT5g54970	1
AT5g54980	1
AT5g54990	1
AT5g55000	1
AT5g55010	1
AT5g55020	-1
AT5g55030	-1
AT5g55040	-1
AT5g55050	1
AT5g55060	1
AT5g55070	1
AT5g55080	-1
AT5g55090	-1
AT5g55100	-1
AT5g55110	1
AT5g55120	1
AT5g55130	-1
AT5g55140	1
AT5g55150	-1
AT5g55160	-1
AT5g55170	-1
AT5g55180	1
AT5g55190	1
AT5g55200	1
AT5g55210	-1
AT5g55220	1
AT5g55230	1
AT5g55240	1
AT5g55250	-1
AT5g55260	1
AT5g55270	1
AT5g55280	-1
AT5g55290	-1
AT5g55300	-1
AT5g55310	-1
AT5g55320	-1
AT5g55330	-1
AT5g55340	-1
AT5g55350	-1
AT5g55360	-1
AT5g55370	-1
AT5g55380	-1
AT5g55390	-1
AT5g55400	-1
AT5g55410	1
AT5g55420	1
AT5g55430	1
AT5g55440	1
AT5g55450	1
AT5g55460	1
AT5g55470	-1
AT5g55480	1
AT5g55490	-1
AT5g55500	1
AT5g55510	-1
AT5g55520	-1
AT5g55530	1
AT5g55540	-1
AT5g55550	-1
AT5g55560	-1
AT5g55570	-1
AT5g55580	1
AT5g55590	1
AT5g55600	-1
AT5g55610	1
AT5g55620	1
AT5g55630	1
AT5g55640	-1
AT5g55650	1
AT5g55660	1
AT5g55670	-1
AT5g55680	-1
AT5g55690	-1
AT5g55700	1
AT5g55710	-1
AT5g55720	1
AT5g55730	-1
AT5g55740	-1
AT5g55750	-1
AT5g55760	1
AT5g55770	1
AT5g55780	1
AT5g55790	-1
AT5g55800	1
AT5g55810	-1
AT5g55820	1
AT5g55830	1
AT5g55840	1
AT5g55850	1
AT5g55860	1
AT5g55870	-1
AT5g55880	-1
AT5g55890	-1
AT5g55900	1
AT5g55910	-1
AT5g55920	-1
AT5g55930	1
AT5g55940	-1
AT5g55950	-1
AT5g55960	1
AT5g55970	1
AT5g55980	1
AT5g55990	1
AT5g56000	-1
AT5g56010	1
AT5g56020	1
AT5g56030	1
AT5g56040	1
AT5g56050	-1
AT5g56060	1
AT5g56070	1
AT5g56080	-1
AT5g56090	1
AT5g56100	1
AT5g56110	1
AT5g56120	1
AT5g56130	-1
AT5g56140	1
AT5g56150	1
AT5g56160	1
AT5g56170	1
AT5g56180	-1
AT5g56190	1
AT5g56200	1
AT5g56210	-1
AT5g56220	1
AT5g56230	-1
AT5g56240	-1
AT5g56250	-1
AT5g56260	-1
AT5g56270	1
AT5g56280	-1
AT5g56290	1
AT5g56300	1
AT5g56310	1
AT5g56320	1
AT5g56330	1
AT5g56340	1
AT5g56350	-1
AT5g56360	-1
AT5g56370	-1
AT5g56380	-1
AT5g56390	-1
AT5g56400	-1
AT5g56410	-1
AT5g56420	-1
AT5g56430	-1
AT5g56440	-1
AT5g56450	-1
AT5g56460	1
AT5g56470	1
AT5g56480	-1
AT5g56490	1
AT5g56500	1
AT5g56510	1
AT5g56520	1
AT5g56530	1
AT5g56540	1
AT5g56550	-1
AT5g56560	1
AT5g56570	1
AT5g56580	-1
AT5g56590	1
AT5g56600	-1
AT5g56610	1
AT5g56620	-1
AT5g56630	1
AT5g56640	-1
AT5g56650	1
AT5g56660	1
AT5g56670	-1
AT5g56680	1
AT5g56690	1
AT5g56700	1
AT5g56710	-1
AT5g56720	1
AT5g56730	-1
AT5g56740	-1
AT5g56750	1
AT5g56760	-1
AT5g56770	-1
AT5g56780	-1
AT5g56790	1
AT5g56800	1
AT5g56810	1
AT5g56820	1
AT5g56830	1
AT5g56840	1
AT5g56850	-1
AT5g56860	-1
AT5g56870	1
AT5g56880	-1
AT5g56890	-1
AT5g56900	-1
AT5g56910	1
AT5g56920	1
AT5g56930	-1
AT5g56940	1
AT5g56950	1
AT5g56960	-1
AT5g56970	-1
AT5g56980	-1
AT5g56990	-1
AT5g57000	-1
AT5g57010	1
AT5g57020	1
AT5g57030	1
AT5g57040	-1
AT5g57050	1
AT5g57060	1
AT5g57070	1
AT5g57080	1
AT5g57090	1
AT5g57100	-1
AT5g57110	-1
AT5g57120	-1
AT5g57130	1
AT5g57140	1
AT5g57150	1
AT5g57160	-1
AT5g57170	-1
AT5g57180	1
AT5g57190	-1
AT5g57200	1
AT5g57210	-1
AT5g57220	1
AT5g57230	1
AT5g57240	1
AT5g57250	-1
AT5g57260	-1
AT5g57270	-1
AT5g57280	1
AT5g57290	-1
AT5g57300	-1
AT5g57310	1
AT5g57320	1
AT5g57330	1
AT5g57340	1
AT5g57350	-1
AT5g57360	1
AT5g57370	1
AT5g57380	-1
AT5g57390	-1
AT5g57400	-1
AT5g57410	-1
AT5g57420	1
AT5g57440	-1
AT5g57450	-1
AT5g57460	1
AT5g57480	-1
AT5g57490	-1
AT5g57500	-1
AT5g57510	-1
AT5g57520	1
AT5g57530	-1
AT5g57540	-1
AT5g57550	-1
AT5g57560	-1
AT5g57570	-1
AT5g57580	-1
AT5g57590	-1
AT5g57600	-1
AT5g57610	1
AT5g57620	1
AT5g57625	1
AT5g57630	-1
AT5g57640	1
AT5g57650	-1
AT5g57655	1
AT5g57660	1
AT5g57670	-1
AT5g57680	-1
AT5g57690	-1
AT5g57700	1
AT5g57710	1
AT5g57720	-1
AT5g57730	-1
AT5g57740	-1
AT5g57750	1
AT5g57760	1
AT5g57770	-1
AT5g57780	-1
AT5g57790	-1
AT5g57800	1
AT5g57810	-1
AT5g57820	1
AT5g57830	-1
AT5g57840	-1
AT5g57850	-1
AT5g57860	1
AT5g57870	1
AT5g57880	1
AT5g57890	-1
AT5g57900	-1
AT5g57910	-1
AT5g57920	1
AT5g57930	1
AT5g57940	1
AT5g57950	1
AT5g57960	-1
AT5g57970	1
AT5g57980	-1
AT5g57990	-1
AT5g58000	1
AT5g58010	-1
AT5g58020	1
AT5g58030	-1
AT5g58040	1
AT5g58050	-1
AT5g58060	1
AT5g58070	-1
AT5g58080	-1
AT5g58090	-1
AT5g58100	1
AT5g58110	1
AT5g58120	1
AT5g58130	-1
AT5g58140	1
AT5g58150	-1
AT5g58160	1
AT5g58170	-1
AT5g58180	1
AT5g58190	1
AT5g58200	1
AT5g58210	1
AT5g58220	-1
AT5g58230	1
AT5g58240	-1
AT5g58250	1
AT5g58260	-1
AT5g58270	1
AT5g58280	1
AT5g58290	1
AT5g58300	1
AT5g58310	-1
AT5g58320	1
AT5g58330	-1
AT5g58340	1
AT5g58350	1
AT5g58360	-1
AT5g58370	1
AT5g58380	-1
AT5g58390	-1
AT5g58400	-1
AT5g58410	1
AT5g58420	1
AT5g58430	-1
AT5g58440	-1
AT5g58450	1
AT5g58460	-1
AT5g58470	-1
AT5g58480	-1
AT5g58490	1
AT5g58500	-1
AT5g58510	-1
AT5g58520	1
AT5g58530	1
AT5g58540	1
AT5g58550	-1
AT5g58560	1
AT5g58570	1
AT5g58580	-1
AT5g58590	-1
AT5g58600	-1
AT5g58610	-1
AT5g58620	1
AT5g58630	-1
AT5g58640	1
AT5g58650	-1
AT5g58660	1
AT5g58670	-1
AT5g58680	-1
AT5g58690	-1
AT5g58700	-1
AT5g58710	1
AT5g58720	-1
AT5g58730	-1
AT5g58740	-1
AT5g58750	1
AT5g58760	-1
AT5g58770	1
AT5g58780	-1
AT5g58790	1
AT5g58800	-1
AT5g58810	1
AT5g58820	1
AT5g58830	1
AT5g58840	1
AT5g58850	1
AT5g58860	-1
AT5g58870	-1
AT5g58880	1
AT5g58890	1
AT5g58900	-1
AT5g58910	-1
AT5g58920	1
AT5g58930	-1
AT5g58940	1
AT5g58950	-1
AT5g58960	1
AT5g58970	-1
AT5g58980	-1
AT5g58990	1
AT5g59000	1
AT5g59010	-1
AT5g59020	-1
AT5g59030	-1
AT5g59040	1
AT5g59050	-1
AT5g59060	-1
AT5g59070	1
AT5g59080	-1
AT5g59090	-1
AT5g59100	-1
AT5g59110	-1
AT5g59120	-1
AT5g59130	-1
AT5g59140	-1
AT5g59150	1
AT5g59160	1
AT5g59170	1
AT5g59180	1
AT5g59190	1
AT5g59200	-1
AT5g59210	-1
AT5g59220	-1
AT5g59230	1
AT5g59240	-1
AT5g59250	1
AT5g59260	-1
AT5g59270	-1
AT5g59280	-1
AT5g59290	-1
AT5g59300	-1
AT5g59310	-1
AT5g59320	1
AT5g59330	1
AT5g59340	-1
AT5g59350	1
AT5g59360	-1
AT5g59370	1
AT5g59380	1
AT5g59390	1
AT5g59400	1
AT5g59410	-1
AT5g59420	1
AT5g59430	1
AT5g59440	1
AT5g59450	1
AT5g59460	-1
AT5g59470	1
AT5g59480	-1
AT5g59490	-1
AT5g59500	1
AT5g59510	-1
AT5g59520	-1
AT5g59530	-1
AT5g59540	-1
AT5g59550	-1
AT5g59560	-1
AT5g59570	1
AT5g59580	-1
AT5g59590	-1
AT5g59600	-1
AT5g59610	1
AT5g59620	-1
AT5g59630	-1
AT5g59640	1
AT5g59650	1
AT5g59660	1
AT5g59670	1
AT5g59680	1
AT5g59690	1
AT5g59700	-1
AT5g59710	1
AT5g59720	1
AT5g59730	-1
AT5g59740	-1
AT5g59750	1
AT5g59760	-1
AT5g59770	-1
AT5g59780	-1
AT5g59790	1
AT5g59800	-1
AT5g59810	-1
AT5g59820	1
AT5g59830	1
AT5g59840	-1
AT5g59850	-1
AT5g59860	1
AT5g59870	-1
AT5g59880	1
AT5g59890	1
AT5g59900	-1
AT5g59910	1
AT5g59920	1
AT5g59930	1
AT5g59940	1
AT5g59950	1
AT5g59960	-1
AT5g59970	-1
AT5g59980	1
AT5g59990	-1
AT5g60000	-1
AT5g60010	1
AT5g60020	1
AT5g60030	-1
AT5g60040	1
AT5g60050	-1
AT5g60060	-1
AT5g60070	-1
AT5g60080	-1
AT5g60090	-1
AT5g60100	-1
AT5g60110	1
AT5g60120	1
AT5g60130	-1
AT5g60140	-1
AT5g60150	1
AT5g60160	-1
AT5g60170	1
AT5g60180	-1
AT5g60190	1
AT5g60200	1
AT5g60210	-1
AT5g60220	1
AT5g60230	-1
AT5g60240	1
AT5g60250	1
AT5g60260	-1
AT5g60270	1
AT5g60280	1
AT5g60290	1
AT5g60300	1
AT5g60310	1
AT5g60320	1
AT5g60330	-1
AT5g60340	-1
AT5g60350	1
AT5g60360	1
AT5g60370	1
AT5g60380	1
AT5g60390	1
AT5g60400	-1
AT5g60410	1
AT5g60420	1
AT5g60430	1
AT5g60440	1
AT5g60450	-1
AT5g60460	-1
AT5g60470	1
AT5g60480	1
AT5g60490	-1
AT5g60500	1
AT5g60510	1
AT5g60520	-1
AT5g60530	-1
AT5g60540	-1
AT5g60550	1
AT5g60560	1
AT5g60570	1
AT5g60580	1
AT5g60590	1
AT5g60600	1
AT5g60610	1
AT5g60620	1
AT5g60630	-1
AT5g60640	-1
AT5g60650	-1
AT5g60660	-1
AT5g60670	-1
AT5g60680	1
AT5g60690	1
AT5g60700	-1
AT5g60710	-1
AT5g60720	-1
AT5g60730	1
AT5g60740	-1
AT5g60750	1
AT5g60760	1
AT5g60770	1
AT5g60780	1
AT5g60790	-1
AT5g60800	-1
AT5g60810	-1
AT5g60820	1
AT5g60830	1
AT5g60840	-1
AT5g60850	1
AT5g60860	1
AT5g60870	-1
AT5g60880	-1
AT5g60890	1
AT5g60900	-1
AT5g60910	-1
AT5g60920	-1
AT5g60930	-1
AT5g60940	1
AT5g60950	-1
AT5g60960	-1
AT5g60970	-1
AT5g60980	1
AT5g60990	-1
AT5g61000	-1
AT5g61010	1
AT5g61020	-1
AT5g61030	1
AT5g61040	-1
AT5g61050	-1
AT5g61060	-1
AT5g61070	-1
AT5g61080	-1
AT5g61090	-1
AT5g61100	-1
AT5g61110	-1
AT5g61120	-1
AT5g61130	-1
AT5g61140	1
AT5g61150	-1
AT5g61160	1
AT5g61170	1
AT5g61180	1
AT5g61190	1
AT5g61200	1
AT5g61210	1
AT5g61220	-1
AT5g61230	1
AT5g61240	1
AT5g61250	-1
AT5g61260	1
AT5g61270	-1
AT5g61280	-1
AT5g61290	1
AT5g61300	-1
AT5g61310	-1
AT5g61320	-1
AT5g61330	-1
AT5g61340	-1
AT5g61350	1
AT5g61360	1
AT5g61370	-1
AT5g61380	1
AT5g61390	-1
AT5g61400	1
AT5g61410	-1
AT5g61420	-1
AT5g61430	-1
AT5g61440	1
AT5g61450	-1
AT5g61460	-1
AT5g61470	1
AT5g61480	-1
AT5g61490	1
AT5g61500	-1
AT5g61510	-1
AT5g61520	-1
AT5g61530	1
AT5g61540	1
AT5g61550	1
AT5g61560	1
AT5g61570	1
AT5g61580	1
AT5g61590	-1
AT5g61600	-1
AT5g61610	1
AT5g61620	1
AT5g61630	-1
AT5g61640	1
AT5g61650	1
AT5g61660	-1
AT5g61670	1
AT5g61680	-1
AT5g61690	-1
AT5g61700	1
AT5g61710	1
AT5g61720	1
AT5g61730	-1
AT5g61740	1
AT5g61750	-1
AT5g61760	-1
AT5g61770	1
AT5g61780	1
AT5g61790	-1
AT5g61800	-1
AT5g61810	-1
AT5g61820	-1
AT5g61830	1
AT5g61840	-1
AT5g61850	1
AT5g61870	1
AT5g61860	1
AT5g61880	1
AT5g61890	-1
AT5g61900	-1
AT5g61910	-1
AT5g61920	1
AT5g61930	-1
AT5g61940	1
AT5g61950	1
AT5g61960	-1
AT5g61970	1
AT5g61980	1
AT5g61990	-1
AT5g62000	1
AT5g62010	1
AT5g62020	1
AT5g62030	1
AT5g62040	1
AT5g62050	-1
AT5g62060	1
AT5g62070	-1
AT5g62080	-1
AT5g62090	-1
AT5g62100	1
AT5g62110	-1
AT5g62120	-1
AT5g62130	-1
AT5g62140	-1
AT5g62150	1
AT5g62160	1
AT5g62170	-1
AT5g62180	-1
AT5g62190	-1
AT5g62200	-1
AT5g62210	-1
AT5g62220	-1
AT5g62230	1
AT5g62240	-1
AT5g62250	1
AT5g62260	1
AT5g62270	1
AT5g62280	1
AT5g62290	1
AT5g62300	-1
AT5g62310	1
AT5g62320	-1
AT5g62330	1
AT5g62340	1
AT5g62350	1
AT5g62360	1
AT5g62370	-1
AT5g62380	1
AT5g62390	-1
AT5g62400	-1
AT5g62410	1
AT5g62420	1
AT5g62430	-1
AT5g62440	-1
AT5g62450	-1
AT5g62460	1
AT5g62470	-1
AT5g62480	-1
AT5g62490	1
AT5g62500	1
AT5g62510	-1
AT5g62520	1
AT5g62530	-1
AT5g62540	1
AT5g62550	-1
AT5g62560	1
AT5g62570	1
AT5g62580	1
AT5g62590	-1
AT5g62600	-1
AT5g62610	-1
AT5g62620	1
AT5g62630	-1
AT5g62640	-1
AT5g62650	-1
AT5g62660	-1
AT5g62670	1
AT5g62680	-1
AT5g62690	1
AT5g62700	1
AT5g62710	1
AT5g62720	1
AT5g62730	1
AT5g62740	1
AT5g62750	-1
AT5g62760	-1
AT5g62770	1
AT5g62780	1
AT5g62790	-1
AT5g62800	1
AT5g62810	1
AT5g62820	-1
AT5g62830	-1
AT5g62840	-1
AT5g62850	-1
AT5g62860	1
AT5g62870	1
AT5g62880	1
AT5g62890	1
AT5g62900	1
AT5g62910	1
AT5g62920	-1
AT5g62930	1
AT5g62940	-1
AT5g62950	-1
AT5g62960	1
AT5g62970	1
AT5g62980	1
AT5g62990	1
AT5g63000	-1
AT5g63010	1
AT5g63020	-1
AT5g63030	1
AT5g63040	1
AT5g63050	1
AT5g63060	-1
AT5g63070	-1
AT5g63080	-1
AT5g63090	-1
AT5g63100	-1
AT5g63110	-1
AT5g63120	-1
AT5g63130	1
AT5g63140	1
AT5g63150	1
AT5g63160	-1
AT5g63170	-1
AT5g63180	-1
AT5g63190	1
AT5g63200	1
AT5g63210	1
AT5g63220	-1
AT5g63230	-1
AT5g63240	-1
AT5g63250	-1
AT5g63260	1
AT5g63270	-1
AT5g63280	1
AT5g63290	-1
AT5g63300	1
AT5g63310	-1
AT5g63320	-1
AT5g63330	-1
AT5g63340	1
AT5g63350	-1
AT5g63360	1
AT5g63370	-1
AT5g63380	-1
AT5g63390	-1
AT5g63400	-1
AT5g63410	-1
AT5g63420	1
AT5g63430	1
AT5g63440	1
AT5g63450	-1
AT5g63460	-1
AT5g63470	-1
AT5g63480	1
AT5g63490	-1
AT5g63500	1
AT5g63510	1
AT5g63520	-1
AT5g63530	1
AT5g63540	-1
AT5g63550	1
AT5g63560	1
AT5g63570	1
AT5g63580	1
AT5g63590	-1
AT5g63600	-1
AT5g63610	-1
AT5g63620	-1
AT5g63630	-1
AT5g63640	1
AT5g63650	-1
AT5g63660	1
AT5g63670	1
AT5g63680	1
AT5g63690	-1
AT5g63700	-1
AT5g63710	1
AT5g63720	1
AT5g63730	-1
AT5g63740	-1
AT5g63750	-1
AT5g63760	-1
AT5g63770	1
AT5g63780	1
AT5g63790	-1
AT5g63800	1
AT5g63810	1
AT5g63820	1
AT5g63830	-1
AT5g63840	1
AT5g63850	1
AT5g63860	-1
AT5g63870	-1
AT5g63880	1
AT5g63890	-1
AT5g63900	1
AT5g63910	-1
AT5g63920	1
AT5g63930	1
AT5g63940	1
AT5g63950	-1
AT5g63960	1
AT5g63970	-1
AT5g63980	1
AT5g63990	1
AT5g64000	1
AT5g64010	-1
AT5g64020	-1
AT5g64030	1
AT5g64040	-1
AT5g64050	-1
AT5g64060	-1
AT5g64070	-1
AT5g64080	-1
AT5g64090	1
AT5g64100	-1
AT5g64110	-1
AT5g64120	-1
AT5g64130	-1
AT5g64140	-1
AT5g64150	-1
AT5g64160	1
AT5g64170	-1
AT5g64180	1
AT5g64190	1
AT5g64200	-1
AT5g64210	-1
AT5g64220	1
AT5g64230	1
AT5g64240	1
AT5g64250	-1
AT5g64260	1
AT5g64270	1
AT5g64280	-1
AT5g64290	-1
AT5g64300	1
AT5g64310	1
AT5g64320	-1
AT5g64330	1
AT5g64340	-1
AT5g64350	-1
AT5g64360	-1
AT5g64370	1
AT5g64380	1
AT5g64390	1
AT5g64400	1
AT5g64410	-1
AT5g64420	1
AT5g64430	-1
AT5g64440	1
AT5g64450	1
AT5g64460	-1
AT5g64470	1
AT5g64480	1
AT5g64490	-1
AT5g64500	1
AT5g64510	1
AT5g64520	1
AT5g64530	1
AT5g64540	-1
AT5g64550	-1
AT5g64560	-1
AT5g64570	-1
AT5g64580	-1
AT5g64590	-1
AT5g64600	1
AT5g64610	-1
AT5g64620	1
AT5g64630	1
AT5g64640	1
AT5g64650	-1
AT5g64660	-1
AT5g64670	-1
AT5g64680	1
AT5g64690	1
AT5g64700	-1
AT5g64710	1
AT5g64720	-1
AT5g64730	1
AT5g64740	1
AT5g64750	1
AT5g64760	-1
AT5g64770	-1
AT5g64780	-1
AT5g64790	1
AT5g64800	1
AT5g64810	1
AT5g64820	-1
AT5g64830	-1
AT5g64840	-1
AT5g64850	1
AT5g64860	-1
AT5g64870	-1
AT5g64880	1
AT5g64890	1
AT5g64900	1
AT5g64910	1
AT5g64920	-1
AT5g64930	-1
AT5g64940	1
AT5g64950	1
AT5g64960	1
AT5g64970	-1
AT5g64980	-1
AT5g64990	-1
AT5g65000	-1
AT5g65010	1
AT5g65020	1
AT5g65030	-1
AT5g65040	-1
AT5g65050	1
AT5g65060	1
AT5g65070	1
AT5g65080	1
AT5g65090	1
AT5g65100	-1
AT5g65110	-1
AT5g65120	1
AT5g65130	1
AT5g65140	-1
AT5g65160	-1
AT5g65170	1
AT5g65180	1
AT5g65200	-1
AT5g65210	1
AT5g65220	1
AT5g65230	1
AT5g65240	-1
AT5g65250	-1
AT5g65260	-1
AT5g65270	1
AT5g65280	-1
AT5g65290	1
AT5g65300	-1
AT5g65310	-1
AT5g65320	-1
AT5g65330	1
AT5g65340	-1
AT5g65350	-1
AT5g65360	-1
AT5g65370	1
AT5g65380	-1
AT5g65390	-1
AT5g65400	1
AT5g65410	1
AT5g65420	-1
AT5g65430	-1
AT5g65440	1
AT5g65450	1
AT5g65460	-1
AT5g65470	1
AT5g65480	1
AT5g65490	-1
AT5g65500	-1
AT5g65510	1
AT5g65520	-1
AT5g65530	-1
AT5g65540	1
AT5g65550	-1
AT5g65560	-1
AT5g65570	1
AT5g65580	1
AT5g65590	-1
AT5g65600	-1
AT5g65610	1
AT5g65620	1
AT5g65630	-1
AT5g65640	1
AT5g65650	1
AT5g65660	-1
AT5g65670	1
AT5g65690	1
AT5g65700	1
AT5g65710	1
AT5g65720	1
AT5g65730	1
AT5g65740	-1
AT5g65750	1
AT5g65760	1
AT5g65770	1
AT5g65780	1
AT5g65790	1
AT5g65800	-1
AT5g65810	-1
AT5g65820	-1
AT5g65830	-1
AT5g65840	-1
AT5g65850	1
AT5g65860	-1
AT5g65870	1
AT5g65880	1
AT5g65890	1
AT5g65900	1
AT5g65910	-1
AT5g65920	-1
AT5g65930	-1
AT5g65940	-1
AT5g65950	1
AT5g65960	1
AT5g65970	-1
AT5g65980	1
AT5g65990	1
AT5g66000	-1
AT5g66010	1
AT5g66020	-1
AT5g66030	-1
AT5g66040	1
AT5g66050	-1
AT5g66060	1
AT5g66070	1
AT5g66080	-1
AT5g66090	1
AT5g66100	1
AT5g66110	1
AT5g66120	-1
AT5g66130	1
AT5g66140	-1
AT5g66150	-1
AT5g66160	1
AT5g66170	1
AT5g66180	1
AT5g66190	-1
AT5g66200	-1
AT5g66210	-1
AT5g66220	1
AT5g66230	1
AT5g66240	1
AT5g66250	1
AT5g66260	1
AT5g66270	-1
AT5g66280	1
AT5g66290	-1
AT5g66300	-1
AT5g66310	-1
AT5g66320	-1
AT5g66330	-1
AT5g66340	1
AT5g66350	-1
AT5g66360	1
AT5g66370	-1
AT5g66380	-1
AT5g66390	-1
AT5g66400	-1
AT5g66410	1
AT5g66420	-1
AT5g66430	-1
AT5g66440	-1
AT5g66450	1
AT5g66460	-1
AT5g66470	-1
AT5g66480	-1
AT5g66490	-1
AT5g66500	-1
AT5g66510	-1
AT5g66520	1
AT5g66530	-1
AT5g66540	-1
AT5g66550	-1
AT5g66560	1
AT5g66570	1
AT5g66580	1
AT5g66590	1
AT5g66600	-1
AT5g66610	1
AT5g66620	1
AT5g66630	1
AT5g66640	1
AT5g66650	-1
AT5g66660	-1
AT5g66670	-1
AT5g66680	-1
AT5g66690	1
AT5g66700	1
AT5g66710	1
AT5g66720	-1
AT5g66730	-1
AT5g66740	1
AT5g66750	1
AT5g66760	1
AT5g66770	1
AT5g66780	1
AT5g66790	1
AT5g66800	1
AT5g66810	1
AT5g66820	1
AT5g66830	1
AT5g66840	-1
AT5g66850	-1
AT5g66860	-1
AT5g66870	1
AT5g66880	1
AT5g66890	-1
AT5g66900	-1
AT5g66910	-1
AT5g66920	1
AT5g66930	1
AT5g66940	-1
AT5g66950	1
AT5g66960	-1
AT5g66970	-1
AT5g66980	1
AT5g66990	-1
AT5g67000	-1
AT5g67010	-1
AT5g67020	1
AT5g67030	-1
AT5g67040	-1
AT5g67050	-1
AT5g67060	1
AT5g67070	1
AT5g67080	1
AT5g67090	-1
AT5g67100	1
AT5g67110	-1
AT5g67120	-1
AT5g67130	1
AT5g67140	-1
AT5g67150	-1
AT5g67160	-1
AT5g67170	1
AT5g67180	-1
AT5g67190	-1
AT5g67200	-1
AT5g67210	1
AT5g67220	-1
AT5g67230	1
AT5g67240	-1
AT5g67250	-1
AT5g67260	1
AT5g67270	-1
AT5g67280	-1
AT5g67290	-1
AT5g67300	1
AT5g67310	-1
AT5g67320	1
AT5g67330	1
AT5g67340	1
AT5g67350	-1
AT5g67360	-1
AT5g67370	-1
AT5g67380	-1
AT5g67390	-1
AT5g67400	1
AT5g67410	-1
AT5g67420	-1
AT5g67430	1
AT5g67440	-1
AT5g67450	-1
AT5g67460	-1
AT5g67470	1
AT5g67480	-1
AT5g67490	-1
AT5g67500	1
AT5g67510	-1
AT5g67520	1
AT5g67530	1
AT5g67540	-1
AT5g67550	-1
AT5g67560	1
AT5g67570	1
AT5g67580	-1
AT5g67590	1
AT5g67600	-1
AT5g67610	-1
AT5g67620	-1
AT5g67630	-1
AT5g67640	-1
AT5g67650	-1
